impedance_data/10.csv

Record Length,2500,Points,-250.00000000E-3,864.000022411E-3,,Record Length,2500,Points,-250.00000000E-3,70.000000298E-3,
Sample Interval,199.99999495E-6,s,-249.79999661E-3,864.000022411E-3,,Sample Interval,199.99999495E-6,s,-249.79999661E-3,67.199997604E-3,
Trigger Point,1.2500001E3,Samples,-249.59999323E-3,860.000014305E-3,,Trigger Point,1.2500001E3,Samples,-249.59999323E-3,68.799994886E-3,
,,,-249.40000474E-3,856.000065804E-3,,,,,-249.40000474E-3,68.399995565E-3,
,,,-249.20000136E-3,852.000057697E-3,,,,,-249.20000136E-3,70.000000298E-3,
,,,-248.99999797E-3,848.000049591E-3,,,,,-248.99999797E-3,65.600000322E-3,
Source,CH1,,-248.79999459E-3,844.000041485E-3,,Source,CH2,,-248.79999459E-3,67.199997604E-3,
Vertical Units,Volts,,-248.60000610E-3,844.000041485E-3,,Vertical Units,Volts,,-248.60000610E-3,66.799998283E-3,
Vertical Scale,100.0000047E-3,,-248.40000272E-3,840.000033379E-3,,Vertical Scale,9.999999747E-3,,-248.40000272E-3,65.200001001E-3,
Vertical Offset,0,,-248.19999933E-3,836.000025272E-3,,Vertical Offset,0,,-248.19999933E-3,61.599999666E-3,
Horizontal Units,s,,-247.99999595E-3,832.000017166E-3,,Horizontal Units,s,,-247.99999595E-3,64.800001681E-3,
Horizontal Scale,49.99999874E-3,,-247.80000746E-3,832.000017166E-3,,Horizontal Scale,49.99999874E-3,,-247.80000746E-3,64.800001681E-3,
Pt Fmt,Y,,-247.60000408E-3,828.000068665E-3,,Pt Fmt,Y,,-247.60000408E-3,61.599999666E-3,
Yzero,-9.160000000,,-247.40000069E-3,824.000060558E-3,,Yzero,-7.04000000,,-247.40000069E-3,67.199997604E-3,
Probe Atten,1.000000,,-247.19999731E-3,820.000052452E-3,,Probe Atten,1.000000,,-247.19999731E-3,61.599999666E-3,
,,,-246.99999392E-3,816.000044346E-3,,,,,-246.99999392E-3,63.199996948E-3,
Note,TBS 1022 - 20:10:28   25/7/2022,,-246.80000544E-3,816.000044346E-3,,Note,TBS 1022 - 20:10:28   25/7/2022,,-246.80000544E-3,62.799997628E-3,
,,,-246.60000205E-3,812.000036240E-3,,,,,-246.60000205E-3,66.399998963E-3,
,,,-246.39999866E-3,808.000028133E-3,,,,,-246.39999866E-3,63.599996269E-3,
,,,-246.19999528E-3,804.000020027E-3,,,,,-246.19999528E-3,62.399998307E-3,
,,,-246.00000679E-3,800.000011921E-3,,,,,-246.00000679E-3,63.599996269E-3,
,,,-245.80000341E-3,800.000011921E-3,,,,,-245.80000341E-3,63.999995589E-3,
,,,-245.60000002E-3,796.000063419E-3,,,,,-245.60000002E-3,60.399997979E-3,
,,,-245.39999664E-3,792.000055313E-3,,,,,-245.39999664E-3,56.800000370E-3,
,,,-245.19999325E-3,788.000047207E-3,,,,,-245.19999325E-3,62.799997628E-3,
,,,-245.00000477E-3,788.000047207E-3,,,,,-245.00000477E-3,65.600000322E-3,
,,,-244.80000138E-3,784.000039101E-3,,,,,-244.80000138E-3,61.999998987E-3,
,,,-244.59999800E-3,780.000030994E-3,,,,,-244.59999800E-3,58.799996972E-3,
,,,-244.39999461E-3,776.000022888E-3,,,,,-244.39999461E-3,65.999999642E-3,
,,,-244.20000613E-3,776.000022888E-3,,,,,-244.20000613E-3,68.799994886E-3,
,,,-244.00000274E-3,772.000014782E-3,,,,,-244.00000274E-3,59.599999338E-3,
,,,-243.79999936E-3,768.000006676E-3,,,,,-243.79999936E-3,58.799996972E-3,
,,,-243.59999597E-3,764.000058174E-3,,,,,-243.59999597E-3,61.199996620E-3,
,,,-243.40000749E-3,760.000050068E-3,,,,,-243.40000749E-3,60.799997300E-3,
,,,-243.20000410E-3,760.000050068E-3,,,,,-243.20000410E-3,59.200000018E-3,
,,,-243.00000072E-3,756.000041962E-3,,,,,-243.00000072E-3,59.200000018E-3,
,,,-242.79999733E-3,756.000041962E-3,,,,,-242.79999733E-3,55.199999362E-3,
,,,-242.59999394E-3,752.000033855E-3,,,,,-242.59999394E-3,56.800000370E-3,
,,,-242.40000546E-3,748.000025749E-3,,,,,-242.40000546E-3,63.999995589E-3,
,,,-242.20000207E-3,744.000017643E-3,,,,,-242.20000207E-3,60.399997979E-3,
,,,-241.99999869E-3,744.000017643E-3,,,,,-241.99999869E-3,56.800000370E-3,
,,,-241.79999530E-3,740.000009537E-3,,,,,-241.79999530E-3,53.59999835E-3,
,,,-241.60000682E-3,740.000009537E-3,,,,,-241.60000682E-3,59.599999338E-3,
,,,-241.40000343E-3,736.000061035E-3,,,,,-241.40000343E-3,59.599999338E-3,
,,,-241.20000005E-3,732.000052929E-3,,,,,-241.20000005E-3,59.599999338E-3,
,,,-240.99999666E-3,732.000052929E-3,,,,,-240.99999666E-3,57.599999011E-3,
,,,-240.79999328E-3,724.000036716E-3,,,,,-240.79999328E-3,60.399997979E-3,
,,,-240.60000479E-3,724.000036716E-3,,,,,-240.60000479E-3,59.999998659E-3,
,,,-240.40000141E-3,724.000036716E-3,,,,,-240.40000141E-3,57.999998331E-3,
,,,-240.19999802E-3,720.000028610E-3,,,,,-240.19999802E-3,61.199996620E-3,
,,,-239.99999464E-3,716.000020504E-3,,,,,-239.99999464E-3,57.999998331E-3,
,,,-239.80000615E-3,716.000020504E-3,,,,,-239.80000615E-3,51.99999735E-3,
,,,-239.60000277E-3,712.000012398E-3,,,,,-239.60000277E-3,54.39999700E-3,
,,,-239.39999938E-3,712.000012398E-3,,,,,-239.39999938E-3,56.399997324E-3,
,,,-239.19999599E-3,708.000004292E-3,,,,,-239.19999599E-3,56.399997324E-3,
,,,-239.00000751E-3,704.000055790E-3,,,,,-239.00000751E-3,60.799997300E-3,
,,,-238.80000412E-3,704.000055790E-3,,,,,-238.80000412E-3,56.399997324E-3,
,,,-238.60000074E-3,700.000047684E-3,,,,,-238.60000074E-3,57.599999011E-3,
,,,-238.39999735E-3,696.000039577E-3,,,,,-238.39999735E-3,59.999998659E-3,
,,,-238.19999397E-3,696.000039577E-3,,,,,-238.19999397E-3,53.59999835E-3,
,,,-238.00000548E-3,696.000039577E-3,,,,,-238.00000548E-3,50.40000007E-3,
,,,-237.80000210E-3,692.000031471E-3,,,,,-237.80000210E-3,53.99999768E-3,
,,,-237.59999871E-3,688.000023365E-3,,,,,-237.59999871E-3,54.800000042E-3,
,,,-237.39999533E-3,688.000023365E-3,,,,,-237.39999533E-3,56.399997324E-3,
,,,-237.20000684E-3,684.000015259E-3,,,,,-237.20000684E-3,54.39999700E-3,
,,,-237.00000346E-3,684.000015259E-3,,,,,-237.00000346E-3,49.99999702E-3,
,,,-236.80000007E-3,680.000007153E-3,,,,,-236.80000007E-3,51.59999803E-3,
,,,-236.59999669E-3,676.000058651E-3,,,,,-236.59999669E-3,56.399997324E-3,
,,,-236.39999330E-3,676.000058651E-3,,,,,-236.39999330E-3,52.79999971E-3,
,,,-236.20000482E-3,676.000058651E-3,,,,,-236.20000482E-3,53.19999903E-3,
,,,-236.00000143E-3,672.000050545E-3,,,,,-236.00000143E-3,48.79999906E-3,
,,,-235.79999804E-3,672.000050545E-3,,,,,-235.79999804E-3,51.99999735E-3,
,,,-235.59999466E-3,668.000042439E-3,,,,,-235.59999466E-3,52.40000039E-3,
,,,-235.40000618E-3,668.000042439E-3,,,,,-235.40000618E-3,49.59999770E-3,
,,,-235.20000279E-3,668.000042439E-3,,,,,-235.20000279E-3,52.40000039E-3,
,,,-234.99999940E-3,664.000034332E-3,,,,,-234.99999940E-3,46.79999873E-3,
,,,-234.79999602E-3,660.000026226E-3,,,,,-234.79999602E-3,51.19999871E-3,
,,,-234.60000753E-3,660.000026226E-3,,,,,-234.60000753E-3,53.19999903E-3,
,,,-234.40000415E-3,660.000026226E-3,,,,,-234.40000415E-3,50.40000007E-3,
,,,-234.20000076E-3,656.000018120E-3,,,,,-234.20000076E-3,53.19999903E-3,
,,,-233.99999738E-3,656.000018120E-3,,,,,-233.99999738E-3,54.800000042E-3,
,,,-233.79999399E-3,656.000018120E-3,,,,,-233.79999399E-3,46.39999941E-3,
,,,-233.60000551E-3,652.000010014E-3,,,,,-233.60000551E-3,56.399997324E-3,
,,,-233.40000212E-3,652.000010014E-3,,,,,-233.40000212E-3,50.79999939E-3,
,,,-233.19999874E-3,652.000010014E-3,,,,,-233.19999874E-3,53.59999835E-3,
,,,-232.99999535E-3,648.000001907E-3,,,,,-232.99999535E-3,56.399997324E-3,
,,,-232.80000687E-3,648.000001907E-3,,,,,-232.80000687E-3,51.19999871E-3,
,,,-232.60000348E-3,648.000001907E-3,,,,,-232.60000348E-3,48.00000042E-3,
,,,-232.40000010E-3,644.000053406E-3,,,,,-232.40000010E-3,52.79999971E-3,
,,,-232.19999671E-3,644.000053406E-3,,,,,-232.19999671E-3,52.79999971E-3,
,,,-231.99999332E-3,644.000053406E-3,,,,,-231.99999332E-3,53.99999768E-3,
,,,-231.80000484E-3,644.000053406E-3,,,,,-231.80000484E-3,56.800000370E-3,
,,,-231.60000145E-3,640.000045300E-3,,,,,-231.60000145E-3,50.79999939E-3,
,,,-231.39999807E-3,640.000045300E-3,,,,,-231.39999807E-3,54.39999700E-3,
,,,-231.19999468E-3,640.000045300E-3,,,,,-231.19999468E-3,49.99999702E-3,
,,,-231.00000620E-3,640.000045300E-3,,,,,-231.00000620E-3,48.79999906E-3,
,,,-230.80000281E-3,636.000037193E-3,,,,,-230.80000281E-3,51.19999871E-3,
,,,-230.59999943E-3,636.000037193E-3,,,,,-230.59999943E-3,47.19999805E-3,
,,,-230.39999604E-3,636.000037193E-3,,,,,-230.39999604E-3,53.59999835E-3,
,,,-230.20000756E-3,636.000037193E-3,,,,,-230.20000756E-3,49.99999702E-3,
,,,-230.00000417E-3,636.000037193E-3,,,,,-230.00000417E-3,49.99999702E-3,
,,,-229.80000079E-3,632.000029087E-3,,,,,-229.80000079E-3,52.40000039E-3,
,,,-229.59999740E-3,632.000029087E-3,,,,,-229.59999740E-3,47.59999737E-3,
,,,-229.39999402E-3,632.000029087E-3,,,,,-229.39999402E-3,50.40000007E-3,
,,,-229.20000553E-3,632.000029087E-3,,,,,-229.20000553E-3,52.79999971E-3,
,,,-229.00000215E-3,632.000029087E-3,,,,,-229.00000215E-3,48.39999974E-3,
,,,-228.79999876E-3,632.000029087E-3,,,,,-228.79999876E-3,54.800000042E-3,
,,,-228.59999537E-3,632.000029087E-3,,,,,-228.59999537E-3,53.99999768E-3,
,,,-228.40000689E-3,632.000029087E-3,,,,,-228.40000689E-3,50.79999939E-3,
,,,-228.20000350E-3,628.000020981E-3,,,,,-228.20000350E-3,48.39999974E-3,
,,,-228.00000012E-3,628.000020981E-3,,,,,-228.00000012E-3,48.79999906E-3,
,,,-227.79999673E-3,628.000020981E-3,,,,,-227.79999673E-3,47.19999805E-3,
,,,-227.59999335E-3,628.000020981E-3,,,,,-227.59999335E-3,50.40000007E-3,
,,,-227.40000486E-3,628.000020981E-3,,,,,-227.40000486E-3,46.39999941E-3,
,,,-227.20000148E-3,628.000020981E-3,,,,,-227.20000148E-3,53.19999903E-3,
,,,-226.99999809E-3,628.000020981E-3,,,,,-226.99999809E-3,49.19999838E-3,
,,,-226.79999471E-3,628.000020981E-3,,,,,-226.79999471E-3,53.99999768E-3,
,,,-226.60000622E-3,628.000020981E-3,,,,,-226.60000622E-3,49.19999838E-3,
,,,-226.40000284E-3,628.000020981E-3,,,,,-226.40000284E-3,53.59999835E-3,
,,,-226.19999945E-3,628.000020981E-3,,,,,-226.19999945E-3,48.39999974E-3,
,,,-225.99999607E-3,628.000020981E-3,,,,,-225.99999607E-3,52.40000039E-3,
,,,-225.80000758E-3,628.000020981E-3,,,,,-225.80000758E-3,47.19999805E-3,
,,,-225.60000420E-3,628.000020981E-3,,,,,-225.60000420E-3,52.79999971E-3,
,,,-225.40000081E-3,628.000020981E-3,,,,,-225.40000081E-3,50.79999939E-3,
,,,-225.19999743E-3,628.000020981E-3,,,,,-225.19999743E-3,46.39999941E-3,
,,,-224.99999404E-3,628.000020981E-3,,,,,-224.99999404E-3,53.59999835E-3,
,,,-224.80000556E-3,628.000020981E-3,,,,,-224.80000556E-3,52.40000039E-3,
,,,-224.60000217E-3,628.000020981E-3,,,,,-224.60000217E-3,45.59999704E-3,
,,,-224.39999878E-3,632.000029087E-3,,,,,-224.39999878E-3,53.59999835E-3,
,,,-224.19999540E-3,632.000029087E-3,,,,,-224.19999540E-3,46.39999941E-3,
,,,-224.00000691E-3,632.000029087E-3,,,,,-224.00000691E-3,52.40000039E-3,
,,,-223.80000353E-3,632.000029087E-3,,,,,-223.80000353E-3,49.59999770E-3,
,,,-223.60000014E-3,632.000029087E-3,,,,,-223.60000014E-3,51.99999735E-3,
,,,-223.39999676E-3,632.000029087E-3,,,,,-223.39999676E-3,49.99999702E-3,
,,,-223.19999337E-3,632.000029087E-3,,,,,-223.19999337E-3,51.99999735E-3,
,,,-223.00000489E-3,632.000029087E-3,,,,,-223.00000489E-3,48.39999974E-3,
,,,-222.80000150E-3,636.000037193E-3,,,,,-222.80000150E-3,50.40000007E-3,
,,,-222.59999812E-3,636.000037193E-3,,,,,-222.59999812E-3,48.00000042E-3,
,,,-222.39999473E-3,636.000037193E-3,,,,,-222.39999473E-3,47.19999805E-3,
,,,-222.20000625E-3,636.000037193E-3,,,,,-222.20000625E-3,48.39999974E-3,
,,,-222.00000286E-3,636.000037193E-3,,,,,-222.00000286E-3,46.79999873E-3,
,,,-221.79999948E-3,640.000045300E-3,,,,,-221.79999948E-3,53.99999768E-3,
,,,-221.59999609E-3,640.000045300E-3,,,,,-221.59999609E-3,49.99999702E-3,
,,,-221.40000761E-3,640.000045300E-3,,,,,-221.40000761E-3,52.79999971E-3,
,,,-221.20000422E-3,640.000045300E-3,,,,,-221.20000422E-3,53.19999903E-3,
,,,-221.00000083E-3,644.000053406E-3,,,,,-221.00000083E-3,52.79999971E-3,
,,,-220.79999745E-3,644.000053406E-3,,,,,-220.79999745E-3,46.39999941E-3,
,,,-220.59999406E-3,644.000053406E-3,,,,,-220.59999406E-3,48.79999906E-3,
,,,-220.40000558E-3,648.000001907E-3,,,,,-220.40000558E-3,50.40000007E-3,
,,,-220.20000219E-3,648.000001907E-3,,,,,-220.20000219E-3,51.59999803E-3,
,,,-219.99999881E-3,648.000001907E-3,,,,,-219.99999881E-3,47.59999737E-3,
,,,-219.79999542E-3,648.000001907E-3,,,,,-219.79999542E-3,54.39999700E-3,
,,,-219.60000694E-3,652.000010014E-3,,,,,-219.60000694E-3,51.59999803E-3,
,,,-219.40000355E-3,652.000010014E-3,,,,,-219.40000355E-3,55.599998683E-3,
,,,-219.20000017E-3,656.000018120E-3,,,,,-219.20000017E-3,59.200000018E-3,
,,,-218.99999678E-3,656.000018120E-3,,,,,-218.99999678E-3,55.199999362E-3,
,,,-218.79999340E-3,656.000018120E-3,,,,,-218.79999340E-3,53.99999768E-3,
,,,-218.60000491E-3,660.000026226E-3,,,,,-218.60000491E-3,51.59999803E-3,
,,,-218.40000153E-3,660.000026226E-3,,,,,-218.40000153E-3,56.399997324E-3,
,,,-218.19999814E-3,660.000026226E-3,,,,,-218.19999814E-3,49.99999702E-3,
,,,-217.99999475E-3,664.000034332E-3,,,,,-217.99999475E-3,49.19999838E-3,
,,,-217.80000627E-3,664.000034332E-3,,,,,-217.80000627E-3,51.19999871E-3,
,,,-217.60000288E-3,668.000042439E-3,,,,,-217.60000288E-3,47.59999737E-3,
,,,-217.39999950E-3,668.000042439E-3,,,,,-217.39999950E-3,48.39999974E-3,
,,,-217.19999611E-3,668.000042439E-3,,,,,-217.19999611E-3,56.800000370E-3,
,,,-217.00000763E-3,672.000050545E-3,,,,,-217.00000763E-3,57.599999011E-3,
,,,-216.80000424E-3,676.000058651E-3,,,,,-216.80000424E-3,54.800000042E-3,
,,,-216.60000086E-3,676.000058651E-3,,,,,-216.60000086E-3,52.79999971E-3,
,,,-216.39999747E-3,676.000058651E-3,,,,,-216.39999747E-3,53.99999768E-3,
,,,-216.19999409E-3,680.000007153E-3,,,,,-216.19999409E-3,55.199999362E-3,
,,,-216.00000560E-3,680.000007153E-3,,,,,-216.00000560E-3,55.199999362E-3,
,,,-215.80000222E-3,684.000015259E-3,,,,,-215.80000222E-3,56.399997324E-3,
,,,-215.59999883E-3,684.000015259E-3,,,,,-215.59999883E-3,57.599999011E-3,
,,,-215.39999545E-3,688.000023365E-3,,,,,-215.39999545E-3,58.399997652E-3,
,,,-215.20000696E-3,688.000023365E-3,,,,,-215.20000696E-3,53.59999835E-3,
,,,-215.00000358E-3,692.000031471E-3,,,,,-215.00000358E-3,54.800000042E-3,
,,,-214.80000019E-3,696.000039577E-3,,,,,-214.80000019E-3,53.99999768E-3,
,,,-214.59999681E-3,696.000039577E-3,,,,,-214.59999681E-3,54.800000042E-3,
,,,-214.40000832E-3,700.000047684E-3,,,,,-214.40000832E-3,56.800000370E-3,
,,,-214.20000494E-3,700.000047684E-3,,,,,-214.20000494E-3,52.40000039E-3,
,,,-214.00000155E-3,704.000055790E-3,,,,,-214.00000155E-3,53.19999903E-3,
,,,-213.79999816E-3,704.000055790E-3,,,,,-213.79999816E-3,55.199999362E-3,
,,,-213.59999478E-3,708.000004292E-3,,,,,-213.59999478E-3,60.399997979E-3,
,,,-213.40000629E-3,712.000012398E-3,,,,,-213.40000629E-3,57.199999690E-3,
,,,-213.20000291E-3,712.000012398E-3,,,,,-213.20000291E-3,59.599999338E-3,
,,,-212.99999952E-3,716.000020504E-3,,,,,-212.99999952E-3,57.199999690E-3,
,,,-212.79999614E-3,720.000028610E-3,,,,,-212.79999614E-3,61.599999666E-3,
,,,-212.60000765E-3,720.000028610E-3,,,,,-212.60000765E-3,60.799997300E-3,
,,,-212.40000427E-3,724.000036716E-3,,,,,-212.40000427E-3,61.199996620E-3,
,,,-212.20000088E-3,724.000036716E-3,,,,,-212.20000088E-3,62.799997628E-3,
,,,-211.99999750E-3,728.000044823E-3,,,,,-211.99999750E-3,59.999998659E-3,
,,,-211.79999411E-3,732.000052929E-3,,,,,-211.79999411E-3,56.399997324E-3,
,,,-211.60000563E-3,732.000052929E-3,,,,,-211.60000563E-3,58.799996972E-3,
,,,-211.40000224E-3,736.000061035E-3,,,,,-211.40000224E-3,56.800000370E-3,
,,,-211.19999886E-3,740.000009537E-3,,,,,-211.19999886E-3,65.600000322E-3,
,,,-210.99999547E-3,740.000009537E-3,,,,,-210.99999547E-3,63.599996269E-3,
,,,-210.80000699E-3,744.000017643E-3,,,,,-210.80000699E-3,57.599999011E-3,
,,,-210.60000360E-3,748.000025749E-3,,,,,-210.60000360E-3,63.999995589E-3,
,,,-210.40000021E-3,752.000033855E-3,,,,,-210.40000021E-3,61.999998987E-3,
,,,-210.19999683E-3,752.000033855E-3,,,,,-210.19999683E-3,61.999998987E-3,
,,,-210.00000834E-3,756.000041962E-3,,,,,-210.00000834E-3,58.399997652E-3,
,,,-209.80000496E-3,760.000050068E-3,,,,,-209.80000496E-3,57.999998331E-3,
,,,-209.60000157E-3,760.000050068E-3,,,,,-209.60000157E-3,59.999998659E-3,
,,,-209.39999819E-3,764.000058174E-3,,,,,-209.39999819E-3,61.999998987E-3,
,,,-209.19999480E-3,768.000006676E-3,,,,,-209.19999480E-3,57.199999690E-3,
,,,-209.00000632E-3,768.000006676E-3,,,,,-209.00000632E-3,60.799997300E-3,
,,,-208.80000293E-3,772.000014782E-3,,,,,-208.80000293E-3,57.199999690E-3,
,,,-208.59999955E-3,776.000022888E-3,,,,,-208.59999955E-3,62.799997628E-3,
,,,-208.39999616E-3,780.000030994E-3,,,,,-208.39999616E-3,64.399994910E-3,
,,,-208.20000768E-3,780.000030994E-3,,,,,-208.20000768E-3,69.600000978E-3,
,,,-208.00000429E-3,784.000039101E-3,,,,,-208.00000429E-3,66.799998283E-3,
,,,-207.80000091E-3,788.000047207E-3,,,,,-207.80000091E-3,65.999999642E-3,
,,,-207.59999752E-3,792.000055313E-3,,,,,-207.59999752E-3,65.600000322E-3,
,,,-207.39999413E-3,796.000063419E-3,,,,,-207.39999413E-3,61.199996620E-3,
,,,-207.20000565E-3,796.000063419E-3,,,,,-207.20000565E-3,59.599999338E-3,
,,,-207.00000226E-3,800.000011921E-3,,,,,-207.00000226E-3,65.600000322E-3,
,,,-206.79999888E-3,800.000011921E-3,,,,,-206.79999888E-3,63.999995589E-3,
,,,-206.59999549E-3,808.000028133E-3,,,,,-206.59999549E-3,63.199996948E-3,
,,,-206.40000701E-3,808.000028133E-3,,,,,-206.40000701E-3,65.999999642E-3,
,,,-206.20000362E-3,812.000036240E-3,,,,,-206.20000362E-3,65.999999642E-3,
,,,-206.00000024E-3,816.000044346E-3,,,,,-206.00000024E-3,66.799998283E-3,
,,,-205.79999685E-3,820.000052452E-3,,,,,-205.79999685E-3,70.799998939E-3,
,,,-205.60000837E-3,824.000060558E-3,,,,,-205.60000837E-3,68.399995565E-3,
,,,-205.40000498E-3,824.000060558E-3,,,,,-205.40000498E-3,65.600000322E-3,
,,,-205.20000160E-3,828.000068665E-3,,,,,-205.20000160E-3,64.399994910E-3,
,,,-204.99999821E-3,832.000017166E-3,,,,,-204.99999821E-3,67.999996245E-3,
,,,-204.79999483E-3,836.000025272E-3,,,,,-204.79999483E-3,69.200001657E-3,
,,,-204.60000634E-3,836.000025272E-3,,,,,-204.60000634E-3,64.800001681E-3,
,,,-204.40000296E-3,840.000033379E-3,,,,,-204.40000296E-3,67.999996245E-3,
,,,-204.19999957E-3,844.000041485E-3,,,,,-204.19999957E-3,71.199998260E-3,
,,,-203.99999619E-3,848.000049591E-3,,,,,-203.99999619E-3,74.400000274E-3,
,,,-203.80000770E-3,852.000057697E-3,,,,,-203.80000770E-3,68.399995565E-3,
,,,-203.60000432E-3,852.000057697E-3,,,,,-203.60000432E-3,72.799995542E-3,
,,,-203.40000093E-3,856.000065804E-3,,,,,-203.40000093E-3,67.999996245E-3,
,,,-203.19999754E-3,860.000014305E-3,,,,,-203.19999754E-3,66.799998283E-3,
,,,-202.99999416E-3,864.000022411E-3,,,,,-202.99999416E-3,64.399994910E-3,
,,,-202.80000567E-3,864.000022411E-3,,,,,-202.80000567E-3,71.599997580E-3,
,,,-202.60000229E-3,868.000030518E-3,,,,,-202.60000229E-3,75.599998236E-3,
,,,-202.39999890E-3,872.000038624E-3,,,,,-202.39999890E-3,68.799994886E-3,
,,,-202.19999552E-3,876.000046730E-3,,,,,-202.19999552E-3,73.600001633E-3,
,,,-202.00000703E-3,880.000054836E-3,,,,,-202.00000703E-3,72.799995542E-3,
,,,-201.80000365E-3,884.000062943E-3,,,,,-201.80000365E-3,65.999999642E-3,
,,,-201.60000026E-3,888.000071049E-3,,,,,-201.60000026E-3,72.399996221E-3,
,,,-201.39999688E-3,888.000071049E-3,,,,,-201.39999688E-3,74.000000954E-3,
,,,-201.20000839E-3,892.000019550E-3,,,,,-201.20000839E-3,68.799994886E-3,
,,,-201.00000501E-3,896.000027657E-3,,,,,-201.00000501E-3,66.399998963E-3,
,,,-200.80000162E-3,900.000035763E-3,,,,,-200.80000162E-3,74.400000274E-3,
,,,-200.59999824E-3,904.000043869E-3,,,,,-200.59999824E-3,75.599998236E-3,
,,,-200.39999485E-3,908.000051975E-3,,,,,-200.39999485E-3,73.199994862E-3,
,,,-200.20000637E-3,908.000051975E-3,,,,,-200.20000637E-3,72.399996221E-3,
,,,-200.00000298E-3,912.000060081E-3,,,,,-200.00000298E-3,76.399996877E-3,
,,,-199.79999959E-3,916.000068188E-3,,,,,-199.79999959E-3,71.599997580E-3,
,,,-199.59999621E-3,920.000016689E-3,,,,,-199.59999621E-3,74.000000954E-3,
,,,-199.40000772E-3,924.000024796E-3,,,,,-199.40000772E-3,73.199994862E-3,
,,,-199.20000434E-3,928.000032902E-3,,,,,-199.20000434E-3,75.199998915E-3,
,,,-199.00000095E-3,932.000041008E-3,,,,,-199.00000095E-3,72.799995542E-3,
,,,-198.79999757E-3,932.000041008E-3,,,,,-198.79999757E-3,69.600000978E-3,
,,,-198.59999418E-3,936.000049114E-3,,,,,-198.59999418E-3,74.799999595E-3,
,,,-198.40000570E-3,940.000057220E-3,,,,,-198.40000570E-3,75.199998915E-3,
,,,-198.20000231E-3,944.000065327E-3,,,,,-198.20000231E-3,78.400000930E-3,
