impedance_data/50.csv

Record Length,2500,Points,-49.92000014E-3,860.000014305E-3,,Record Length,2500,Points,-49.92000014E-3,61.599999666E-3,
Sample Interval,39.99999899E-6,s,-49.88000169E-3,856.000065804E-3,,Sample Interval,39.99999899E-6,s,-49.88000169E-3,62.799997628E-3,
Trigger Point,1.2480001E3,Samples,-49.83999953E-3,852.000057697E-3,,Trigger Point,1.2480001E3,Samples,-49.83999953E-3,60.799997300E-3,
,,,-49.80000108E-3,852.000057697E-3,,,,,-49.80000108E-3,59.599999338E-3,
,,,-49.75999892E-3,848.000049591E-3,,,,,-49.75999892E-3,60.799997300E-3,
,,,-49.72000048E-3,844.000041485E-3,,,,,-49.72000048E-3,60.399997979E-3,
Source,CH1,,-49.67999831E-3,840.000033379E-3,,Source,CH2,,-49.67999831E-3,60.399997979E-3,
Vertical Units,Volts,,-49.63999987E-3,836.000025272E-3,,Vertical Units,Volts,,-49.63999987E-3,60.799997300E-3,
Vertical Scale,100.0000047E-3,,-49.60000142E-3,832.000017166E-3,,Vertical Scale,9.999999747E-3,,-49.60000142E-3,58.799996972E-3,
Vertical Offset,0,,-49.55999926E-3,832.000017166E-3,,Vertical Offset,0,,-49.55999926E-3,59.599999338E-3,
Horizontal Units,s,,-49.52000082E-3,828.000068665E-3,,Horizontal Units,s,,-49.52000082E-3,59.999998659E-3,
Horizontal Scale,9.999999747E-3,,-49.47999865E-3,824.000060558E-3,,Horizontal Scale,9.999999747E-3,,-49.47999865E-3,61.199996620E-3,
Pt Fmt,Y,,-49.44000021E-3,820.000052452E-3,,Pt Fmt,Y,,-49.44000021E-3,57.999998331E-3,
Yzero,-9.160000000,,-49.40000176E-3,816.000044346E-3,,Yzero,-7.04000000,,-49.40000176E-3,57.599999011E-3,
Probe Atten,1.000000,,-49.35999960E-3,816.000044346E-3,,Probe Atten,1.000000,,-49.35999960E-3,57.999998331E-3,
,,,-49.32000116E-3,812.000036240E-3,,,,,-49.32000116E-3,55.999998003E-3,
Note,TBS 1022 - 20:11:26   25/7/2022,,-49.27999899E-3,808.000028133E-3,,Note,TBS 1022 - 20:11:26   25/7/2022,,-49.27999899E-3,59.599999338E-3,
,,,-49.24000055E-3,804.000020027E-3,,,,,-49.24000055E-3,58.399997652E-3,
,,,-49.19999838E-3,804.000020027E-3,,,,,-49.19999838E-3,57.199999690E-3,
,,,-49.15999994E-3,800.000011921E-3,,,,,-49.15999994E-3,59.200000018E-3,
,,,-49.12000149E-3,796.000063419E-3,,,,,-49.12000149E-3,56.800000370E-3,
,,,-49.07999933E-3,792.000055313E-3,,,,,-49.07999933E-3,57.599999011E-3,
,,,-49.04000089E-3,792.000055313E-3,,,,,-49.04000089E-3,55.999998003E-3,
,,,-48.99999872E-3,788.000047207E-3,,,,,-48.99999872E-3,55.599998683E-3,
,,,-48.96000028E-3,784.000039101E-3,,,,,-48.96000028E-3,55.199999362E-3,
,,,-48.92000183E-3,780.000030994E-3,,,,,-48.92000183E-3,55.999998003E-3,
,,,-48.87999967E-3,780.000030994E-3,,,,,-48.87999967E-3,57.999998331E-3,
,,,-48.84000123E-3,776.000022888E-3,,,,,-48.84000123E-3,53.99999768E-3,
,,,-48.79999906E-3,772.000014782E-3,,,,,-48.79999906E-3,57.199999690E-3,
,,,-48.76000062E-3,768.000006676E-3,,,,,-48.76000062E-3,54.800000042E-3,
,,,-48.71999845E-3,768.000006676E-3,,,,,-48.71999845E-3,54.39999700E-3,
,,,-48.68000001E-3,764.000058174E-3,,,,,-48.68000001E-3,53.99999768E-3,
,,,-48.64000157E-3,760.000050068E-3,,,,,-48.64000157E-3,55.999998003E-3,
,,,-48.59999940E-3,760.000050068E-3,,,,,-48.59999940E-3,53.99999768E-3,
,,,-48.56000096E-3,756.000041962E-3,,,,,-48.56000096E-3,55.999998003E-3,
,,,-48.51999879E-3,752.000033855E-3,,,,,-48.51999879E-3,53.99999768E-3,
,,,-48.48000035E-3,752.000033855E-3,,,,,-48.48000035E-3,52.79999971E-3,
,,,-48.44000190E-3,748.000025749E-3,,,,,-48.44000190E-3,56.399997324E-3,
,,,-48.39999974E-3,744.000017643E-3,,,,,-48.39999974E-3,53.19999903E-3,
,,,-48.36000130E-3,740.000009537E-3,,,,,-48.36000130E-3,53.19999903E-3,
,,,-48.31999913E-3,740.000009537E-3,,,,,-48.31999913E-3,54.39999700E-3,
,,,-48.28000069E-3,736.000061035E-3,,,,,-48.28000069E-3,51.19999871E-3,
,,,-48.23999852E-3,732.000052929E-3,,,,,-48.23999852E-3,53.19999903E-3,
,,,-48.20000008E-3,732.000052929E-3,,,,,-48.20000008E-3,53.19999903E-3,
,,,-48.16000164E-3,728.000044823E-3,,,,,-48.16000164E-3,50.40000007E-3,
,,,-48.11999947E-3,724.000036716E-3,,,,,-48.11999947E-3,51.99999735E-3,
,,,-48.08000103E-3,724.000036716E-3,,,,,-48.08000103E-3,53.19999903E-3,
,,,-48.03999886E-3,724.000036716E-3,,,,,-48.03999886E-3,53.19999903E-3,
,,,-48.00000042E-3,720.000028610E-3,,,,,-48.00000042E-3,53.19999903E-3,
,,,-47.96000198E-3,716.000020504E-3,,,,,-47.96000198E-3,51.19999871E-3,
,,,-47.91999981E-3,712.000012398E-3,,,,,-47.91999981E-3,52.79999971E-3,
,,,-47.88000137E-3,712.000012398E-3,,,,,-47.88000137E-3,50.40000007E-3,
,,,-47.83999920E-3,708.000004292E-3,,,,,-47.83999920E-3,51.99999735E-3,
,,,-47.80000076E-3,708.000004292E-3,,,,,-47.80000076E-3,49.59999770E-3,
,,,-47.75999859E-3,704.000055790E-3,,,,,-47.75999859E-3,51.99999735E-3,
,,,-47.72000015E-3,700.000047684E-3,,,,,-47.72000015E-3,51.19999871E-3,
,,,-47.68000171E-3,700.000047684E-3,,,,,-47.68000171E-3,50.40000007E-3,
,,,-47.63999954E-3,696.000039577E-3,,,,,-47.63999954E-3,49.99999702E-3,
,,,-47.60000110E-3,696.000039577E-3,,,,,-47.60000110E-3,49.99999702E-3,
,,,-47.55999893E-3,692.000031471E-3,,,,,-47.55999893E-3,50.40000007E-3,
,,,-47.52000049E-3,692.000031471E-3,,,,,-47.52000049E-3,50.79999939E-3,
,,,-47.48000205E-3,688.000023365E-3,,,,,-47.48000205E-3,49.99999702E-3,
,,,-47.43999988E-3,688.000023365E-3,,,,,-47.43999988E-3,51.99999735E-3,
,,,-47.40000144E-3,684.000015259E-3,,,,,-47.40000144E-3,48.79999906E-3,
,,,-47.35999927E-3,684.000015259E-3,,,,,-47.35999927E-3,51.59999803E-3,
,,,-47.32000083E-3,680.000007153E-3,,,,,-47.32000083E-3,50.40000007E-3,
,,,-47.27999866E-3,676.000058651E-3,,,,,-47.27999866E-3,49.99999702E-3,
,,,-47.24000022E-3,676.000058651E-3,,,,,-47.24000022E-3,53.19999903E-3,
,,,-47.20000178E-3,676.000058651E-3,,,,,-47.20000178E-3,48.39999974E-3,
,,,-47.15999961E-3,672.000050545E-3,,,,,-47.15999961E-3,49.99999702E-3,
,,,-47.12000117E-3,672.000050545E-3,,,,,-47.12000117E-3,49.99999702E-3,
,,,-47.07999900E-3,668.000042439E-3,,,,,-47.07999900E-3,50.79999939E-3,
,,,-47.04000056E-3,668.000042439E-3,,,,,-47.04000056E-3,49.99999702E-3,
,,,-46.99999839E-3,664.000034332E-3,,,,,-46.99999839E-3,49.19999838E-3,
,,,-46.95999995E-3,664.000034332E-3,,,,,-46.95999995E-3,48.79999906E-3,
,,,-46.92000151E-3,660.000026226E-3,,,,,-46.92000151E-3,50.40000007E-3,
,,,-46.87999934E-3,660.000026226E-3,,,,,-46.87999934E-3,48.79999906E-3,
,,,-46.84000090E-3,660.000026226E-3,,,,,-46.84000090E-3,48.39999974E-3,
,,,-46.79999873E-3,656.000018120E-3,,,,,-46.79999873E-3,49.59999770E-3,
,,,-46.76000029E-3,656.000018120E-3,,,,,-46.76000029E-3,46.79999873E-3,
,,,-46.72000185E-3,656.000018120E-3,,,,,-46.72000185E-3,47.59999737E-3,
,,,-46.67999968E-3,652.000010014E-3,,,,,-46.67999968E-3,48.39999974E-3,
,,,-46.64000124E-3,652.000010014E-3,,,,,-46.64000124E-3,48.39999974E-3,
,,,-46.59999907E-3,652.000010014E-3,,,,,-46.59999907E-3,49.19999838E-3,
,,,-46.56000063E-3,648.000001907E-3,,,,,-46.56000063E-3,46.79999873E-3,
,,,-46.51999846E-3,648.000001907E-3,,,,,-46.51999846E-3,48.39999974E-3,
,,,-46.48000002E-3,648.000001907E-3,,,,,-46.48000002E-3,47.19999805E-3,
,,,-46.44000158E-3,644.000053406E-3,,,,,-46.44000158E-3,49.59999770E-3,
,,,-46.39999941E-3,644.000053406E-3,,,,,-46.39999941E-3,50.40000007E-3,
,,,-46.36000097E-3,644.000053406E-3,,,,,-46.36000097E-3,48.00000042E-3,
,,,-46.31999880E-3,640.000045300E-3,,,,,-46.31999880E-3,48.79999906E-3,
,,,-46.28000036E-3,640.000045300E-3,,,,,-46.28000036E-3,49.19999838E-3,
,,,-46.24000192E-3,640.000045300E-3,,,,,-46.24000192E-3,48.39999974E-3,
,,,-46.19999975E-3,640.000045300E-3,,,,,-46.19999975E-3,48.79999906E-3,
,,,-46.16000131E-3,640.000045300E-3,,,,,-46.16000131E-3,47.59999737E-3,
,,,-46.11999914E-3,640.000045300E-3,,,,,-46.11999914E-3,48.00000042E-3,
,,,-46.08000070E-3,636.000037193E-3,,,,,-46.08000070E-3,50.40000007E-3,
,,,-46.03999853E-3,636.000037193E-3,,,,,-46.03999853E-3,49.19999838E-3,
,,,-46.00000009E-3,636.000037193E-3,,,,,-46.00000009E-3,48.79999906E-3,
,,,-45.96000165E-3,636.000037193E-3,,,,,-45.96000165E-3,49.59999770E-3,
,,,-45.91999948E-3,636.000037193E-3,,,,,-45.91999948E-3,48.00000042E-3,
,,,-45.88000104E-3,632.000029087E-3,,,,,-45.88000104E-3,49.99999702E-3,
,,,-45.83999887E-3,632.000029087E-3,,,,,-45.83999887E-3,49.59999770E-3,
,,,-45.80000043E-3,632.000029087E-3,,,,,-45.80000043E-3,50.40000007E-3,
,,,-45.76000199E-3,632.000029087E-3,,,,,-45.76000199E-3,48.79999906E-3,
,,,-45.71999982E-3,632.000029087E-3,,,,,-45.71999982E-3,48.00000042E-3,
,,,-45.68000138E-3,632.000029087E-3,,,,,-45.68000138E-3,50.40000007E-3,
,,,-45.63999921E-3,632.000029087E-3,,,,,-45.63999921E-3,48.39999974E-3,
,,,-45.60000077E-3,632.000029087E-3,,,,,-45.60000077E-3,48.79999906E-3,
,,,-45.55999860E-3,628.000020981E-3,,,,,-45.55999860E-3,48.00000042E-3,
,,,-45.52000016E-3,628.000020981E-3,,,,,-45.52000016E-3,51.59999803E-3,
,,,-45.48000172E-3,628.000020981E-3,,,,,-45.48000172E-3,48.79999906E-3,
,,,-45.43999955E-3,628.000020981E-3,,,,,-45.43999955E-3,50.79999939E-3,
,,,-45.40000111E-3,628.000020981E-3,,,,,-45.40000111E-3,47.59999737E-3,
,,,-45.35999894E-3,628.000020981E-3,,,,,-45.35999894E-3,51.59999803E-3,
,,,-45.32000050E-3,628.000020981E-3,,,,,-45.32000050E-3,49.99999702E-3,
,,,-45.28000206E-3,628.000020981E-3,,,,,-45.28000206E-3,49.19999838E-3,
,,,-45.23999989E-3,628.000020981E-3,,,,,-45.23999989E-3,49.19999838E-3,
,,,-45.20000145E-3,628.000020981E-3,,,,,-45.20000145E-3,51.19999871E-3,
,,,-45.15999928E-3,628.000020981E-3,,,,,-45.15999928E-3,48.79999906E-3,
,,,-45.12000084E-3,628.000020981E-3,,,,,-45.12000084E-3,49.19999838E-3,
,,,-45.07999867E-3,628.000020981E-3,,,,,-45.07999867E-3,51.99999735E-3,
,,,-45.04000023E-3,628.000020981E-3,,,,,-45.04000023E-3,49.59999770E-3,
,,,-45.00000179E-3,632.000029087E-3,,,,,-45.00000179E-3,50.40000007E-3,
,,,-44.95999962E-3,632.000029087E-3,,,,,-44.95999962E-3,50.40000007E-3,
,,,-44.92000118E-3,632.000029087E-3,,,,,-44.92000118E-3,51.59999803E-3,
,,,-44.87999901E-3,632.000029087E-3,,,,,-44.87999901E-3,50.79999939E-3,
,,,-44.84000057E-3,632.000029087E-3,,,,,-44.84000057E-3,48.79999906E-3,
,,,-44.79999840E-3,632.000029087E-3,,,,,-44.79999840E-3,53.99999768E-3,
,,,-44.75999996E-3,632.000029087E-3,,,,,-44.75999996E-3,49.99999702E-3,
,,,-44.72000152E-3,632.000029087E-3,,,,,-44.72000152E-3,49.59999770E-3,
,,,-44.67999935E-3,632.000029087E-3,,,,,-44.67999935E-3,51.59999803E-3,
,,,-44.64000091E-3,632.000029087E-3,,,,,-44.64000091E-3,51.99999735E-3,
,,,-44.59999874E-3,636.000037193E-3,,,,,-44.59999874E-3,51.59999803E-3,
,,,-44.56000030E-3,636.000037193E-3,,,,,-44.56000030E-3,51.19999871E-3,
,,,-44.52000186E-3,636.000037193E-3,,,,,-44.52000186E-3,53.59999835E-3,
,,,-44.47999969E-3,636.000037193E-3,,,,,-44.47999969E-3,52.79999971E-3,
,,,-44.44000125E-3,636.000037193E-3,,,,,-44.44000125E-3,51.99999735E-3,
,,,-44.39999908E-3,640.000045300E-3,,,,,-44.39999908E-3,53.19999903E-3,
,,,-44.36000064E-3,640.000045300E-3,,,,,-44.36000064E-3,52.40000039E-3,
,,,-44.31999847E-3,640.000045300E-3,,,,,-44.31999847E-3,53.19999903E-3,
,,,-44.28000003E-3,640.000045300E-3,,,,,-44.28000003E-3,54.39999700E-3,
,,,-44.24000159E-3,644.000053406E-3,,,,,-44.24000159E-3,52.79999971E-3,
,,,-44.19999942E-3,644.000053406E-3,,,,,-44.19999942E-3,53.59999835E-3,
,,,-44.16000098E-3,644.000053406E-3,,,,,-44.16000098E-3,53.19999903E-3,
,,,-44.11999881E-3,648.000001907E-3,,,,,-44.11999881E-3,52.79999971E-3,
,,,-44.08000037E-3,648.000001907E-3,,,,,-44.08000037E-3,54.39999700E-3,
,,,-44.04000193E-3,648.000001907E-3,,,,,-44.04000193E-3,52.79999971E-3,
,,,-43.99999976E-3,648.000001907E-3,,,,,-43.99999976E-3,54.800000042E-3,
,,,-43.96000132E-3,652.000010014E-3,,,,,-43.96000132E-3,53.99999768E-3,
,,,-43.91999915E-3,652.000010014E-3,,,,,-43.91999915E-3,55.199999362E-3,
,,,-43.88000071E-3,652.000010014E-3,,,,,-43.88000071E-3,54.800000042E-3,
,,,-43.83999854E-3,656.000018120E-3,,,,,-43.83999854E-3,53.99999768E-3,
,,,-43.80000010E-3,656.000018120E-3,,,,,-43.80000010E-3,56.399997324E-3,
,,,-43.76000166E-3,656.000018120E-3,,,,,-43.76000166E-3,56.800000370E-3,
,,,-43.71999949E-3,660.000026226E-3,,,,,-43.71999949E-3,55.999998003E-3,
,,,-43.68000105E-3,660.000026226E-3,,,,,-43.68000105E-3,56.399997324E-3,
,,,-43.63999888E-3,660.000026226E-3,,,,,-43.63999888E-3,57.999998331E-3,
,,,-43.60000044E-3,664.000034332E-3,,,,,-43.60000044E-3,56.800000370E-3,
,,,-43.56000200E-3,664.000034332E-3,,,,,-43.56000200E-3,55.999998003E-3,
,,,-43.51999983E-3,668.000042439E-3,,,,,-43.51999983E-3,55.199999362E-3,
,,,-43.48000139E-3,668.000042439E-3,,,,,-43.48000139E-3,57.599999011E-3,
,,,-43.43999922E-3,672.000050545E-3,,,,,-43.43999922E-3,57.199999690E-3,
,,,-43.40000078E-3,672.000050545E-3,,,,,-43.40000078E-3,61.599999666E-3,
,,,-43.35999861E-3,676.000058651E-3,,,,,-43.35999861E-3,56.800000370E-3,
,,,-43.32000017E-3,676.000058651E-3,,,,,-43.32000017E-3,58.399997652E-3,
,,,-43.28000173E-3,676.000058651E-3,,,,,-43.28000173E-3,57.199999690E-3,
,,,-43.23999956E-3,680.000007153E-3,,,,,-43.23999956E-3,57.999998331E-3,
,,,-43.20000112E-3,680.000007153E-3,,,,,-43.20000112E-3,57.999998331E-3,
,,,-43.15999895E-3,684.000015259E-3,,,,,-43.15999895E-3,58.399997652E-3,
,,,-43.12000051E-3,688.000023365E-3,,,,,-43.12000051E-3,57.199999690E-3,
,,,-43.08000207E-3,688.000023365E-3,,,,,-43.08000207E-3,60.799997300E-3,
,,,-43.03999990E-3,692.000031471E-3,,,,,-43.03999990E-3,60.399997979E-3,
,,,-43.00000146E-3,692.000031471E-3,,,,,-43.00000146E-3,60.399997979E-3,
,,,-42.95999929E-3,696.000039577E-3,,,,,-42.95999929E-3,59.999998659E-3,
,,,-42.92000085E-3,696.000039577E-3,,,,,-42.92000085E-3,61.199996620E-3,
,,,-42.87999868E-3,700.000047684E-3,,,,,-42.87999868E-3,58.799996972E-3,
,,,-42.84000024E-3,704.000055790E-3,,,,,-42.84000024E-3,59.200000018E-3,
,,,-42.80000180E-3,704.000055790E-3,,,,,-42.80000180E-3,59.999998659E-3,
,,,-42.75999963E-3,708.000004292E-3,,,,,-42.75999963E-3,61.199996620E-3,
,,,-42.72000119E-3,708.000004292E-3,,,,,-42.72000119E-3,61.599999666E-3,
,,,-42.67999902E-3,712.000012398E-3,,,,,-42.67999902E-3,59.599999338E-3,
,,,-42.64000058E-3,712.000012398E-3,,,,,-42.64000058E-3,60.799997300E-3,
,,,-42.60000214E-3,716.000020504E-3,,,,,-42.60000214E-3,63.599996269E-3,
,,,-42.55999997E-3,720.000028610E-3,,,,,-42.55999997E-3,59.999998659E-3,
,,,-42.52000153E-3,724.000036716E-3,,,,,-42.52000153E-3,63.199996948E-3,
,,,-42.47999936E-3,724.000036716E-3,,,,,-42.47999936E-3,63.199996948E-3,
,,,-42.44000092E-3,724.000036716E-3,,,,,-42.44000092E-3,62.399998307E-3,
,,,-42.39999875E-3,728.000044823E-3,,,,,-42.39999875E-3,63.999995589E-3,
,,,-42.36000031E-3,732.000052929E-3,,,,,-42.36000031E-3,62.399998307E-3,
,,,-42.32000187E-3,732.000052929E-3,,,,,-42.32000187E-3,61.199996620E-3,
,,,-42.27999970E-3,736.000061035E-3,,,,,-42.27999970E-3,65.600000322E-3,
,,,-42.24000126E-3,740.000009537E-3,,,,,-42.24000126E-3,63.599996269E-3,
,,,-42.19999909E-3,740.000009537E-3,,,,,-42.19999909E-3,63.999995589E-3,
,,,-42.16000065E-3,744.000017643E-3,,,,,-42.16000065E-3,64.399994910E-3,
,,,-42.11999848E-3,748.000025749E-3,,,,,-42.11999848E-3,65.999999642E-3,
,,,-42.08000004E-3,752.000033855E-3,,,,,-42.08000004E-3,65.999999642E-3,
,,,-42.04000160E-3,752.000033855E-3,,,,,-42.04000160E-3,66.799998283E-3,
,,,-41.99999943E-3,756.000041962E-3,,,,,-41.99999943E-3,67.199997604E-3,
,,,-41.96000099E-3,760.000050068E-3,,,,,-41.96000099E-3,67.199997604E-3,
,,,-41.91999882E-3,760.000050068E-3,,,,,-41.91999882E-3,64.800001681E-3,
,,,-41.88000038E-3,764.000058174E-3,,,,,-41.88000038E-3,65.200001001E-3,
,,,-41.84000194E-3,768.000006676E-3,,,,,-41.84000194E-3,65.600000322E-3,
,,,-41.79999977E-3,768.000006676E-3,,,,,-41.79999977E-3,67.199997604E-3,
,,,-41.76000133E-3,772.000014782E-3,,,,,-41.76000133E-3,67.199997604E-3,
,,,-41.71999916E-3,776.000022888E-3,,,,,-41.71999916E-3,66.799998283E-3,
,,,-41.68000072E-3,780.000030994E-3,,,,,-41.68000072E-3,67.999996245E-3,
,,,-41.63999856E-3,780.000030994E-3,,,,,-41.63999856E-3,67.199997604E-3,
,,,-41.60000011E-3,784.000039101E-3,,,,,-41.60000011E-3,67.599996924E-3,
,,,-41.56000167E-3,788.000047207E-3,,,,,-41.56000167E-3,66.799998283E-3,
,,,-41.51999950E-3,792.000055313E-3,,,,,-41.51999950E-3,69.200001657E-3,
,,,-41.48000106E-3,796.000063419E-3,,,,,-41.48000106E-3,70.000000298E-3,
,,,-41.43999889E-3,796.000063419E-3,,,,,-41.43999889E-3,68.799994886E-3,
,,,-41.40000045E-3,800.000011921E-3,,,,,-41.40000045E-3,70.000000298E-3,
,,,-41.36000201E-3,804.000020027E-3,,,,,-41.36000201E-3,70.000000298E-3,
,,,-41.31999984E-3,808.000028133E-3,,,,,-41.31999984E-3,69.600000978E-3,
,,,-41.28000140E-3,808.000028133E-3,,,,,-41.28000140E-3,70.000000298E-3,
,,,-41.23999923E-3,812.000036240E-3,,,,,-41.23999923E-3,70.399999619E-3,
,,,-41.20000079E-3,816.000044346E-3,,,,,-41.20000079E-3,71.999996901E-3,
,,,-41.15999863E-3,820.000052452E-3,,,,,-41.15999863E-3,72.399996221E-3,
,,,-41.12000018E-3,820.000052452E-3,,,,,-41.12000018E-3,69.600000978E-3,
,,,-41.08000174E-3,824.000060558E-3,,,,,-41.08000174E-3,72.799995542E-3,
,,,-41.03999957E-3,828.000068665E-3,,,,,-41.03999957E-3,70.000000298E-3,
,,,-41.00000113E-3,832.000017166E-3,,,,,-41.00000113E-3,71.999996901E-3,
,,,-40.95999897E-3,836.000025272E-3,,,,,-40.95999897E-3,71.999996901E-3,
,,,-40.92000052E-3,836.000025272E-3,,,,,-40.92000052E-3,70.799998939E-3,
,,,-40.88000208E-3,840.000033379E-3,,,,,-40.88000208E-3,72.799995542E-3,
,,,-40.83999991E-3,844.000041485E-3,,,,,-40.83999991E-3,71.999996901E-3,
,,,-40.80000147E-3,848.000049591E-3,,,,,-40.80000147E-3,74.000000954E-3,
,,,-40.75999931E-3,852.000057697E-3,,,,,-40.75999931E-3,73.600001633E-3,
,,,-40.72000086E-3,852.000057697E-3,,,,,-40.72000086E-3,72.399996221E-3,
,,,-40.67999870E-3,856.000065804E-3,,,,,-40.67999870E-3,75.199998915E-3,
,,,-40.64000025E-3,860.000014305E-3,,,,,-40.64000025E-3,73.600001633E-3,
,,,-40.60000181E-3,864.000022411E-3,,,,,-40.60000181E-3,75.599998236E-3,
,,,-40.55999964E-3,868.000030518E-3,,,,,-40.55999964E-3,74.000000954E-3,
,,,-40.52000120E-3,868.000030518E-3,,,,,-40.52000120E-3,74.400000274E-3,
,,,-40.47999904E-3,872.000038624E-3,,,,,-40.47999904E-3,74.000000954E-3,
,,,-40.44000059E-3,876.000046730E-3,,,,,-40.44000059E-3,75.999997556E-3,
,,,-40.40000215E-3,880.000054836E-3,,,,,-40.40000215E-3,78.000001609E-3,
,,,-40.35999998E-3,884.000062943E-3,,,,,-40.35999998E-3,77.599994838E-3,
,,,-40.32000154E-3,888.000071049E-3,,,,,-40.32000154E-3,74.799999595E-3,
,,,-40.27999938E-3,892.000019550E-3,,,,,-40.27999938E-3,75.599998236E-3,
,,,-40.24000093E-3,892.000019550E-3,,,,,-40.24000093E-3,76.399996877E-3,
,,,-40.19999877E-3,896.000027657E-3,,,,,-40.19999877E-3,76.399996877E-3,
,,,-40.16000032E-3,900.000035763E-3,,,,,-40.16000032E-3,75.599998236E-3,
,,,-40.12000188E-3,904.000043869E-3,,,,,-40.12000188E-3,78.400000930E-3,
,,,-40.07999972E-3,908.000051975E-3,,,,,-40.07999972E-3,77.199995518E-3,
,,,-40.04000127E-3,912.000060081E-3,,,,,-40.04000127E-3,78.400000930E-3,
,,,-39.99999911E-3,912.000060081E-3,,,,,-39.99999911E-3,77.199995518E-3,
,,,-39.96000066E-3,916.000068188E-3,,,,,-39.96000066E-3,76.799996197E-3,
,,,-39.92000222E-3,920.000016689E-3,,,,,-39.92000222E-3,78.400000930E-3,
,,,-39.88000005E-3,924.000024796E-3,,,,,-39.88000005E-3,77.199995518E-3,
,,,-39.84000161E-3,928.000032902E-3,,,,,-39.84000161E-3,77.599994838E-3,
,,,-39.79999945E-3,932.000041008E-3,,,,,-39.79999945E-3,78.000001609E-3,
,,,-39.76000100E-3,932.000041008E-3,,,,,-39.76000100E-3,81.999994814E-3,
,,,-39.71999884E-3,936.000049114E-3,,,,,-39.71999884E-3,79.999998212E-3,
,,,-39.68000039E-3,940.000057220E-3,,,,,-39.68000039E-3,78.800000250E-3,
,,,-39.64000195E-3,944.000065327E-3,,,,,-39.64000195E-3,80.399997532E-3,
,,,-39.59999979E-3,948.000073433E-3,,,,,-39.59999979E-3,80.399997532E-3,
,,,-39.56000134E-3,948.000073433E-3,,,,,-39.56000134E-3,79.199999571E-3,
,,,-39.51999918E-3,952.000021935E-3,,,,,-39.51999918E-3,79.599998891E-3,
,,,-39.48000073E-3,956.000030041E-3,,,,,-39.48000073E-3,82.400001585E-3,
,,,-39.43999857E-3,960.000038147E-3,,,,,-39.43999857E-3,80.799996853E-3,
,,,-39.40000013E-3,964.000046253E-3,,,,,-39.40000013E-3,79.199999571E-3,
,,,-39.36000168E-3,964.000046253E-3,,,,,-39.36000168E-3,80.799996853E-3,
,,,-39.31999952E-3,968.000054359E-3,,,,,-39.31999952E-3,83.999998868E-3,
,,,-39.28000107E-3,972.000062466E-3,,,,,-39.28000107E-3,81.199996173E-3,
