impedance_data/s10.csv

Record Length,2500,Points,-125.0000000E-3,1.1840000,,Record Length,2500,Points,-125.0000000E-3,360.00001431E-3,
Sample Interval,99.999997474E-6,s,-124.8999983E-3,1.1840000,,Sample Interval,99.999997474E-6,s,-124.8999983E-3,358.00001025E-3,
Trigger Point,1.2500001E3,Samples,-124.7999966E-3,1.1920000,,Trigger Point,1.2500001E3,Samples,-124.7999966E-3,360.00001431E-3,
,,,-124.7000024E-3,1.1920000,,,,,-124.7000024E-3,360.00001431E-3,
,,,-124.6000007E-3,1.1920000,,,,,-124.6000007E-3,362.00001836E-3,
,,,-124.4999990E-3,1.1920000,,,,,-124.4999990E-3,362.00001836E-3,
Source,CH1,,-124.3999973E-3,1.1920000,,Source,CH2,,-124.3999973E-3,362.00001836E-3,
Vertical Units,Volts,,-124.3000031E-3,1.1920000,,Vertical Units,Volts,,-124.3000031E-3,362.00001836E-3,
Vertical Scale,200.00000950E-3,,-124.2000014E-3,1.1920000,,Vertical Scale,50.00000237E-3,,-124.2000014E-3,362.00001836E-3,
Vertical Offset,0,,-124.0999997E-3,1.2000000,,Vertical Offset,0,,-124.0999997E-3,362.00001836E-3,
Horizontal Units,s,,-123.9999980E-3,1.2000000,,Horizontal Units,s,,-123.9999980E-3,362.00001836E-3,
Horizontal Scale,24.99999937E-3,,-123.9000037E-3,1.2000000,,Horizontal Scale,24.99999937E-3,,-123.9000037E-3,364.00002241E-3,
Pt Fmt,Y,,-123.8000020E-3,1.2000000,,Pt Fmt,Y,,-123.8000020E-3,364.00002241E-3,
Yzero,-8.840000000,,-123.7000003E-3,1.2000000,,Yzero,-10.8000000,,-123.7000003E-3,364.00002241E-3,
Probe Atten,1.000000,,-123.5999987E-3,1.2000000,,Probe Atten,1.000000,,-123.5999987E-3,366.00002646E-3,
,,,-123.4999970E-3,1.2080001,,,,,-123.4999970E-3,364.00002241E-3,
Note,TBS 1022 - 18:39:02   25/7/2022,,-123.4000027E-3,1.2080001,,Note,TBS 1022 - 18:39:02   25/7/2022,,-123.4000027E-3,366.00002646E-3,
,,,-123.3000010E-3,1.2080001,,,,,-123.3000010E-3,366.00002646E-3,
,,,-123.1999993E-3,1.2080001,,,,,-123.1999993E-3,366.00002646E-3,
,,,-123.0999976E-3,1.2160001,,,,,-123.0999976E-3,366.00002646E-3,
,,,-123.0000034E-3,1.2160001,,,,,-123.0000034E-3,366.00002646E-3,
,,,-122.9000017E-3,1.2160001,,,,,-122.9000017E-3,366.00002646E-3,
,,,-122.8000000E-3,1.2160001,,,,,-122.8000000E-3,368.00003052E-3,
,,,-122.6999983E-3,1.2160001,,,,,-122.6999983E-3,368.00003052E-3,
,,,-122.5999966E-3,1.2160001,,,,,-122.5999966E-3,370.00000477E-3,
,,,-122.5000024E-3,1.2240001,,,,,-122.5000024E-3,368.00003052E-3,
,,,-122.4000007E-3,1.2240001,,,,,-122.4000007E-3,370.00000477E-3,
,,,-122.2999990E-3,1.2240001,,,,,-122.2999990E-3,370.00000477E-3,
,,,-122.1999973E-3,1.2240001,,,,,-122.1999973E-3,370.00000477E-3,
,,,-122.1000031E-3,1.2320001,,,,,-122.1000031E-3,370.00000477E-3,
,,,-122.0000014E-3,1.2320001,,,,,-122.0000014E-3,370.00000477E-3,
,,,-121.8999997E-3,1.2320001,,,,,-121.8999997E-3,370.00000477E-3,
,,,-121.7999980E-3,1.2320001,,,,,-121.7999980E-3,372.00000882E-3,
,,,-121.7000037E-3,1.2320001,,,,,-121.7000037E-3,372.00000882E-3,
,,,-121.6000021E-3,1.2400000,,,,,-121.6000021E-3,372.00000882E-3,
,,,-121.5000004E-3,1.2400000,,,,,-121.5000004E-3,374.00001287E-3,
,,,-121.3999987E-3,1.2400000,,,,,-121.3999987E-3,374.00001287E-3,
,,,-121.2999970E-3,1.2400000,,,,,-121.2999970E-3,374.00001287E-3,
,,,-121.2000027E-3,1.2480000,,,,,-121.2000027E-3,376.00001693E-3,
,,,-121.1000010E-3,1.2480000,,,,,-121.1000010E-3,376.00001693E-3,
,,,-120.9999993E-3,1.2480000,,,,,-120.9999993E-3,376.00001693E-3,
,,,-120.8999977E-3,1.2560000,,,,,-120.8999977E-3,378.00002098E-3,
,,,-120.8000034E-3,1.2560000,,,,,-120.8000034E-3,378.00002098E-3,
,,,-120.7000017E-3,1.2560000,,,,,-120.7000017E-3,378.00002098E-3,
,,,-120.6000000E-3,1.2560000,,,,,-120.6000000E-3,380.00002503E-3,
,,,-120.4999983E-3,1.2560000,,,,,-120.4999983E-3,380.00002503E-3,
,,,-120.3999966E-3,1.2560000,,,,,-120.3999966E-3,382.00002909E-3,
,,,-120.3000024E-3,1.2640001,,,,,-120.3000024E-3,382.00002909E-3,
,,,-120.2000007E-3,1.2640001,,,,,-120.2000007E-3,382.00002909E-3,
,,,-120.0999990E-3,1.2640001,,,,,-120.0999990E-3,382.00002909E-3,
,,,-119.9999973E-3,1.2720001,,,,,-119.9999973E-3,384.00000334E-3,
,,,-119.9000031E-3,1.2720001,,,,,-119.9000031E-3,384.00000334E-3,
,,,-119.8000014E-3,1.2720001,,,,,-119.8000014E-3,386.00000739E-3,
,,,-119.6999997E-3,1.2720001,,,,,-119.6999997E-3,386.00000739E-3,
,,,-119.5999980E-3,1.2800001,,,,,-119.5999980E-3,386.00000739E-3,
,,,-119.5000038E-3,1.2800001,,,,,-119.5000038E-3,386.00000739E-3,
,,,-119.4000021E-3,1.2800001,,,,,-119.4000021E-3,388.00001144E-3,
,,,-119.3000004E-3,1.2880001,,,,,-119.3000004E-3,388.00001144E-3,
,,,-119.1999987E-3,1.2880001,,,,,-119.1999987E-3,388.00001144E-3,
,,,-119.0999970E-3,1.2880001,,,,,-119.0999970E-3,390.00001550E-3,
,,,-119.0000027E-3,1.2880001,,,,,-119.0000027E-3,392.00001955E-3,
,,,-118.9000010E-3,1.2960000,,,,,-118.9000010E-3,392.00001955E-3,
,,,-118.7999994E-3,1.2960000,,,,,-118.7999994E-3,392.00001955E-3,
,,,-118.6999977E-3,1.2960000,,,,,-118.6999977E-3,392.00001955E-3,
,,,-118.6000034E-3,1.3040000,,,,,-118.6000034E-3,394.00002360E-3,
,,,-118.5000017E-3,1.3040000,,,,,-118.5000017E-3,394.00002360E-3,
,,,-118.4000000E-3,1.3040000,,,,,-118.4000000E-3,396.00002766E-3,
,,,-118.2999983E-3,1.3120000,,,,,-118.2999983E-3,396.00002766E-3,
,,,-118.1999967E-3,1.3120000,,,,,-118.1999967E-3,396.00002766E-3,
,,,-118.1000024E-3,1.3120000,,,,,-118.1000024E-3,398.00003171E-3,
,,,-118.0000007E-3,1.3200001,,,,,-118.0000007E-3,398.00003171E-3,
,,,-117.8999990E-3,1.3200001,,,,,-117.8999990E-3,398.00003171E-3,
,,,-117.7999973E-3,1.3200001,,,,,-117.7999973E-3,400.00000596E-3,
,,,-117.7000031E-3,1.3280001,,,,,-117.7000031E-3,400.00000596E-3,
,,,-117.6000014E-3,1.3280001,,,,,-117.6000014E-3,400.00000596E-3,
,,,-117.4999997E-3,1.3280001,,,,,-117.4999997E-3,402.00001001E-3,
,,,-117.3999980E-3,1.3360001,,,,,-117.3999980E-3,402.00001001E-3,
,,,-117.3000038E-3,1.3360001,,,,,-117.3000038E-3,404.000014067E-3,
,,,-117.2000021E-3,1.3360001,,,,,-117.2000021E-3,404.000014067E-3,
,,,-117.1000004E-3,1.3440001,,,,,-117.1000004E-3,404.000014067E-3,
,,,-116.9999987E-3,1.3440001,,,,,-116.9999987E-3,406.000018120E-3,
,,,-116.8999970E-3,1.3520001,,,,,-116.8999970E-3,406.000018120E-3,
,,,-116.8000028E-3,1.3520001,,,,,-116.8000028E-3,406.000018120E-3,
,,,-116.7000011E-3,1.3520001,,,,,-116.7000011E-3,408.000022173E-3,
,,,-116.5999994E-3,1.3600000,,,,,-116.5999994E-3,408.000022173E-3,
,,,-116.4999977E-3,1.3600000,,,,,-116.4999977E-3,410.000026226E-3,
,,,-116.4000034E-3,1.3600000,,,,,-116.4000034E-3,410.000026226E-3,
,,,-116.3000017E-3,1.3680000,,,,,-116.3000017E-3,410.000026226E-3,
,,,-116.2000000E-3,1.3680000,,,,,-116.2000000E-3,410.000026226E-3,
,,,-116.0999984E-3,1.3760000,,,,,-116.0999984E-3,412.000030279E-3,
,,,-115.9999967E-3,1.3760000,,,,,-115.9999967E-3,412.000030279E-3,
,,,-115.9000024E-3,1.3760000,,,,,-115.9000024E-3,412.000030279E-3,
,,,-115.8000007E-3,1.3840001,,,,,-115.8000007E-3,414.000034332E-3,
,,,-115.6999990E-3,1.3840001,,,,,-115.6999990E-3,414.000034332E-3,
,,,-115.5999973E-3,1.3840001,,,,,-115.5999973E-3,416.000008583E-3,
,,,-115.5000031E-3,1.3920001,,,,,-115.5000031E-3,418.000012636E-3,
,,,-115.4000014E-3,1.3920001,,,,,-115.4000014E-3,418.000012636E-3,
,,,-115.2999997E-3,1.3920001,,,,,-115.2999997E-3,420.000016689E-3,
,,,-115.1999980E-3,1.4000001,,,,,-115.1999980E-3,422.000020742E-3,
,,,-115.1000038E-3,1.4000001,,,,,-115.1000038E-3,422.000020742E-3,
,,,-115.0000021E-3,1.4000001,,,,,-115.0000021E-3,422.000020742E-3,
,,,-114.9000004E-3,1.4080001,,,,,-114.9000004E-3,424.000024796E-3,
,,,-114.7999987E-3,1.4080001,,,,,-114.7999987E-3,424.000024796E-3,
,,,-114.6999970E-3,1.4160000,,,,,-114.6999970E-3,424.000024796E-3,
,,,-114.6000028E-3,1.4160000,,,,,-114.6000028E-3,426.000028849E-3,
,,,-114.5000011E-3,1.4160000,,,,,-114.5000011E-3,426.000028849E-3,
,,,-114.3999994E-3,1.4240000,,,,,-114.3999994E-3,428.000032902E-3,
,,,-114.2999977E-3,1.4240000,,,,,-114.2999977E-3,428.000032902E-3,
,,,-114.2000034E-3,1.4320000,,,,,-114.2000034E-3,430.000007153E-3,
,,,-114.1000018E-3,1.4320000,,,,,-114.1000018E-3,430.000007153E-3,
,,,-114.0000001E-3,1.4320000,,,,,-114.0000001E-3,432.000011206E-3,
,,,-113.8999984E-3,1.4400001,,,,,-113.8999984E-3,434.000015259E-3,
,,,-113.7999967E-3,1.4400001,,,,,-113.7999967E-3,434.000015259E-3,
,,,-113.7000024E-3,1.4480001,,,,,-113.7000024E-3,434.000015259E-3,
,,,-113.6000007E-3,1.4480001,,,,,-113.6000007E-3,436.000019312E-3,
,,,-113.4999990E-3,1.4560001,,,,,-113.4999990E-3,438.000023365E-3,
,,,-113.3999974E-3,1.4560001,,,,,-113.3999974E-3,438.000023365E-3,
,,,-113.3000031E-3,1.4640001,,,,,-113.3000031E-3,438.000023365E-3,
,,,-113.2000014E-3,1.4640001,,,,,-113.2000014E-3,438.000023365E-3,
,,,-113.0999997E-3,1.4640001,,,,,-113.0999997E-3,442.000031471E-3,
,,,-112.9999980E-3,1.4640001,,,,,-112.9999980E-3,440.000027418E-3,
,,,-112.9000038E-3,1.4720001,,,,,-112.9000038E-3,442.000031471E-3,
,,,-112.8000021E-3,1.4720001,,,,,-112.8000021E-3,444.000035524E-3,
,,,-112.7000004E-3,1.4800000,,,,,-112.7000004E-3,444.000035524E-3,
,,,-112.5999987E-3,1.4800000,,,,,-112.5999987E-3,444.000035524E-3,
,,,-112.4999970E-3,1.4880000,,,,,-112.4999970E-3,446.000009775E-3,
,,,-112.4000028E-3,1.4880000,,,,,-112.4000028E-3,448.000013828E-3,
,,,-112.3000011E-3,1.4960001,,,,,-112.3000011E-3,448.000013828E-3,
,,,-112.1999994E-3,1.4960001,,,,,-112.1999994E-3,450.000017881E-3,
,,,-112.0999977E-3,1.4960001,,,,,-112.0999977E-3,452.000021935E-3,
,,,-112.0000035E-3,1.5040001,,,,,-112.0000035E-3,450.000017881E-3,
,,,-111.9000018E-3,1.5040001,,,,,-111.9000018E-3,452.000021935E-3,
,,,-111.8000001E-3,1.5120001,,,,,-111.8000001E-3,454.000025988E-3,
,,,-111.6999984E-3,1.5120001,,,,,-111.6999984E-3,456.000030041E-3,
,,,-111.5999967E-3,1.5200001,,,,,-111.5999967E-3,456.000030041E-3,
,,,-111.5000024E-3,1.5200001,,,,,-111.5000024E-3,456.000030041E-3,
,,,-111.4000008E-3,1.5280001,,,,,-111.4000008E-3,458.000034094E-3,
,,,-111.2999991E-3,1.5280001,,,,,-111.2999991E-3,458.000034094E-3,
,,,-111.1999974E-3,1.5280001,,,,,-111.1999974E-3,458.000034094E-3,
,,,-111.1000031E-3,1.5360000,,,,,-111.1000031E-3,460.000008345E-3,
,,,-111.0000014E-3,1.5360000,,,,,-111.0000014E-3,462.000012398E-3,
,,,-110.8999997E-3,1.5360000,,,,,-110.8999997E-3,462.000012398E-3,
,,,-110.7999980E-3,1.5440000,,,,,-110.7999980E-3,464.000016451E-3,
,,,-110.7000038E-3,1.5440000,,,,,-110.7000038E-3,466.000020504E-3,
,,,-110.6000021E-3,1.5520000,,,,,-110.6000021E-3,466.000020504E-3,
,,,-110.5000004E-3,1.5520000,,,,,-110.5000004E-3,468.000024557E-3,
,,,-110.3999987E-3,1.5600001,,,,,-110.3999987E-3,468.000024557E-3,
,,,-110.2999970E-3,1.5600001,,,,,-110.2999970E-3,470.000028610E-3,
,,,-110.2000028E-3,1.5600001,,,,,-110.2000028E-3,470.000028610E-3,
,,,-110.1000011E-3,1.5680001,,,,,-110.1000011E-3,472.000032663E-3,
,,,-109.9999994E-3,1.5760001,,,,,-109.9999994E-3,472.000032663E-3,
,,,-109.8999977E-3,1.5760001,,,,,-109.8999977E-3,474.000036716E-3,
,,,-109.8000035E-3,1.5840001,,,,,-109.8000035E-3,474.000036716E-3,
,,,-109.7000018E-3,1.5840001,,,,,-109.7000018E-3,476.000010967E-3,
,,,-109.6000001E-3,1.5920001,,,,,-109.6000001E-3,476.000010967E-3,
,,,-109.4999984E-3,1.5920001,,,,,-109.4999984E-3,478.000015020E-3,
,,,-109.3999967E-3,1.6000000,,,,,-109.3999967E-3,478.000015020E-3,
,,,-109.3000025E-3,1.6000000,,,,,-109.3000025E-3,480.000019073E-3,
,,,-109.2000008E-3,1.6000000,,,,,-109.2000008E-3,480.000019073E-3,
,,,-109.0999991E-3,1.6080000,,,,,-109.0999991E-3,482.000023127E-3,
,,,-108.9999974E-3,1.6080000,,,,,-108.9999974E-3,482.000023127E-3,
,,,-108.9000031E-3,1.6160001,,,,,-108.9000031E-3,484.000027180E-3,
,,,-108.8000014E-3,1.6160001,,,,,-108.8000014E-3,484.000027180E-3,
,,,-108.6999997E-3,1.6240001,,,,,-108.6999997E-3,486.000031233E-3,
,,,-108.5999981E-3,1.6240001,,,,,-108.5999981E-3,488.000035286E-3,
,,,-108.5000038E-3,1.6320001,,,,,-108.5000038E-3,486.000031233E-3,
,,,-108.4000021E-3,1.6320001,,,,,-108.4000021E-3,490.000009537E-3,
,,,-108.3000004E-3,1.6320001,,,,,-108.3000004E-3,490.000009537E-3,
,,,-108.1999987E-3,1.6400001,,,,,-108.1999987E-3,490.000009537E-3,
,,,-108.0999970E-3,1.6480001,,,,,-108.0999970E-3,492.000013590E-3,
,,,-108.0000028E-3,1.6480001,,,,,-108.0000028E-3,492.000013590E-3,
,,,-107.9000011E-3,1.6480001,,,,,-107.9000011E-3,494.000017643E-3,
,,,-107.7999994E-3,1.6560001,,,,,-107.7999994E-3,496.000021696E-3,
,,,-107.6999977E-3,1.6560001,,,,,-107.6999977E-3,496.000021696E-3,
,,,-107.6000035E-3,1.6640000,,,,,-107.6000035E-3,498.000025749E-3,
,,,-107.5000018E-3,1.6640000,,,,,-107.5000018E-3,498.000025749E-3,
,,,-107.4000001E-3,1.6720001,,,,,-107.4000001E-3,498.000025749E-3,
,,,-107.2999984E-3,1.6720001,,,,,-107.2999984E-3,500.000000000E-3,
,,,-107.2000042E-3,1.6720001,,,,,-107.2000042E-3,502.000033855E-3,
,,,-107.1000025E-3,1.6800001,,,,,-107.1000025E-3,502.000033855E-3,
,,,-107.0000008E-3,1.6880001,,,,,-107.0000008E-3,504.000008106E-3,
,,,-106.8999991E-3,1.6880001,,,,,-106.8999991E-3,506.000041962E-3,
,,,-106.7999974E-3,1.6880001,,,,,-106.7999974E-3,508.000016212E-3,
,,,-106.7000031E-3,1.6960001,,,,,-106.7000031E-3,508.000016212E-3,
,,,-106.6000015E-3,1.7040001,,,,,-106.6000015E-3,508.000016212E-3,
,,,-106.4999998E-3,1.7040001,,,,,-106.4999998E-3,510.000050068E-3,
,,,-106.3999981E-3,1.7040001,,,,,-106.3999981E-3,512.000024319E-3,
,,,-106.3000038E-3,1.7120001,,,,,-106.3000038E-3,512.000024319E-3,
,,,-106.2000021E-3,1.7200000,,,,,-106.2000021E-3,513.999998569E-3,
,,,-106.1000004E-3,1.7200000,,,,,-106.1000004E-3,516.000032425E-3,
,,,-105.9999987E-3,1.7200000,,,,,-105.9999987E-3,518.000006676E-3,
,,,-105.8999971E-3,1.7280000,,,,,-105.8999971E-3,518.000006676E-3,
,,,-105.8000028E-3,1.7360001,,,,,-105.8000028E-3,520.000040531E-3,
,,,-105.7000011E-3,1.7360001,,,,,-105.7000011E-3,522.000014782E-3,
,,,-105.5999994E-3,1.7440001,,,,,-105.5999994E-3,520.000040531E-3,
,,,-105.4999977E-3,1.7440001,,,,,-105.4999977E-3,522.000014782E-3,
,,,-105.4000035E-3,1.7520001,,,,,-105.4000035E-3,522.000014782E-3,
,,,-105.3000018E-3,1.7520001,,,,,-105.3000018E-3,526.000022888E-3,
,,,-105.2000001E-3,1.7600001,,,,,-105.2000001E-3,526.000022888E-3,
,,,-105.0999984E-3,1.7600001,,,,,-105.0999984E-3,527.999997139E-3,
,,,-105.0000042E-3,1.7680001,,,,,-105.0000042E-3,527.999997139E-3,
,,,-104.9000025E-3,1.7680001,,,,,-104.9000025E-3,530.000030994E-3,
,,,-104.8000008E-3,1.7680001,,,,,-104.8000008E-3,530.000030994E-3,
,,,-104.6999991E-3,1.7760001,,,,,-104.6999991E-3,532.000005245E-3,
,,,-104.5999974E-3,1.7840000,,,,,-104.5999974E-3,534.000039101E-3,
,,,-104.5000032E-3,1.7840000,,,,,-104.5000032E-3,534.000039101E-3,
,,,-104.4000015E-3,1.7920001,,,,,-104.4000015E-3,536.000013351E-3,
,,,-104.2999998E-3,1.7920001,,,,,-104.2999998E-3,536.000013351E-3,
,,,-104.1999981E-3,1.7920001,,,,,-104.1999981E-3,536.000013351E-3,
,,,-104.1000038E-3,1.8000001,,,,,-104.1000038E-3,538.000047207E-3,
,,,-104.0000021E-3,1.8000001,,,,,-104.0000021E-3,540.000021458E-3,
,,,-103.9000005E-3,1.8080001,,,,,-103.9000005E-3,540.000021458E-3,
,,,-103.7999988E-3,1.8080001,,,,,-103.7999988E-3,542.000055313E-3,
,,,-103.6999971E-3,1.8160001,,,,,-103.6999971E-3,544.000029564E-3,
,,,-103.6000028E-3,1.8160001,,,,,-103.6000028E-3,544.000029564E-3,
,,,-103.5000011E-3,1.8240001,,,,,-103.5000011E-3,544.000029564E-3,
,,,-103.3999994E-3,1.8240001,,,,,-103.3999994E-3,546.000003815E-3,
,,,-103.2999977E-3,1.8320001,,,,,-103.2999977E-3,546.000003815E-3,
,,,-103.2000035E-3,1.8320001,,,,,-103.2000035E-3,548.000037670E-3,
,,,-103.1000018E-3,1.8400000,,,,,-103.1000018E-3,550.000011921E-3,
,,,-103.0000001E-3,1.8400000,,,,,-103.0000001E-3,550.000011921E-3,
,,,-102.8999984E-3,1.8480000,,,,,-102.8999984E-3,552.000045776E-3,
,,,-102.8000042E-3,1.8480000,,,,,-102.8000042E-3,554.000020027E-3,
,,,-102.7000025E-3,1.8560001,,,,,-102.7000025E-3,554.000020027E-3,
,,,-102.6000008E-3,1.8560001,,,,,-102.6000008E-3,554.000020027E-3,
,,,-102.4999991E-3,1.8640001,,,,,-102.4999991E-3,556.000053883E-3,
,,,-102.3999974E-3,1.8640001,,,,,-102.3999974E-3,558.000028133E-3,
,,,-102.3000032E-3,1.8720001,,,,,-102.3000032E-3,560.000002384E-3,
,,,-102.2000015E-3,1.8720001,,,,,-102.2000015E-3,558.000028133E-3,
,,,-102.0999998E-3,1.8720001,,,,,-102.0999998E-3,560.000002384E-3,
,,,-101.9999981E-3,1.8800001,,,,,-101.9999981E-3,562.000036240E-3,
,,,-101.9000039E-3,1.8800001,,,,,-101.9000039E-3,562.000036240E-3,
,,,-101.8000022E-3,1.8880001,,,,,-101.8000022E-3,564.000010490E-3,
,,,-101.7000005E-3,1.8880001,,,,,-101.7000005E-3,564.000010490E-3,
,,,-101.5999988E-3,1.8960001,,,,,-101.5999988E-3,566.000044346E-3,
,,,-101.4999971E-3,1.8960001,,,,,-101.4999971E-3,568.000018597E-3,
,,,-101.4000028E-3,1.9040000,,,,,-101.4000028E-3,566.000044346E-3,
,,,-101.3000011E-3,1.9040000,,,,,-101.3000011E-3,570.000052452E-3,
,,,-101.1999995E-3,1.9120001,,,,,-101.1999995E-3,572.000026703E-3,
,,,-101.0999978E-3,1.9120001,,,,,-101.0999978E-3,572.000026703E-3,
,,,-101.0000035E-3,1.9120001,,,,,-101.0000035E-3,572.000026703E-3,
,,,-100.9000018E-3,1.9200001,,,,,-100.9000018E-3,574.000000954E-3,
,,,-100.8000001E-3,1.9280001,,,,,-100.8000001E-3,576.000034809E-3,
,,,-100.6999984E-3,1.9280001,,,,,-100.6999984E-3,576.000034809E-3,
,,,-100.6000042E-3,1.9280001,,,,,-100.6000042E-3,578.000009060E-3,
,,,-100.5000025E-3,1.9360001,,,,,-100.5000025E-3,578.000009060E-3,
,,,-100.4000008E-3,1.9360001,,,,,-100.4000008E-3,580.000042915E-3,
,,,-100.2999991E-3,1.9440001,,,,,-100.2999991E-3,580.000042915E-3,
,,,-100.1999974E-3,1.9440001,,,,,-100.1999974E-3,580.000042915E-3,
,,,-100.1000032E-3,1.9520001,,,,,-100.1000032E-3,582.000017166E-3,
,,,-100.0000015E-3,1.9520001,,,,,-100.0000015E-3,584.000051022E-3,
,,,-99.899999797E-3,1.9600000,,,,,-99.899999797E-3,584.000051022E-3,
,,,-99.799998105E-3,1.9600000,,,,,-99.799998105E-3,586.000025272E-3,
,,,-99.700003862E-3,1.9600000,,,,,-99.700003862E-3,586.000025272E-3,
,,,-99.600002170E-3,1.9680001,,,,,-99.600002170E-3,587.999999523E-3,
,,,-99.500000477E-3,1.9760001,,,,,-99.500000477E-3,587.999999523E-3,
,,,-99.399998784E-3,1.9760001,,,,,-99.399998784E-3,590.000033379E-3,
,,,-99.299997091E-3,1.9760001,,,,,-99.299997091E-3,592.000007629E-3,
,,,-99.200002849E-3,1.9840001,,,,,-99.200002849E-3,592.000007629E-3,
,,,-99.100001156E-3,1.9840001,,,,,-99.100001156E-3,594.000041485E-3,
,,,-98.999999464E-3,1.9920001,,,,,-98.999999464E-3,594.000041485E-3,
,,,-98.899997771E-3,1.9920001,,,,,-98.899997771E-3,596.000015736E-3,
,,,-98.800003529E-3,2.0000000,,,,,-98.800003529E-3,596.000015736E-3,
,,,-98.700001836E-3,2.0000000,,,,,-98.700001836E-3,598.000049591E-3,
,,,-98.600000143E-3,2.0080001,,,,,-98.600000143E-3,598.000049591E-3,
,,,-98.499998450E-3,2.0080001,,,,,-98.499998450E-3,600.000023842E-3,
,,,-98.400004208E-3,2.0160000,,,,,-98.400004208E-3,600.000023842E-3,
,,,-98.300002515E-3,2.0160000,,,,,-98.300002515E-3,602.000057697E-3,
,,,-98.200000823E-3,2.0160000,,,,,-98.200000823E-3,604.000031948E-3,
,,,-98.099999130E-3,2.0240002,,,,,-98.099999130E-3,604.000031948E-3,
,,,-97.999997437E-3,2.0240002,,,,,-97.999997437E-3,604.000031948E-3,
,,,-97.900003195E-3,2.0320001,,,,,-97.900003195E-3,606.000006199E-3,
,,,-97.800001502E-3,2.0320001,,,,,-97.800001502E-3,606.000006199E-3,
,,,-97.699999809E-3,2.0400002,,,,,-97.699999809E-3,608.000040054E-3,
,,,-97.599998116E-3,2.0400002,,,,,-97.599998116E-3,610.000014305E-3,
,,,-97.500003874E-3,2.0400002,,,,,-97.500003874E-3,610.000014305E-3,
,,,-97.400002182E-3,2.0480001,,,,,-97.400002182E-3,612.000048161E-3,
,,,-97.300000489E-3,2.0480001,,,,,-97.300000489E-3,612.000048161E-3,
,,,-97.199998796E-3,2.0560000,,,,,-97.199998796E-3,614.000022411E-3,
,,,-97.099997103E-3,2.0560000,,,,,-97.099997103E-3,614.000022411E-3,
,,,-97.000002861E-3,2.0640001,,,,,-97.000002861E-3,616.000056267E-3,
,,,-96.900001168E-3,2.0640001,,,,,-96.900001168E-3,616.000056267E-3,
,,,-96.799999475E-3,2.0640001,,,,,-96.799999475E-3,616.000056267E-3,
,,,-96.699997783E-3,2.0720000,,,,,-96.699997783E-3,618.000030518E-3,
,,,-96.600003541E-3,2.0720000,,,,,-96.600003541E-3,618.000030518E-3,
,,,-96.500001848E-3,2.0800002,,,,,-96.500001848E-3,620.000004768E-3,
,,,-96.400000155E-3,2.0800002,,,,,-96.400000155E-3,620.000004768E-3,
,,,-96.299998462E-3,2.0800002,,,,,-96.299998462E-3,620.000004768E-3,
,,,-96.200004220E-3,2.0880001,,,,,-96.200004220E-3,622.000038624E-3,
,,,-96.100002527E-3,2.0880001,,,,,-96.100002527E-3,622.000038624E-3,
