impedance_data/s2000.csv

Record Length,2500,Points,-499.200017657E-6,1.9520001,,Record Length,2500,Points,-499.200017657E-6,590.000033379E-3,
Sample Interval,400.00000467E-9,s,-498.800014611E-6,1.9520001,,Sample Interval,400.00000467E-9,s,-498.800014611E-6,590.000033379E-3,
Trigger Point,1.2480001E3,Samples,-498.400011566E-6,1.9520001,,Trigger Point,1.2480001E3,Samples,-498.400011566E-6,592.000007629E-3,
,,,-498.000008520E-6,1.9600000,,,,,-498.000008520E-6,592.000007629E-3,
,,,-497.600005474E-6,1.9600000,,,,,-497.600005474E-6,592.000007629E-3,
,,,-497.200002428E-6,1.9600000,,,,,-497.200002428E-6,594.000041485E-3,
Source,CH1,,-496.799999382E-6,1.9680001,,Source,CH2,,-496.799999382E-6,594.000041485E-3,
Vertical Units,Volts,,-496.399996337E-6,1.9680001,,Vertical Units,Volts,,-496.399996337E-6,596.000015736E-3,
Vertical Scale,200.00000950E-3,,-495.999993291E-6,1.9760001,,Vertical Scale,50.00000237E-3,,-495.999993291E-6,596.000015736E-3,
Vertical Offset,0,,-495.599990245E-6,1.9760001,,Vertical Offset,0,,-495.599990245E-6,598.000049591E-3,
Horizontal Units,s,,-495.200045407E-6,1.9760001,,Horizontal Units,s,,-495.200045407E-6,598.000049591E-3,
Horizontal Scale,100.0000012E-6,,-494.800042361E-6,1.9840001,,Horizontal Scale,100.0000012E-6,,-494.800042361E-6,600.000023842E-3,
Pt Fmt,Y,,-494.400039315E-6,1.9840001,,Pt Fmt,Y,,-494.400039315E-6,600.000023842E-3,
Yzero,-8.840000000,,-494.000036269E-6,1.9920001,,Yzero,-10.8000000,,-494.000036269E-6,600.000023842E-3,
Probe Atten,1.000000,,-493.600033224E-6,1.9920001,,Probe Atten,1.000000,,-493.600033224E-6,602.000057697E-3,
,,,-493.200030178E-6,1.9920001,,,,,-493.200030178E-6,602.000057697E-3,
Note,TBS 1022 - 18:41:56   25/7/2022,,-492.800027132E-6,2.0000000,,Note,TBS 1022 - 18:41:56   25/7/2022,,-492.800027132E-6,604.000031948E-3,
,,,-492.400024086E-6,2.0000000,,,,,-492.400024086E-6,604.000031948E-3,
,,,-492.000021040E-6,2.0000000,,,,,-492.000021040E-6,606.000006199E-3,
,,,-491.600017995E-6,2.0080001,,,,,-491.600017995E-6,606.000006199E-3,
,,,-491.200014949E-6,2.0080001,,,,,-491.200014949E-6,606.000006199E-3,
,,,-490.800011903E-6,2.0080001,,,,,-490.800011903E-6,608.000040054E-3,
,,,-490.400008857E-6,2.0160000,,,,,-490.400008857E-6,610.000014305E-3,
,,,-490.000005811E-6,2.0160000,,,,,-490.000005811E-6,610.000014305E-3,
,,,-489.600002766E-6,2.0240002,,,,,-489.600002766E-6,610.000014305E-3,
,,,-489.199999720E-6,2.0240002,,,,,-489.199999720E-6,612.000048161E-3,
,,,-488.799996674E-6,2.0240002,,,,,-488.799996674E-6,612.000048161E-3,
,,,-488.399993628E-6,2.0320001,,,,,-488.399993628E-6,614.000022411E-3,
,,,-488.000019686E-6,2.0320001,,,,,-488.000019686E-6,614.000022411E-3,
,,,-487.600016640E-6,2.0320001,,,,,-487.600016640E-6,614.000022411E-3,
,,,-487.200013595E-6,2.0400002,,,,,-487.200013595E-6,616.000056267E-3,
,,,-486.800010549E-6,2.0400002,,,,,-486.800010549E-6,616.000056267E-3,
,,,-486.400007503E-6,2.0480001,,,,,-486.400007503E-6,618.000030518E-3,
,,,-486.000004457E-6,2.0480001,,,,,-486.000004457E-6,618.000030518E-3,
,,,-485.600030515E-6,2.0480001,,,,,-485.600030515E-6,618.000030518E-3,
,,,-485.200027470E-6,2.0560000,,,,,-485.200027470E-6,620.000004768E-3,
,,,-484.800024424E-6,2.0560000,,,,,-484.800024424E-6,620.000004768E-3,
,,,-484.400021378E-6,2.0560000,,,,,-484.400021378E-6,622.000038624E-3,
,,,-484.000018332E-6,2.0640001,,,,,-484.000018332E-6,622.000038624E-3,
,,,-483.600015286E-6,2.0640001,,,,,-483.600015286E-6,622.000038624E-3,
,,,-483.200012241E-6,2.0720000,,,,,-483.200012241E-6,624.000012875E-3,
,,,-482.800009195E-6,2.0720000,,,,,-482.800009195E-6,624.000012875E-3,
,,,-482.400006149E-6,2.0720000,,,,,-482.400006149E-6,626.000046730E-3,
,,,-482.000003103E-6,2.0800002,,,,,-482.000003103E-6,626.000046730E-3,
,,,-481.600029161E-6,2.0800002,,,,,-481.600029161E-6,628.000020981E-3,
,,,-481.200026115E-6,2.0800002,,,,,-481.200026115E-6,628.000020981E-3,
,,,-480.800023070E-6,2.0880001,,,,,-480.800023070E-6,630.000054836E-3,
,,,-480.400020024E-6,2.0880001,,,,,-480.400020024E-6,630.000054836E-3,
,,,-480.000016978E-6,2.0880001,,,,,-480.000016978E-6,630.000054836E-3,
,,,-479.600013932E-6,2.0960002,,,,,-479.600013932E-6,632.000029087E-3,
,,,-479.200010886E-6,2.0960002,,,,,-479.200010886E-6,632.000029087E-3,
,,,-478.800007841E-6,2.0960002,,,,,-478.800007841E-6,632.000029087E-3,
,,,-478.400004795E-6,2.1040001,,,,,-478.400004795E-6,634.000003338E-3,
,,,-478.000030853E-6,2.1040001,,,,,-478.000030853E-6,634.000003338E-3,
,,,-477.600027807E-6,2.1040001,,,,,-477.600027807E-6,636.000037193E-3,
,,,-477.200024761E-6,2.1120000,,,,,-477.200024761E-6,636.000037193E-3,
,,,-476.800021715E-6,2.1120000,,,,,-476.800021715E-6,636.000037193E-3,
,,,-476.400018670E-6,2.1120000,,,,,-476.400018670E-6,638.000011444E-3,
,,,-476.000015624E-6,2.1200001,,,,,-476.000015624E-6,638.000011444E-3,
,,,-475.600012578E-6,2.1200001,,,,,-475.600012578E-6,638.000011444E-3,
,,,-475.200009532E-6,2.1280000,,,,,-475.200009532E-6,640.000045300E-3,
,,,-474.800006486E-6,2.1280000,,,,,-474.800006486E-6,640.000045300E-3,
,,,-474.400003441E-6,2.1280000,,,,,-474.400003441E-6,642.000019550E-3,
,,,-474.000029499E-6,2.1360002,,,,,-474.000029499E-6,642.000019550E-3,
,,,-473.600026453E-6,2.1360002,,,,,-473.600026453E-6,642.000019550E-3,
,,,-473.200023407E-6,2.1360002,,,,,-473.200023407E-6,644.000053406E-3,
,,,-472.800020361E-6,2.1360002,,,,,-472.800020361E-6,644.000053406E-3,
,,,-472.400017316E-6,2.1440001,,,,,-472.400017316E-6,646.000027657E-3,
,,,-472.000014270E-6,2.1440001,,,,,-472.000014270E-6,646.000027657E-3,
,,,-471.600011224E-6,2.1440001,,,,,-471.600011224E-6,646.000027657E-3,
,,,-471.200008178E-6,2.1520002,,,,,-471.200008178E-6,648.000001907E-3,
,,,-470.800005132E-6,2.1520002,,,,,-470.800005132E-6,648.000001907E-3,
,,,-470.400031190E-6,2.1520002,,,,,-470.400031190E-6,648.000001907E-3,
,,,-470.000028145E-6,2.1600001,,,,,-470.000028145E-6,650.000035763E-3,
,,,-469.600025099E-6,2.1600001,,,,,-469.600025099E-6,650.000035763E-3,
,,,-469.200022053E-6,2.1600001,,,,,-469.200022053E-6,650.000035763E-3,
,,,-468.800019007E-6,2.1680002,,,,,-468.800019007E-6,652.000010014E-3,
,,,-468.400015961E-6,2.1680002,,,,,-468.400015961E-6,652.000010014E-3,
,,,-468.000012916E-6,2.1680002,,,,,-468.000012916E-6,654.000043869E-3,
,,,-467.600009870E-6,2.1760001,,,,,-467.600009870E-6,654.000043869E-3,
,,,-467.200006824E-6,2.1760001,,,,,-467.200006824E-6,654.000043869E-3,
,,,-466.800003778E-6,2.1760001,,,,,-466.800003778E-6,656.000018120E-3,
,,,-466.400029836E-6,2.1840000,,,,,-466.400029836E-6,656.000018120E-3,
,,,-466.000026790E-6,2.1840000,,,,,-466.000026790E-6,656.000018120E-3,
,,,-465.600023745E-6,2.1840000,,,,,-465.600023745E-6,658.000051975E-3,
,,,-465.200020699E-6,2.1920002,,,,,-465.200020699E-6,658.000051975E-3,
,,,-464.800017653E-6,2.1920002,,,,,-464.800017653E-6,658.000051975E-3,
,,,-464.400014607E-6,2.1920002,,,,,-464.400014607E-6,660.000026226E-3,
,,,-464.000011561E-6,2.1920002,,,,,-464.000011561E-6,660.000026226E-3,
,,,-463.600008516E-6,2.2000000,,,,,-463.600008516E-6,660.000026226E-3,
,,,-463.200005470E-6,2.2000000,,,,,-463.200005470E-6,662.000060081E-3,
,,,-462.800031528E-6,2.2000000,,,,,-462.800031528E-6,662.000060081E-3,
,,,-462.400028482E-6,2.2080002,,,,,-462.400028482E-6,662.000060081E-3,
,,,-462.000025436E-6,2.2080002,,,,,-462.000025436E-6,664.000034332E-3,
,,,-461.600022390E-6,2.2080002,,,,,-461.600022390E-6,664.000034332E-3,
,,,-461.200019345E-6,2.2160001,,,,,-461.200019345E-6,664.000034332E-3,
,,,-460.800016299E-6,2.2160001,,,,,-460.800016299E-6,666.000008583E-3,
,,,-460.400013253E-6,2.2160001,,,,,-460.400013253E-6,666.000008583E-3,
,,,-460.000010207E-6,2.2160001,,,,,-460.000010207E-6,666.000008583E-3,
,,,-459.600007161E-6,2.2240002,,,,,-459.600007161E-6,668.000042439E-3,
,,,-459.200004116E-6,2.2240002,,,,,-459.200004116E-6,668.000042439E-3,
,,,-458.800030174E-6,2.2240002,,,,,-458.800030174E-6,668.000042439E-3,
,,,-458.400027128E-6,2.2320001,,,,,-458.400027128E-6,670.000016689E-3,
,,,-458.000024082E-6,2.2320001,,,,,-458.000024082E-6,670.000016689E-3,
,,,-457.600021036E-6,2.2320001,,,,,-457.600021036E-6,670.000016689E-3,
,,,-457.200017991E-6,2.2320001,,,,,-457.200017991E-6,672.000050545E-3,
,,,-456.800014945E-6,2.2400000,,,,,-456.800014945E-6,672.000050545E-3,
,,,-456.400011899E-6,2.2400000,,,,,-456.400011899E-6,672.000050545E-3,
,,,-456.000008853E-6,2.2400000,,,,,-456.000008853E-6,674.000024796E-3,
,,,-455.600005807E-6,2.2480001,,,,,-455.600005807E-6,674.000024796E-3,
,,,-455.200002762E-6,2.2480001,,,,,-455.200002762E-6,674.000024796E-3,
,,,-454.800028820E-6,2.2480001,,,,,-454.800028820E-6,674.000024796E-3,
,,,-454.400025774E-6,2.2480001,,,,,-454.400025774E-6,676.000058651E-3,
,,,-454.000022728E-6,2.2560000,,,,,-454.000022728E-6,676.000058651E-3,
,,,-453.600019682E-6,2.2560000,,,,,-453.600019682E-6,676.000058651E-3,
,,,-453.200016636E-6,2.2560000,,,,,-453.200016636E-6,678.000032902E-3,
,,,-452.800013591E-6,2.2560000,,,,,-452.800013591E-6,678.000032902E-3,
,,,-452.400010545E-6,2.2640002,,,,,-452.400010545E-6,678.000032902E-3,
,,,-452.000007499E-6,2.2640002,,,,,-452.000007499E-6,680.000007153E-3,
,,,-451.600004453E-6,2.2640002,,,,,-451.600004453E-6,680.000007153E-3,
,,,-451.200030511E-6,2.2640002,,,,,-451.200030511E-6,680.000007153E-3,
,,,-450.800027465E-6,2.2720001,,,,,-450.800027465E-6,680.000007153E-3,
,,,-450.400024420E-6,2.2720001,,,,,-450.400024420E-6,682.000041008E-3,
,,,-450.000021374E-6,2.2720001,,,,,-450.000021374E-6,682.000041008E-3,
,,,-449.600018328E-6,2.2720001,,,,,-449.600018328E-6,682.000041008E-3,
,,,-449.200015282E-6,2.2800002,,,,,-449.200015282E-6,682.000041008E-3,
,,,-448.800012236E-6,2.2800002,,,,,-448.800012236E-6,684.000015259E-3,
,,,-448.400009191E-6,2.2800002,,,,,-448.400009191E-6,684.000015259E-3,
,,,-448.000006145E-6,2.2800002,,,,,-448.000006145E-6,684.000015259E-3,
,,,-447.600003099E-6,2.2880001,,,,,-447.600003099E-6,686.000049114E-3,
,,,-447.200029157E-6,2.2880001,,,,,-447.200029157E-6,686.000049114E-3,
,,,-446.800026111E-6,2.2880001,,,,,-446.800026111E-6,686.000049114E-3,
,,,-446.400023066E-6,2.2880001,,,,,-446.400023066E-6,686.000049114E-3,
,,,-446.000020020E-6,2.2960000,,,,,-446.000020020E-6,686.000049114E-3,
,,,-445.600016974E-6,2.2960000,,,,,-445.600016974E-6,688.000023365E-3,
,,,-445.200013928E-6,2.2960000,,,,,-445.200013928E-6,688.000023365E-3,
,,,-444.800010882E-6,2.2960000,,,,,-444.800010882E-6,688.000023365E-3,
,,,-444.400007837E-6,2.3040001,,,,,-444.400007837E-6,690.000057220E-3,
,,,-444.000004791E-6,2.3040001,,,,,-444.000004791E-6,690.000057220E-3,
,,,-443.600030849E-6,2.3040001,,,,,-443.600030849E-6,690.000057220E-3,
,,,-443.200027803E-6,2.3040001,,,,,-443.200027803E-6,690.000057220E-3,
,,,-442.800024757E-6,2.3120000,,,,,-442.800024757E-6,692.000031471E-3,
,,,-442.400021711E-6,2.3120000,,,,,-442.400021711E-6,692.000031471E-3,
,,,-442.000018666E-6,2.3120000,,,,,-442.000018666E-6,692.000031471E-3,
,,,-441.600015620E-6,2.3120000,,,,,-441.600015620E-6,692.000031471E-3,
,,,-441.200012574E-6,2.3120000,,,,,-441.200012574E-6,694.000005722E-3,
,,,-440.800009528E-6,2.3200002,,,,,-440.800009528E-6,694.000005722E-3,
,,,-440.400006482E-6,2.3200002,,,,,-440.400006482E-6,694.000005722E-3,
,,,-440.000003437E-6,2.3200002,,,,,-440.000003437E-6,694.000005722E-3,
,,,-439.600029495E-6,2.3200002,,,,,-439.600029495E-6,696.000039577E-3,
,,,-439.200026449E-6,2.3200002,,,,,-439.200026449E-6,696.000039577E-3,
,,,-438.800023403E-6,2.3280001,,,,,-438.800023403E-6,696.000039577E-3,
,,,-438.400020357E-6,2.3280001,,,,,-438.400020357E-6,696.000039577E-3,
,,,-438.000017311E-6,2.3280001,,,,,-438.000017311E-6,696.000039577E-3,
,,,-437.600014266E-6,2.3280001,,,,,-437.600014266E-6,696.000039577E-3,
,,,-437.200011220E-6,2.3360002,,,,,-437.200011220E-6,698.000013828E-3,
,,,-436.800008174E-6,2.3360002,,,,,-436.800008174E-6,698.000013828E-3,
,,,-436.400005128E-6,2.3360002,,,,,-436.400005128E-6,698.000013828E-3,
,,,-436.000031186E-6,2.3360002,,,,,-436.000031186E-6,698.000013828E-3,
,,,-435.600028140E-6,2.3360002,,,,,-435.600028140E-6,698.000013828E-3,
,,,-435.200025095E-6,2.3440001,,,,,-435.200025095E-6,700.000047684E-3,
,,,-434.800022049E-6,2.3440001,,,,,-434.800022049E-6,700.000047684E-3,
,,,-434.400019003E-6,2.3440001,,,,,-434.400019003E-6,700.000047684E-3,
,,,-434.000015957E-6,2.3440001,,,,,-434.000015957E-6,702.000021935E-3,
,,,-433.600012911E-6,2.3440001,,,,,-433.600012911E-6,702.000021935E-3,
,,,-433.200009866E-6,2.3440001,,,,,-433.200009866E-6,702.000021935E-3,
,,,-432.800006820E-6,2.3520000,,,,,-432.800006820E-6,702.000021935E-3,
,,,-432.400003774E-6,2.3520000,,,,,-432.400003774E-6,702.000021935E-3,
,,,-432.000029832E-6,2.3520000,,,,,-432.000029832E-6,702.000021935E-3,
,,,-431.600026786E-6,2.3520000,,,,,-431.600026786E-6,704.000055790E-3,
,,,-431.200023741E-6,2.3520000,,,,,-431.200023741E-6,704.000055790E-3,
,,,-430.800020695E-6,2.3600001,,,,,-430.800020695E-6,704.000055790E-3,
,,,-430.400017649E-6,2.3600001,,,,,-430.400017649E-6,704.000055790E-3,
,,,-430.000014603E-6,2.3600001,,,,,-430.000014603E-6,704.000055790E-3,
,,,-429.600011557E-6,2.3600001,,,,,-429.600011557E-6,704.000055790E-3,
,,,-429.200008512E-6,2.3600001,,,,,-429.200008512E-6,706.000030041E-3,
,,,-428.800005466E-6,2.3600001,,,,,-428.800005466E-6,706.000030041E-3,
,,,-428.400002420E-6,2.3680000,,,,,-428.400002420E-6,706.000030041E-3,
,,,-428.000028478E-6,2.3680000,,,,,-428.000028478E-6,706.000030041E-3,
,,,-427.600025432E-6,2.3680000,,,,,-427.600025432E-6,706.000030041E-3,
,,,-427.200022386E-6,2.3680000,,,,,-427.200022386E-6,708.000004292E-3,
,,,-426.800019341E-6,2.3680000,,,,,-426.800019341E-6,708.000004292E-3,
,,,-426.400016295E-6,2.3680000,,,,,-426.400016295E-6,708.000004292E-3,
,,,-426.000013249E-6,2.3760002,,,,,-426.000013249E-6,708.000004292E-3,
,,,-425.600010203E-6,2.3760002,,,,,-425.600010203E-6,708.000004292E-3,
,,,-425.200007157E-6,2.3760002,,,,,-425.200007157E-6,708.000004292E-3,
,,,-424.800004112E-6,2.3760002,,,,,-424.800004112E-6,708.000004292E-3,
,,,-424.400030170E-6,2.3760002,,,,,-424.400030170E-6,710.000038147E-3,
,,,-424.000027124E-6,2.3760002,,,,,-424.000027124E-6,710.000038147E-3,
,,,-423.600024078E-6,2.3760002,,,,,-423.600024078E-6,710.000038147E-3,
,,,-423.200021032E-6,2.3760002,,,,,-423.200021032E-6,710.000038147E-3,
,,,-422.800017986E-6,2.3840001,,,,,-422.800017986E-6,710.000038147E-3,
,,,-422.400014941E-6,2.3840001,,,,,-422.400014941E-6,710.000038147E-3,
,,,-422.000011895E-6,2.3840001,,,,,-422.000011895E-6,710.000038147E-3,
,,,-421.600008849E-6,2.3840001,,,,,-421.600008849E-6,710.000038147E-3,
,,,-421.200005803E-6,2.3840001,,,,,-421.200005803E-6,712.000012398E-3,
,,,-420.800002757E-6,2.3840001,,,,,-420.800002757E-6,712.000012398E-3,
,,,-420.400028815E-6,2.3840001,,,,,-420.400028815E-6,712.000012398E-3,
,,,-420.000025770E-6,2.3920002,,,,,-420.000025770E-6,712.000012398E-3,
,,,-419.600022724E-6,2.3920002,,,,,-419.600022724E-6,712.000012398E-3,
,,,-419.200019678E-6,2.3920002,,,,,-419.200019678E-6,712.000012398E-3,
,,,-418.800016632E-6,2.3920002,,,,,-418.800016632E-6,712.000012398E-3,
,,,-418.400013587E-6,2.3920002,,,,,-418.400013587E-6,712.000012398E-3,
,,,-418.000010541E-6,2.3920002,,,,,-418.000010541E-6,714.000046253E-3,
,,,-417.600007495E-6,2.3920002,,,,,-417.600007495E-6,714.000046253E-3,
,,,-417.200004449E-6,2.3920002,,,,,-417.200004449E-6,714.000046253E-3,
,,,-416.800030507E-6,2.4000001,,,,,-416.800030507E-6,714.000046253E-3,
,,,-416.400027461E-6,2.4000001,,,,,-416.400027461E-6,714.000046253E-3,
,,,-416.000024416E-6,2.4000001,,,,,-416.000024416E-6,714.000046253E-3,
,,,-415.600021370E-6,2.4000001,,,,,-415.600021370E-6,714.000046253E-3,
,,,-415.200018324E-6,2.4000001,,,,,-415.200018324E-6,714.000046253E-3,
,,,-414.800015278E-6,2.4000001,,,,,-414.800015278E-6,714.000046253E-3,
,,,-414.400012232E-6,2.4000001,,,,,-414.400012232E-6,716.000020504E-3,
,,,-414.000009187E-6,2.4000001,,,,,-414.000009187E-6,716.000020504E-3,
,,,-413.600006141E-6,2.4000001,,,,,-413.600006141E-6,714.000046253E-3,
,,,-413.200003095E-6,2.4000001,,,,,-413.200003095E-6,716.000020504E-3,
,,,-412.800029153E-6,2.4000001,,,,,-412.800029153E-6,716.000020504E-3,
,,,-412.400026107E-6,2.4000001,,,,,-412.400026107E-6,716.000020504E-3,
,,,-412.000023061E-6,2.4080002,,,,,-412.000023061E-6,716.000020504E-3,
,,,-411.600020016E-6,2.4080002,,,,,-411.600020016E-6,716.000020504E-3,
,,,-411.200016970E-6,2.4080002,,,,,-411.200016970E-6,716.000020504E-3,
,,,-410.800013924E-6,2.4080002,,,,,-410.800013924E-6,716.000020504E-3,
,,,-410.400010878E-6,2.4080002,,,,,-410.400010878E-6,716.000020504E-3,
,,,-410.000007832E-6,2.4080002,,,,,-410.000007832E-6,716.000020504E-3,
,,,-409.600004787E-6,2.4080002,,,,,-409.600004787E-6,718.000054359E-3,
,,,-409.200030845E-6,2.4080002,,,,,-409.200030845E-6,716.000020504E-3,
,,,-408.800027799E-6,2.4080002,,,,,-408.800027799E-6,718.000054359E-3,
,,,-408.400024753E-6,2.4080002,,,,,-408.400024753E-6,718.000054359E-3,
,,,-408.000021707E-6,2.4080002,,,,,-408.000021707E-6,718.000054359E-3,
,,,-407.600018661E-6,2.4080002,,,,,-407.600018661E-6,718.000054359E-3,
,,,-407.200015616E-6,2.4080002,,,,,-407.200015616E-6,718.000054359E-3,
,,,-406.800012570E-6,2.4080002,,,,,-406.800012570E-6,718.000054359E-3,
,,,-406.400009524E-6,2.4160001,,,,,-406.400009524E-6,718.000054359E-3,
,,,-406.000006478E-6,2.4160001,,,,,-406.000006478E-6,718.000054359E-3,
,,,-405.600003432E-6,2.4160001,,,,,-405.600003432E-6,718.000054359E-3,
,,,-405.200029491E-6,2.4160001,,,,,-405.200029491E-6,718.000054359E-3,
,,,-404.800026445E-6,2.4160001,,,,,-404.800026445E-6,718.000054359E-3,
,,,-404.400023399E-6,2.4160001,,,,,-404.400023399E-6,718.000054359E-3,
,,,-404.000020353E-6,2.4160001,,,,,-404.000020353E-6,718.000054359E-3,
,,,-403.600017307E-6,2.4160001,,,,,-403.600017307E-6,718.000054359E-3,
,,,-403.20001426E-6,2.4160001,,,,,-403.20001426E-6,718.000054359E-3,
,,,-402.80001122E-6,2.4160001,,,,,-402.80001122E-6,718.000054359E-3,
,,,-402.40000817E-6,2.4160001,,,,,-402.40000817E-6,718.000054359E-3,
,,,-402.00000512E-6,2.4160001,,,,,-402.00000512E-6,718.000054359E-3,
,,,-401.60000208E-6,2.4160001,,,,,-401.60000208E-6,718.000054359E-3,
,,,-401.20002814E-6,2.4160001,,,,,-401.20002814E-6,718.000054359E-3,
,,,-400.80002509E-6,2.4160001,,,,,-400.80002509E-6,718.000054359E-3,
,,,-400.40002204E-6,2.4160001,,,,,-400.40002204E-6,718.000054359E-3,
,,,-400.00001900E-6,2.4160001,,,,,-400.00001900E-6,718.000054359E-3,
,,,-399.60001595E-6,2.4160001,,,,,-399.60001595E-6,718.000054359E-3,
,,,-399.20001291E-6,2.4160001,,,,,-399.20001291E-6,718.000054359E-3,
,,,-398.80000986E-6,2.4160001,,,,,-398.80000986E-6,718.000054359E-3,
,,,-398.40000682E-6,2.4160001,,,,,-398.40000682E-6,718.000054359E-3,
,,,-398.00000377E-6,2.4160001,,,,,-398.00000377E-6,718.000054359E-3,
,,,-397.60002983E-6,2.4160001,,,,,-397.60002983E-6,718.000054359E-3,
,,,-397.20002678E-6,2.4160001,,,,,-397.20002678E-6,718.000054359E-3,
,,,-396.80002374E-6,2.4160001,,,,,-396.80002374E-6,718.000054359E-3,
,,,-396.40002069E-6,2.4160001,,,,,-396.40002069E-6,718.000054359E-3,
,,,-396.00001764E-6,2.4160001,,,,,-396.00001764E-6,718.000054359E-3,
,,,-395.60001460E-6,2.4160001,,,,,-395.60001460E-6,718.000054359E-3,
,,,-395.20001155E-6,2.4160001,,,,,-395.20001155E-6,718.000054359E-3,
,,,-394.80000851E-6,2.4160001,,,,,-394.80000851E-6,718.000054359E-3,
,,,-394.40000546E-6,2.4160001,,,,,-394.40000546E-6,718.000054359E-3,
,,,-394.00000242E-6,2.4160001,,,,,-394.00000242E-6,718.000054359E-3,
,,,-393.60002847E-6,2.4160001,,,,,-393.60002847E-6,718.000054359E-3,
,,,-393.20002543E-6,2.4160001,,,,,-393.20002543E-6,718.000054359E-3,
,,,-392.80002238E-6,2.4160001,,,,,-392.80002238E-6,718.000054359E-3,
,,,-392.40001934E-6,2.4160001,,,,,-392.40001934E-6,718.000054359E-3,
,,,-392.00001629E-6,2.4160001,,,,,-392.00001629E-6,718.000054359E-3,
,,,-391.60001324E-6,2.4160001,,,,,-391.60001324E-6,718.000054359E-3,
,,,-391.20001020E-6,2.4160001,,,,,-391.20001020E-6,718.000054359E-3,
,,,-390.80000715E-6,2.4160001,,,,,-390.80000715E-6,718.000054359E-3,
,,,-390.40000411E-6,2.4160001,,,,,-390.40000411E-6,718.000054359E-3,
,,,-390.00003017E-6,2.4160001,,,,,-390.00003017E-6,718.000054359E-3,
