impedance_data/s5.csv

Record Length,2500,Points,-250.00000000E-3,1.1840000,,Record Length,2500,Points,-250.00000000E-3,360.00001431E-3,
Sample Interval,199.99999495E-6,s,-249.79999661E-3,1.1840000,,Sample Interval,199.99999495E-6,s,-249.79999661E-3,360.00001431E-3,
Trigger Point,1.2500001E3,Samples,-249.59999323E-3,1.1920000,,Trigger Point,1.2500001E3,Samples,-249.59999323E-3,362.00001836E-3,
,,,-249.40000474E-3,1.1920000,,,,,-249.40000474E-3,360.00001431E-3,
,,,-249.20000136E-3,1.1920000,,,,,-249.20000136E-3,358.00001025E-3,
,,,-248.99999797E-3,1.1920000,,,,,-248.99999797E-3,360.00001431E-3,
Source,CH1,,-248.79999459E-3,1.1920000,,Source,CH2,,-248.79999459E-3,356.00000620E-3,
Vertical Units,Volts,,-248.60000610E-3,1.1920000,,Vertical Units,Volts,,-248.60000610E-3,360.00001431E-3,
Vertical Scale,200.00000950E-3,,-248.40000272E-3,1.1920000,,Vertical Scale,50.00000237E-3,,-248.40000272E-3,360.00001431E-3,
Vertical Offset,0,,-248.19999933E-3,1.2000000,,Vertical Offset,0,,-248.19999933E-3,362.00001836E-3,
Horizontal Units,s,,-247.99999595E-3,1.2000000,,Horizontal Units,s,,-247.99999595E-3,362.00001836E-3,
Horizontal Scale,49.99999874E-3,,-247.80000746E-3,1.2000000,,Horizontal Scale,49.99999874E-3,,-247.80000746E-3,362.00001836E-3,
Pt Fmt,Y,,-247.60000408E-3,1.2000000,,Pt Fmt,Y,,-247.60000408E-3,362.00001836E-3,
Yzero,-8.840000000,,-247.40000069E-3,1.2000000,,Yzero,-10.8000000,,-247.40000069E-3,362.00001836E-3,
Probe Atten,1.000000,,-247.19999731E-3,1.2000000,,Probe Atten,1.000000,,-247.19999731E-3,364.00002241E-3,
,,,-246.99999392E-3,1.2080001,,,,,-246.99999392E-3,368.00003052E-3,
Note,TBS 1022 - 18:38:33   25/7/2022,,-246.80000544E-3,1.2080001,,Note,TBS 1022 - 18:38:33   25/7/2022,,-246.80000544E-3,366.00002646E-3,
,,,-246.60000205E-3,1.2080001,,,,,-246.60000205E-3,366.00002646E-3,
,,,-246.39999866E-3,1.2080001,,,,,-246.39999866E-3,366.00002646E-3,
,,,-246.19999528E-3,1.2160001,,,,,-246.19999528E-3,368.00003052E-3,
,,,-246.00000679E-3,1.2160001,,,,,-246.00000679E-3,366.00002646E-3,
,,,-245.80000341E-3,1.2160001,,,,,-245.80000341E-3,370.00000477E-3,
,,,-245.60000002E-3,1.2160001,,,,,-245.60000002E-3,368.00003052E-3,
,,,-245.39999664E-3,1.2160001,,,,,-245.39999664E-3,370.00000477E-3,
,,,-245.19999325E-3,1.2160001,,,,,-245.19999325E-3,370.00000477E-3,
,,,-245.00000477E-3,1.2240001,,,,,-245.00000477E-3,368.00003052E-3,
,,,-244.80000138E-3,1.2240001,,,,,-244.80000138E-3,370.00000477E-3,
,,,-244.59999800E-3,1.2240001,,,,,-244.59999800E-3,372.00000882E-3,
,,,-244.39999461E-3,1.2240001,,,,,-244.39999461E-3,370.00000477E-3,
,,,-244.20000613E-3,1.2320001,,,,,-244.20000613E-3,372.00000882E-3,
,,,-244.00000274E-3,1.2320001,,,,,-244.00000274E-3,372.00000882E-3,
,,,-243.79999936E-3,1.2320001,,,,,-243.79999936E-3,372.00000882E-3,
,,,-243.59999597E-3,1.2320001,,,,,-243.59999597E-3,372.00000882E-3,
,,,-243.40000749E-3,1.2320001,,,,,-243.40000749E-3,372.00000882E-3,
,,,-243.20000410E-3,1.2320001,,,,,-243.20000410E-3,372.00000882E-3,
,,,-243.00000072E-3,1.2400000,,,,,-243.00000072E-3,372.00000882E-3,
,,,-242.79999733E-3,1.2400000,,,,,-242.79999733E-3,374.00001287E-3,
,,,-242.59999394E-3,1.2400000,,,,,-242.59999394E-3,378.00002098E-3,
,,,-242.40000546E-3,1.2480000,,,,,-242.40000546E-3,376.00001693E-3,
,,,-242.20000207E-3,1.2480000,,,,,-242.20000207E-3,378.00002098E-3,
,,,-241.99999869E-3,1.2480000,,,,,-241.99999869E-3,376.00001693E-3,
,,,-241.79999530E-3,1.2560000,,,,,-241.79999530E-3,376.00001693E-3,
,,,-241.60000682E-3,1.2560000,,,,,-241.60000682E-3,376.00001693E-3,
,,,-241.40000343E-3,1.2560000,,,,,-241.40000343E-3,376.00001693E-3,
,,,-241.20000005E-3,1.2560000,,,,,-241.20000005E-3,378.00002098E-3,
,,,-240.99999666E-3,1.2560000,,,,,-240.99999666E-3,380.00002503E-3,
,,,-240.79999328E-3,1.2560000,,,,,-240.79999328E-3,378.00002098E-3,
,,,-240.60000479E-3,1.2640001,,,,,-240.60000479E-3,380.00002503E-3,
,,,-240.40000141E-3,1.2640001,,,,,-240.40000141E-3,380.00002503E-3,
,,,-240.19999802E-3,1.2640001,,,,,-240.19999802E-3,380.00002503E-3,
,,,-239.99999464E-3,1.2720001,,,,,-239.99999464E-3,384.00000334E-3,
,,,-239.80000615E-3,1.2720001,,,,,-239.80000615E-3,386.00000739E-3,
,,,-239.60000277E-3,1.2720001,,,,,-239.60000277E-3,384.00000334E-3,
,,,-239.39999938E-3,1.2720001,,,,,-239.39999938E-3,384.00000334E-3,
,,,-239.19999599E-3,1.2800001,,,,,-239.19999599E-3,386.00000739E-3,
,,,-239.00000751E-3,1.2800001,,,,,-239.00000751E-3,388.00001144E-3,
,,,-238.80000412E-3,1.2800001,,,,,-238.80000412E-3,388.00001144E-3,
,,,-238.60000074E-3,1.2880001,,,,,-238.60000074E-3,388.00001144E-3,
,,,-238.39999735E-3,1.2880001,,,,,-238.39999735E-3,390.00001550E-3,
,,,-238.19999397E-3,1.2880001,,,,,-238.19999397E-3,390.00001550E-3,
,,,-238.00000548E-3,1.2880001,,,,,-238.00000548E-3,390.00001550E-3,
,,,-237.80000210E-3,1.2960000,,,,,-237.80000210E-3,392.00001955E-3,
,,,-237.59999871E-3,1.2960000,,,,,-237.59999871E-3,390.00001550E-3,
,,,-237.39999533E-3,1.2960000,,,,,-237.39999533E-3,392.00001955E-3,
,,,-237.20000684E-3,1.3040000,,,,,-237.20000684E-3,392.00001955E-3,
,,,-237.00000346E-3,1.3040000,,,,,-237.00000346E-3,396.00002766E-3,
,,,-236.80000007E-3,1.3040000,,,,,-236.80000007E-3,394.00002360E-3,
,,,-236.59999669E-3,1.3120000,,,,,-236.59999669E-3,396.00002766E-3,
,,,-236.39999330E-3,1.3120000,,,,,-236.39999330E-3,396.00002766E-3,
,,,-236.20000482E-3,1.3120000,,,,,-236.20000482E-3,398.00003171E-3,
,,,-236.00000143E-3,1.3200001,,,,,-236.00000143E-3,398.00003171E-3,
,,,-235.79999804E-3,1.3200001,,,,,-235.79999804E-3,398.00003171E-3,
,,,-235.59999466E-3,1.3200001,,,,,-235.59999466E-3,400.00000596E-3,
,,,-235.40000618E-3,1.3200001,,,,,-235.40000618E-3,402.00001001E-3,
,,,-235.20000279E-3,1.3280001,,,,,-235.20000279E-3,400.00000596E-3,
,,,-234.99999940E-3,1.3360001,,,,,-234.99999940E-3,402.00001001E-3,
,,,-234.79999602E-3,1.3360001,,,,,-234.79999602E-3,402.00001001E-3,
,,,-234.60000753E-3,1.3360001,,,,,-234.60000753E-3,402.00001001E-3,
,,,-234.40000415E-3,1.3360001,,,,,-234.40000415E-3,402.00001001E-3,
,,,-234.20000076E-3,1.3440001,,,,,-234.20000076E-3,402.00001001E-3,
,,,-233.99999738E-3,1.3440001,,,,,-233.99999738E-3,404.000014067E-3,
,,,-233.79999399E-3,1.3440001,,,,,-233.79999399E-3,404.000014067E-3,
,,,-233.60000551E-3,1.3520001,,,,,-233.60000551E-3,406.000018120E-3,
,,,-233.40000212E-3,1.3600000,,,,,-233.40000212E-3,410.000026226E-3,
,,,-233.19999874E-3,1.3600000,,,,,-233.19999874E-3,408.000022173E-3,
,,,-232.99999535E-3,1.3600000,,,,,-232.99999535E-3,410.000026226E-3,
,,,-232.80000687E-3,1.3600000,,,,,-232.80000687E-3,410.000026226E-3,
,,,-232.60000348E-3,1.3680000,,,,,-232.60000348E-3,412.000030279E-3,
,,,-232.40000010E-3,1.3680000,,,,,-232.40000010E-3,412.000030279E-3,
,,,-232.19999671E-3,1.3760000,,,,,-232.19999671E-3,412.000030279E-3,
,,,-231.99999332E-3,1.3760000,,,,,-231.99999332E-3,412.000030279E-3,
,,,-231.80000484E-3,1.3760000,,,,,-231.80000484E-3,414.000034332E-3,
,,,-231.60000145E-3,1.3840001,,,,,-231.60000145E-3,414.000034332E-3,
,,,-231.39999807E-3,1.3840001,,,,,-231.39999807E-3,416.000008583E-3,
,,,-231.19999468E-3,1.3840001,,,,,-231.19999468E-3,416.000008583E-3,
,,,-231.00000620E-3,1.3920001,,,,,-231.00000620E-3,418.000012636E-3,
,,,-230.80000281E-3,1.3920001,,,,,-230.80000281E-3,418.000012636E-3,
,,,-230.59999943E-3,1.3920001,,,,,-230.59999943E-3,420.000016689E-3,
,,,-230.39999604E-3,1.4000001,,,,,-230.39999604E-3,422.000020742E-3,
,,,-230.20000756E-3,1.4000001,,,,,-230.20000756E-3,424.000024796E-3,
,,,-230.00000417E-3,1.4080001,,,,,-230.00000417E-3,424.000024796E-3,
,,,-229.80000079E-3,1.4080001,,,,,-229.80000079E-3,424.000024796E-3,
,,,-229.59999740E-3,1.4080001,,,,,-229.59999740E-3,426.000028849E-3,
,,,-229.39999402E-3,1.4160000,,,,,-229.39999402E-3,424.000024796E-3,
,,,-229.20000553E-3,1.4160000,,,,,-229.20000553E-3,426.000028849E-3,
,,,-229.00000215E-3,1.4240000,,,,,-229.00000215E-3,428.000032902E-3,
,,,-228.79999876E-3,1.4240000,,,,,-228.79999876E-3,428.000032902E-3,
,,,-228.59999537E-3,1.4240000,,,,,-228.59999537E-3,428.000032902E-3,
,,,-228.40000689E-3,1.4320000,,,,,-228.40000689E-3,430.000007153E-3,
,,,-228.20000350E-3,1.4320000,,,,,-228.20000350E-3,428.000032902E-3,
,,,-228.00000012E-3,1.4320000,,,,,-228.00000012E-3,430.000007153E-3,
,,,-227.79999673E-3,1.4400001,,,,,-227.79999673E-3,430.000007153E-3,
,,,-227.59999335E-3,1.4400001,,,,,-227.59999335E-3,434.000015259E-3,
,,,-227.40000486E-3,1.4480001,,,,,-227.40000486E-3,436.000019312E-3,
,,,-227.20000148E-3,1.4480001,,,,,-227.20000148E-3,436.000019312E-3,
,,,-226.99999809E-3,1.4560001,,,,,-226.99999809E-3,436.000019312E-3,
,,,-226.79999471E-3,1.4560001,,,,,-226.79999471E-3,438.000023365E-3,
,,,-226.60000622E-3,1.4640001,,,,,-226.60000622E-3,440.000027418E-3,
,,,-226.40000284E-3,1.4640001,,,,,-226.40000284E-3,440.000027418E-3,
,,,-226.19999945E-3,1.4640001,,,,,-226.19999945E-3,440.000027418E-3,
,,,-225.99999607E-3,1.4720001,,,,,-225.99999607E-3,440.000027418E-3,
,,,-225.80000758E-3,1.4720001,,,,,-225.80000758E-3,440.000027418E-3,
,,,-225.60000420E-3,1.4800000,,,,,-225.60000420E-3,442.000031471E-3,
,,,-225.40000081E-3,1.4800000,,,,,-225.40000081E-3,444.000035524E-3,
,,,-225.19999743E-3,1.4800000,,,,,-225.19999743E-3,442.000031471E-3,
,,,-224.99999404E-3,1.4880000,,,,,-224.99999404E-3,446.000009775E-3,
,,,-224.80000556E-3,1.4880000,,,,,-224.80000556E-3,448.000013828E-3,
,,,-224.60000217E-3,1.4960001,,,,,-224.60000217E-3,448.000013828E-3,
,,,-224.39999878E-3,1.4960001,,,,,-224.39999878E-3,450.000017881E-3,
,,,-224.19999540E-3,1.4960001,,,,,-224.19999540E-3,452.000021935E-3,
,,,-224.00000691E-3,1.5040001,,,,,-224.00000691E-3,452.000021935E-3,
,,,-223.80000353E-3,1.5120001,,,,,-223.80000353E-3,448.000013828E-3,
,,,-223.60000014E-3,1.5120001,,,,,-223.60000014E-3,454.000025988E-3,
,,,-223.39999676E-3,1.5120001,,,,,-223.39999676E-3,454.000025988E-3,
,,,-223.19999337E-3,1.5120001,,,,,-223.19999337E-3,456.000030041E-3,
,,,-223.00000489E-3,1.5200001,,,,,-223.00000489E-3,456.000030041E-3,
,,,-222.80000150E-3,1.5280001,,,,,-222.80000150E-3,456.000030041E-3,
,,,-222.59999812E-3,1.5280001,,,,,-222.59999812E-3,456.000030041E-3,
,,,-222.39999473E-3,1.5280001,,,,,-222.39999473E-3,458.000034094E-3,
,,,-222.20000625E-3,1.5360000,,,,,-222.20000625E-3,460.000008345E-3,
,,,-222.00000286E-3,1.5360000,,,,,-222.00000286E-3,462.000012398E-3,
,,,-221.79999948E-3,1.5440000,,,,,-221.79999948E-3,462.000012398E-3,
,,,-221.59999609E-3,1.5440000,,,,,-221.59999609E-3,464.000016451E-3,
,,,-221.40000761E-3,1.5440000,,,,,-221.40000761E-3,466.000020504E-3,
,,,-221.20000422E-3,1.5520000,,,,,-221.20000422E-3,464.000016451E-3,
,,,-221.00000083E-3,1.5520000,,,,,-221.00000083E-3,468.000024557E-3,
,,,-220.79999745E-3,1.5600001,,,,,-220.79999745E-3,470.000028610E-3,
,,,-220.59999406E-3,1.5600001,,,,,-220.59999406E-3,470.000028610E-3,
,,,-220.40000558E-3,1.5680001,,,,,-220.40000558E-3,470.000028610E-3,
,,,-220.20000219E-3,1.5680001,,,,,-220.20000219E-3,470.000028610E-3,
,,,-219.99999881E-3,1.5680001,,,,,-219.99999881E-3,472.000032663E-3,
,,,-219.79999542E-3,1.5760001,,,,,-219.79999542E-3,474.000036716E-3,
,,,-219.60000694E-3,1.5840001,,,,,-219.60000694E-3,474.000036716E-3,
,,,-219.40000355E-3,1.5840001,,,,,-219.40000355E-3,476.000010967E-3,
,,,-219.20000017E-3,1.5920001,,,,,-219.20000017E-3,476.000010967E-3,
,,,-218.99999678E-3,1.5920001,,,,,-218.99999678E-3,476.000010967E-3,
,,,-218.79999340E-3,1.6000000,,,,,-218.79999340E-3,476.000010967E-3,
,,,-218.60000491E-3,1.6000000,,,,,-218.60000491E-3,478.000015020E-3,
,,,-218.40000153E-3,1.6000000,,,,,-218.40000153E-3,482.000023127E-3,
,,,-218.19999814E-3,1.6080000,,,,,-218.19999814E-3,482.000023127E-3,
,,,-217.99999475E-3,1.6080000,,,,,-217.99999475E-3,482.000023127E-3,
,,,-217.80000627E-3,1.6160001,,,,,-217.80000627E-3,484.000027180E-3,
,,,-217.60000288E-3,1.6160001,,,,,-217.60000288E-3,486.000031233E-3,
,,,-217.39999950E-3,1.6160001,,,,,-217.39999950E-3,488.000035286E-3,
,,,-217.19999611E-3,1.6240001,,,,,-217.19999611E-3,488.000035286E-3,
,,,-217.00000763E-3,1.6320001,,,,,-217.00000763E-3,488.000035286E-3,
,,,-216.80000424E-3,1.6320001,,,,,-216.80000424E-3,488.000035286E-3,
,,,-216.60000086E-3,1.6400001,,,,,-216.60000086E-3,490.000009537E-3,
,,,-216.39999747E-3,1.6400001,,,,,-216.39999747E-3,492.000013590E-3,
,,,-216.19999409E-3,1.6400001,,,,,-216.19999409E-3,492.000013590E-3,
,,,-216.00000560E-3,1.6480001,,,,,-216.00000560E-3,494.000017643E-3,
,,,-215.80000222E-3,1.6480001,,,,,-215.80000222E-3,494.000017643E-3,
,,,-215.59999883E-3,1.6560001,,,,,-215.59999883E-3,496.000021696E-3,
,,,-215.39999545E-3,1.6560001,,,,,-215.39999545E-3,498.000025749E-3,
,,,-215.20000696E-3,1.6640000,,,,,-215.20000696E-3,496.000021696E-3,
,,,-215.00000358E-3,1.6640000,,,,,-215.00000358E-3,500.000000000E-3,
,,,-214.80000019E-3,1.6720001,,,,,-214.80000019E-3,500.000000000E-3,
,,,-214.59999681E-3,1.6720001,,,,,-214.59999681E-3,502.000033855E-3,
,,,-214.40000832E-3,1.6800001,,,,,-214.40000832E-3,502.000033855E-3,
,,,-214.20000494E-3,1.6800001,,,,,-214.20000494E-3,502.000033855E-3,
,,,-214.00000155E-3,1.6880001,,,,,-214.00000155E-3,504.000008106E-3,
,,,-213.79999816E-3,1.6880001,,,,,-213.79999816E-3,506.000041962E-3,
,,,-213.59999478E-3,1.6880001,,,,,-213.59999478E-3,506.000041962E-3,
,,,-213.40000629E-3,1.6960001,,,,,-213.40000629E-3,508.000016212E-3,
,,,-213.20000291E-3,1.7040001,,,,,-213.20000291E-3,510.000050068E-3,
,,,-212.99999952E-3,1.7040001,,,,,-212.99999952E-3,510.000050068E-3,
,,,-212.79999614E-3,1.7040001,,,,,-212.79999614E-3,510.000050068E-3,
,,,-212.60000765E-3,1.7120001,,,,,-212.60000765E-3,513.999998569E-3,
,,,-212.40000427E-3,1.7200000,,,,,-212.40000427E-3,513.999998569E-3,
,,,-212.20000088E-3,1.7200000,,,,,-212.20000088E-3,513.999998569E-3,
,,,-211.99999750E-3,1.7200000,,,,,-211.99999750E-3,513.999998569E-3,
,,,-211.79999411E-3,1.7280000,,,,,-211.79999411E-3,518.000006676E-3,
,,,-211.60000563E-3,1.7280000,,,,,-211.60000563E-3,518.000006676E-3,
,,,-211.40000224E-3,1.7360001,,,,,-211.40000224E-3,520.000040531E-3,
,,,-211.19999886E-3,1.7360001,,,,,-211.19999886E-3,522.000014782E-3,
,,,-210.99999547E-3,1.7440001,,,,,-210.99999547E-3,524.000048637E-3,
,,,-210.80000699E-3,1.7520001,,,,,-210.80000699E-3,522.000014782E-3,
,,,-210.60000360E-3,1.7520001,,,,,-210.60000360E-3,524.000048637E-3,
,,,-210.40000021E-3,1.7600001,,,,,-210.40000021E-3,526.000022888E-3,
,,,-210.19999683E-3,1.7600001,,,,,-210.19999683E-3,527.999997139E-3,
,,,-210.00000834E-3,1.7680001,,,,,-210.00000834E-3,524.000048637E-3,
,,,-209.80000496E-3,1.7680001,,,,,-209.80000496E-3,527.999997139E-3,
,,,-209.60000157E-3,1.7680001,,,,,-209.60000157E-3,530.000030994E-3,
,,,-209.39999819E-3,1.7760001,,,,,-209.39999819E-3,530.000030994E-3,
,,,-209.19999480E-3,1.7840000,,,,,-209.19999480E-3,530.000030994E-3,
,,,-209.00000632E-3,1.7840000,,,,,-209.00000632E-3,534.000039101E-3,
,,,-208.80000293E-3,1.7920001,,,,,-208.80000293E-3,534.000039101E-3,
,,,-208.59999955E-3,1.7920001,,,,,-208.59999955E-3,534.000039101E-3,
,,,-208.39999616E-3,1.8000001,,,,,-208.39999616E-3,536.000013351E-3,
,,,-208.20000768E-3,1.8000001,,,,,-208.20000768E-3,536.000013351E-3,
,,,-208.00000429E-3,1.8000001,,,,,-208.00000429E-3,538.000047207E-3,
,,,-207.80000091E-3,1.8080001,,,,,-207.80000091E-3,538.000047207E-3,
,,,-207.59999752E-3,1.8080001,,,,,-207.59999752E-3,542.000055313E-3,
,,,-207.39999413E-3,1.8160001,,,,,-207.39999413E-3,542.000055313E-3,
,,,-207.20000565E-3,1.8160001,,,,,-207.20000565E-3,542.000055313E-3,
,,,-207.00000226E-3,1.8240001,,,,,-207.00000226E-3,544.000029564E-3,
,,,-206.79999888E-3,1.8240001,,,,,-206.79999888E-3,544.000029564E-3,
,,,-206.59999549E-3,1.8320001,,,,,-206.59999549E-3,546.000003815E-3,
,,,-206.40000701E-3,1.8320001,,,,,-206.40000701E-3,548.000037670E-3,
,,,-206.20000362E-3,1.8400000,,,,,-206.20000362E-3,548.000037670E-3,
,,,-206.00000024E-3,1.8400000,,,,,-206.00000024E-3,550.000011921E-3,
,,,-205.79999685E-3,1.8480000,,,,,-205.79999685E-3,550.000011921E-3,
,,,-205.60000837E-3,1.8480000,,,,,-205.60000837E-3,554.000020027E-3,
,,,-205.40000498E-3,1.8560001,,,,,-205.40000498E-3,554.000020027E-3,
,,,-205.20000160E-3,1.8560001,,,,,-205.20000160E-3,554.000020027E-3,
,,,-204.99999821E-3,1.8640001,,,,,-204.99999821E-3,556.000053883E-3,
,,,-204.79999483E-3,1.8640001,,,,,-204.79999483E-3,556.000053883E-3,
,,,-204.60000634E-3,1.8720001,,,,,-204.60000634E-3,558.000028133E-3,
,,,-204.40000296E-3,1.8720001,,,,,-204.40000296E-3,560.000002384E-3,
,,,-204.19999957E-3,1.8720001,,,,,-204.19999957E-3,560.000002384E-3,
,,,-203.99999619E-3,1.8800001,,,,,-203.99999619E-3,562.000036240E-3,
,,,-203.80000770E-3,1.8800001,,,,,-203.80000770E-3,564.000010490E-3,
,,,-203.60000432E-3,1.8880001,,,,,-203.60000432E-3,564.000010490E-3,
,,,-203.40000093E-3,1.8880001,,,,,-203.40000093E-3,564.000010490E-3,
,,,-203.19999754E-3,1.8960001,,,,,-203.19999754E-3,564.000010490E-3,
,,,-202.99999416E-3,1.8960001,,,,,-202.99999416E-3,566.000044346E-3,
,,,-202.80000567E-3,1.9040000,,,,,-202.80000567E-3,566.000044346E-3,
,,,-202.60000229E-3,1.9040000,,,,,-202.60000229E-3,568.000018597E-3,
,,,-202.39999890E-3,1.9120001,,,,,-202.39999890E-3,570.000052452E-3,
,,,-202.19999552E-3,1.9120001,,,,,-202.19999552E-3,570.000052452E-3,
,,,-202.00000703E-3,1.9120001,,,,,-202.00000703E-3,572.000026703E-3,
,,,-201.80000365E-3,1.9200001,,,,,-201.80000365E-3,572.000026703E-3,
,,,-201.60000026E-3,1.9200001,,,,,-201.60000026E-3,574.000000954E-3,
,,,-201.39999688E-3,1.9280001,,,,,-201.39999688E-3,576.000034809E-3,
,,,-201.20000839E-3,1.9280001,,,,,-201.20000839E-3,576.000034809E-3,
,,,-201.00000501E-3,1.9360001,,,,,-201.00000501E-3,578.000009060E-3,
,,,-200.80000162E-3,1.9360001,,,,,-200.80000162E-3,578.000009060E-3,
,,,-200.59999824E-3,1.9440001,,,,,-200.59999824E-3,580.000042915E-3,
,,,-200.39999485E-3,1.9440001,,,,,-200.39999485E-3,582.000017166E-3,
,,,-200.20000637E-3,1.9520001,,,,,-200.20000637E-3,582.000017166E-3,
,,,-200.00000298E-3,1.9520001,,,,,-200.00000298E-3,582.000017166E-3,
,,,-199.79999959E-3,1.9600000,,,,,-199.79999959E-3,584.000051022E-3,
,,,-199.59999621E-3,1.9600000,,,,,-199.59999621E-3,586.000025272E-3,
,,,-199.40000772E-3,1.9680001,,,,,-199.40000772E-3,587.999999523E-3,
,,,-199.20000434E-3,1.9680001,,,,,-199.20000434E-3,586.000025272E-3,
,,,-199.00000095E-3,1.9680001,,,,,-199.00000095E-3,587.999999523E-3,
,,,-198.79999757E-3,1.9760001,,,,,-198.79999757E-3,587.999999523E-3,
,,,-198.59999418E-3,1.9760001,,,,,-198.59999418E-3,592.000007629E-3,
,,,-198.40000570E-3,1.9840001,,,,,-198.40000570E-3,592.000007629E-3,
,,,-198.20000231E-3,1.9840001,,,,,-198.20000231E-3,592.000007629E-3,
,,,-197.99999893E-3,1.9920001,,,,,-197.99999893E-3,594.000041485E-3,
,,,-197.79999554E-3,1.9920001,,,,,-197.79999554E-3,596.000015736E-3,
,,,-197.60000706E-3,2.0000000,,,,,-197.60000706E-3,596.000015736E-3,
,,,-197.40000367E-3,2.0000000,,,,,-197.40000367E-3,596.000015736E-3,
,,,-197.20000029E-3,2.0080001,,,,,-197.20000029E-3,598.000049591E-3,
,,,-196.99999690E-3,2.0080001,,,,,-196.99999690E-3,598.000049591E-3,
,,,-196.80000842E-3,2.0160000,,,,,-196.80000842E-3,600.000023842E-3,
,,,-196.60000503E-3,2.0160000,,,,,-196.60000503E-3,602.000057697E-3,
,,,-196.40000165E-3,2.0160000,,,,,-196.40000165E-3,602.000057697E-3,
,,,-196.19999826E-3,2.0240002,,,,,-196.19999826E-3,602.000057697E-3,
,,,-195.99999487E-3,2.0240002,,,,,-195.99999487E-3,604.000031948E-3,
,,,-195.80000639E-3,2.0320001,,,,,-195.80000639E-3,602.000057697E-3,
,,,-195.60000300E-3,2.0320001,,,,,-195.60000300E-3,604.000031948E-3,
,,,-195.39999962E-3,2.0400002,,,,,-195.39999962E-3,608.000040054E-3,
,,,-195.19999623E-3,2.0400002,,,,,-195.19999623E-3,608.000040054E-3,
,,,-195.00000775E-3,2.0480001,,,,,-195.00000775E-3,610.000014305E-3,
,,,-194.80000436E-3,2.0480001,,,,,-194.80000436E-3,610.000014305E-3,
,,,-194.60000098E-3,2.0480001,,,,,-194.60000098E-3,612.000048161E-3,
,,,-194.39999759E-3,2.0560000,,,,,-194.39999759E-3,614.000022411E-3,
,,,-194.19999421E-3,2.0560000,,,,,-194.19999421E-3,614.000022411E-3,
,,,-194.00000572E-3,2.0640001,,,,,-194.00000572E-3,614.000022411E-3,
,,,-193.80000234E-3,2.0640001,,,,,-193.80000234E-3,616.000056267E-3,
