impedance_data/s50.csv

Record Length,2500,Points,-24.99999851E-3,1.1840000,,Record Length,2500,Points,-24.99999851E-3,358.00001025E-3,
Sample Interval,19.9999995E-6,s,-24.97999929E-3,1.1920000,,Sample Interval,19.9999995E-6,s,-24.97999929E-3,358.00001025E-3,
Trigger Point,1.2500000E3,Samples,-24.95999821E-3,1.1920000,,Trigger Point,1.2500000E3,Samples,-24.95999821E-3,358.00001025E-3,
,,,-24.93999898E-3,1.1920000,,,,,-24.93999898E-3,360.00001431E-3,
,,,-24.91999790E-3,1.1920000,,,,,-24.91999790E-3,358.00001025E-3,
,,,-24.89999868E-3,1.1920000,,,,,-24.89999868E-3,360.00001431E-3,
Source,CH1,,-24.87999760E-3,1.1920000,,Source,CH2,,-24.87999760E-3,360.00001431E-3,
Vertical Units,Volts,,-24.85999838E-3,1.1920000,,Vertical Units,Volts,,-24.85999838E-3,360.00001431E-3,
Vertical Scale,200.00000950E-3,,-24.83999915E-3,1.2000000,,Vertical Scale,50.00000237E-3,,-24.83999915E-3,360.00001431E-3,
Vertical Offset,0,,-24.81999807E-3,1.2000000,,Vertical Offset,0,,-24.81999807E-3,360.00001431E-3,
Horizontal Units,s,,-24.79999885E-3,1.2000000,,Horizontal Units,s,,-24.79999885E-3,362.00001836E-3,
Horizontal Scale,4.99999987E-3,,-24.77999777E-3,1.2000000,,Horizontal Scale,4.99999987E-3,,-24.77999777E-3,362.00001836E-3,
Pt Fmt,Y,,-24.75999855E-3,1.2000000,,Pt Fmt,Y,,-24.75999855E-3,362.00001836E-3,
Yzero,-8.840000000,,-24.73999932E-3,1.2000000,,Yzero,-10.8000000,,-24.73999932E-3,362.00001836E-3,
Probe Atten,1.000000,,-24.71999824E-3,1.2000000,,Probe Atten,1.000000,,-24.71999824E-3,364.00002241E-3,
,,,-24.69999902E-3,1.2080001,,,,,-24.69999902E-3,364.00002241E-3,
Note,TBS 1022 - 18:39:52   25/7/2022,,-24.67999794E-3,1.2080001,,Note,TBS 1022 - 18:39:52   25/7/2022,,-24.67999794E-3,364.00002241E-3,
,,,-24.65999871E-3,1.2080001,,,,,-24.65999871E-3,364.00002241E-3,
,,,-24.63999763E-3,1.2080001,,,,,-24.63999763E-3,366.00002646E-3,
,,,-24.61999841E-3,1.2080001,,,,,-24.61999841E-3,366.00002646E-3,
,,,-24.59999919E-3,1.2160001,,,,,-24.59999919E-3,366.00002646E-3,
,,,-24.57999811E-3,1.2160001,,,,,-24.57999811E-3,366.00002646E-3,
,,,-24.55999888E-3,1.2160001,,,,,-24.55999888E-3,366.00002646E-3,
,,,-24.53999780E-3,1.2160001,,,,,-24.53999780E-3,368.00003052E-3,
,,,-24.51999858E-3,1.2160001,,,,,-24.51999858E-3,368.00003052E-3,
,,,-24.49999936E-3,1.2160001,,,,,-24.49999936E-3,368.00003052E-3,
,,,-24.47999828E-3,1.2240001,,,,,-24.47999828E-3,368.00003052E-3,
,,,-24.45999905E-3,1.2240001,,,,,-24.45999905E-3,368.00003052E-3,
,,,-24.43999797E-3,1.2240001,,,,,-24.43999797E-3,370.00000477E-3,
,,,-24.41999875E-3,1.2240001,,,,,-24.41999875E-3,370.00000477E-3,
,,,-24.39999767E-3,1.2320001,,,,,-24.39999767E-3,370.00000477E-3,
,,,-24.37999845E-3,1.2320001,,,,,-24.37999845E-3,370.00000477E-3,
,,,-24.35999922E-3,1.2320001,,,,,-24.35999922E-3,370.00000477E-3,
,,,-24.33999814E-3,1.2320001,,,,,-24.33999814E-3,372.00000882E-3,
,,,-24.31999892E-3,1.2400000,,,,,-24.31999892E-3,372.00000882E-3,
,,,-24.29999784E-3,1.2400000,,,,,-24.29999784E-3,372.00000882E-3,
,,,-24.27999862E-3,1.2400000,,,,,-24.27999862E-3,374.00001287E-3,
,,,-24.25999939E-3,1.2400000,,,,,-24.25999939E-3,374.00001287E-3,
,,,-24.23999831E-3,1.2480000,,,,,-24.23999831E-3,374.00001287E-3,
,,,-24.21999909E-3,1.2480000,,,,,-24.21999909E-3,376.00001693E-3,
,,,-24.19999801E-3,1.2480000,,,,,-24.19999801E-3,376.00001693E-3,
,,,-24.17999879E-3,1.2560000,,,,,-24.17999879E-3,376.00001693E-3,
,,,-24.15999770E-3,1.2560000,,,,,-24.15999770E-3,378.00002098E-3,
,,,-24.13999848E-3,1.2560000,,,,,-24.13999848E-3,378.00002098E-3,
,,,-24.11999926E-3,1.2560000,,,,,-24.11999926E-3,378.00002098E-3,
,,,-24.09999818E-3,1.2560000,,,,,-24.09999818E-3,380.00002503E-3,
,,,-24.07999896E-3,1.2560000,,,,,-24.07999896E-3,380.00002503E-3,
,,,-24.05999787E-3,1.2640001,,,,,-24.05999787E-3,380.00002503E-3,
,,,-24.03999865E-3,1.2640001,,,,,-24.03999865E-3,382.00002909E-3,
,,,-24.01999943E-3,1.2640001,,,,,-24.01999943E-3,382.00002909E-3,
,,,-23.99999835E-3,1.2720001,,,,,-23.99999835E-3,382.00002909E-3,
,,,-23.97999913E-3,1.2720001,,,,,-23.97999913E-3,384.00000334E-3,
,,,-23.95999804E-3,1.2720001,,,,,-23.95999804E-3,384.00000334E-3,
,,,-23.93999882E-3,1.2720001,,,,,-23.93999882E-3,384.00000334E-3,
,,,-23.91999774E-3,1.2800001,,,,,-23.91999774E-3,386.00000739E-3,
,,,-23.89999852E-3,1.2800001,,,,,-23.89999852E-3,386.00000739E-3,
,,,-23.87999929E-3,1.2800001,,,,,-23.87999929E-3,386.00000739E-3,
,,,-23.85999821E-3,1.2880001,,,,,-23.85999821E-3,388.00001144E-3,
,,,-23.83999899E-3,1.2880001,,,,,-23.83999899E-3,388.00001144E-3,
,,,-23.81999791E-3,1.2880001,,,,,-23.81999791E-3,388.00001144E-3,
,,,-23.79999869E-3,1.2880001,,,,,-23.79999869E-3,388.00001144E-3,
,,,-23.77999946E-3,1.2960000,,,,,-23.77999946E-3,390.00001550E-3,
,,,-23.75999838E-3,1.2960000,,,,,-23.75999838E-3,390.00001550E-3,
,,,-23.73999916E-3,1.2960000,,,,,-23.73999916E-3,392.00001955E-3,
,,,-23.71999808E-3,1.3040000,,,,,-23.71999808E-3,394.00002360E-3,
,,,-23.69999886E-3,1.3040000,,,,,-23.69999886E-3,392.00001955E-3,
,,,-23.67999777E-3,1.3040000,,,,,-23.67999777E-3,394.00002360E-3,
,,,-23.65999855E-3,1.3120000,,,,,-23.65999855E-3,394.00002360E-3,
,,,-23.63999933E-3,1.3120000,,,,,-23.63999933E-3,396.00002766E-3,
,,,-23.61999825E-3,1.3120000,,,,,-23.61999825E-3,396.00002766E-3,
,,,-23.59999903E-3,1.3200001,,,,,-23.59999903E-3,396.00002766E-3,
,,,-23.57999794E-3,1.3200001,,,,,-23.57999794E-3,398.00003171E-3,
,,,-23.55999872E-3,1.3200001,,,,,-23.55999872E-3,398.00003171E-3,
,,,-23.53999764E-3,1.3200001,,,,,-23.53999764E-3,398.00003171E-3,
,,,-23.51999842E-3,1.3280001,,,,,-23.51999842E-3,400.00000596E-3,
,,,-23.49999920E-3,1.3280001,,,,,-23.49999920E-3,400.00000596E-3,
,,,-23.47999811E-3,1.3360001,,,,,-23.47999811E-3,400.00000596E-3,
,,,-23.45999889E-3,1.3360001,,,,,-23.45999889E-3,402.00001001E-3,
,,,-23.43999781E-3,1.3360001,,,,,-23.43999781E-3,402.00001001E-3,
,,,-23.41999859E-3,1.3440001,,,,,-23.41999859E-3,404.000014067E-3,
,,,-23.39999937E-3,1.3440001,,,,,-23.39999937E-3,404.000014067E-3,
,,,-23.37999828E-3,1.3520001,,,,,-23.37999828E-3,406.000018120E-3,
,,,-23.35999906E-3,1.3520001,,,,,-23.35999906E-3,406.000018120E-3,
,,,-23.33999798E-3,1.3520001,,,,,-23.33999798E-3,406.000018120E-3,
,,,-23.31999876E-3,1.3600000,,,,,-23.31999876E-3,408.000022173E-3,
,,,-23.29999767E-3,1.3600000,,,,,-23.29999767E-3,408.000022173E-3,
,,,-23.27999845E-3,1.3600000,,,,,-23.27999845E-3,410.000026226E-3,
,,,-23.25999923E-3,1.3680000,,,,,-23.25999923E-3,410.000026226E-3,
,,,-23.23999815E-3,1.3680000,,,,,-23.23999815E-3,412.000030279E-3,
,,,-23.21999893E-3,1.3760000,,,,,-23.21999893E-3,412.000030279E-3,
,,,-23.19999784E-3,1.3760000,,,,,-23.19999784E-3,412.000030279E-3,
,,,-23.17999862E-3,1.3760000,,,,,-23.17999862E-3,414.000034332E-3,
,,,-23.15999940E-3,1.3840001,,,,,-23.15999940E-3,414.000034332E-3,
,,,-23.13999832E-3,1.3840001,,,,,-23.13999832E-3,416.000008583E-3,
,,,-23.11999910E-3,1.3920001,,,,,-23.11999910E-3,416.000008583E-3,
,,,-23.09999801E-3,1.3920001,,,,,-23.09999801E-3,418.000012636E-3,
,,,-23.07999879E-3,1.3920001,,,,,-23.07999879E-3,418.000012636E-3,
,,,-23.05999771E-3,1.3920001,,,,,-23.05999771E-3,420.000016689E-3,
,,,-23.03999849E-3,1.4000001,,,,,-23.03999849E-3,420.000016689E-3,
,,,-23.01999927E-3,1.4000001,,,,,-23.01999927E-3,422.000020742E-3,
,,,-22.99999818E-3,1.4000001,,,,,-22.99999818E-3,422.000020742E-3,
,,,-22.97999896E-3,1.4080001,,,,,-22.97999896E-3,422.000020742E-3,
,,,-22.95999788E-3,1.4080001,,,,,-22.95999788E-3,424.000024796E-3,
,,,-22.93999866E-3,1.4160000,,,,,-22.93999866E-3,426.000028849E-3,
,,,-22.91999944E-3,1.4160000,,,,,-22.91999944E-3,426.000028849E-3,
,,,-22.89999835E-3,1.4160000,,,,,-22.89999835E-3,428.000032902E-3,
,,,-22.87999913E-3,1.4240000,,,,,-22.87999913E-3,428.000032902E-3,
,,,-22.85999805E-3,1.4240000,,,,,-22.85999805E-3,428.000032902E-3,
,,,-22.83999883E-3,1.4240000,,,,,-22.83999883E-3,430.000007153E-3,
,,,-22.81999774E-3,1.4320000,,,,,-22.81999774E-3,430.000007153E-3,
,,,-22.79999852E-3,1.4320000,,,,,-22.79999852E-3,432.000011206E-3,
,,,-22.77999930E-3,1.4400001,,,,,-22.77999930E-3,432.000011206E-3,
,,,-22.75999822E-3,1.4400001,,,,,-22.75999822E-3,434.000015259E-3,
,,,-22.73999900E-3,1.4400001,,,,,-22.73999900E-3,434.000015259E-3,
,,,-22.71999791E-3,1.4480001,,,,,-22.71999791E-3,436.000019312E-3,
,,,-22.69999869E-3,1.4560001,,,,,-22.69999869E-3,436.000019312E-3,
,,,-22.67999947E-3,1.4560001,,,,,-22.67999947E-3,438.000023365E-3,
,,,-22.65999839E-3,1.4560001,,,,,-22.65999839E-3,438.000023365E-3,
,,,-22.63999917E-3,1.4640001,,,,,-22.63999917E-3,440.000027418E-3,
,,,-22.61999808E-3,1.4640001,,,,,-22.61999808E-3,440.000027418E-3,
,,,-22.59999886E-3,1.4640001,,,,,-22.59999886E-3,440.000027418E-3,
,,,-22.57999778E-3,1.4720001,,,,,-22.57999778E-3,442.000031471E-3,
,,,-22.55999856E-3,1.4720001,,,,,-22.55999856E-3,442.000031471E-3,
,,,-22.53999934E-3,1.4800000,,,,,-22.53999934E-3,444.000035524E-3,
,,,-22.51999825E-3,1.4800000,,,,,-22.51999825E-3,444.000035524E-3,
,,,-22.49999903E-3,1.4880000,,,,,-22.49999903E-3,446.000009775E-3,
,,,-22.47999795E-3,1.4880000,,,,,-22.47999795E-3,448.000013828E-3,
,,,-22.45999873E-3,1.4960001,,,,,-22.45999873E-3,448.000013828E-3,
,,,-22.43999764E-3,1.4960001,,,,,-22.43999764E-3,450.000017881E-3,
,,,-22.41999842E-3,1.4960001,,,,,-22.41999842E-3,450.000017881E-3,
,,,-22.39999920E-3,1.5040001,,,,,-22.39999920E-3,450.000017881E-3,
,,,-22.37999812E-3,1.5040001,,,,,-22.37999812E-3,452.000021935E-3,
,,,-22.35999890E-3,1.5120001,,,,,-22.35999890E-3,452.000021935E-3,
,,,-22.33999781E-3,1.5120001,,,,,-22.33999781E-3,454.000025988E-3,
,,,-22.31999859E-3,1.5120001,,,,,-22.31999859E-3,454.000025988E-3,
,,,-22.29999937E-3,1.5200001,,,,,-22.29999937E-3,456.000030041E-3,
,,,-22.27999829E-3,1.5280001,,,,,-22.27999829E-3,458.000034094E-3,
,,,-22.25999907E-3,1.5280001,,,,,-22.25999907E-3,458.000034094E-3,
,,,-22.23999798E-3,1.5280001,,,,,-22.23999798E-3,458.000034094E-3,
,,,-22.21999876E-3,1.5360000,,,,,-22.21999876E-3,460.000008345E-3,
,,,-22.19999768E-3,1.5360000,,,,,-22.19999768E-3,462.000012398E-3,
,,,-22.17999846E-3,1.5360000,,,,,-22.17999846E-3,464.000016451E-3,
,,,-22.15999924E-3,1.5440000,,,,,-22.15999924E-3,464.000016451E-3,
,,,-22.13999815E-3,1.5440000,,,,,-22.13999815E-3,464.000016451E-3,
,,,-22.11999893E-3,1.5520000,,,,,-22.11999893E-3,466.000020504E-3,
,,,-22.09999785E-3,1.5520000,,,,,-22.09999785E-3,468.000024557E-3,
,,,-22.07999863E-3,1.5600001,,,,,-22.07999863E-3,468.000024557E-3,
,,,-22.05999941E-3,1.5600001,,,,,-22.05999941E-3,470.000028610E-3,
,,,-22.03999832E-3,1.5680001,,,,,-22.03999832E-3,470.000028610E-3,
,,,-22.01999910E-3,1.5680001,,,,,-22.01999910E-3,472.000032663E-3,
,,,-21.99999802E-3,1.5760001,,,,,-21.99999802E-3,472.000032663E-3,
,,,-21.97999880E-3,1.5760001,,,,,-21.97999880E-3,474.000036716E-3,
,,,-21.95999771E-3,1.5840001,,,,,-21.95999771E-3,474.000036716E-3,
,,,-21.93999849E-3,1.5840001,,,,,-21.93999849E-3,476.000010967E-3,
,,,-21.91999927E-3,1.5920001,,,,,-21.91999927E-3,476.000010967E-3,
,,,-21.89999819E-3,1.5920001,,,,,-21.89999819E-3,478.000015020E-3,
,,,-21.87999897E-3,1.6000000,,,,,-21.87999897E-3,478.000015020E-3,
,,,-21.85999788E-3,1.6000000,,,,,-21.85999788E-3,480.000019073E-3,
,,,-21.83999866E-3,1.6000000,,,,,-21.83999866E-3,480.000019073E-3,
,,,-21.81999944E-3,1.6080000,,,,,-21.81999944E-3,482.000023127E-3,
,,,-21.79999836E-3,1.6080000,,,,,-21.79999836E-3,484.000027180E-3,
,,,-21.77999914E-3,1.6160001,,,,,-21.77999914E-3,484.000027180E-3,
,,,-21.75999805E-3,1.6160001,,,,,-21.75999805E-3,486.000031233E-3,
,,,-21.73999883E-3,1.6240001,,,,,-21.73999883E-3,486.000031233E-3,
,,,-21.71999775E-3,1.6240001,,,,,-21.71999775E-3,488.000035286E-3,
,,,-21.69999853E-3,1.6320001,,,,,-21.69999853E-3,488.000035286E-3,
,,,-21.67999931E-3,1.6320001,,,,,-21.67999931E-3,490.000009537E-3,
,,,-21.65999822E-3,1.6320001,,,,,-21.65999822E-3,490.000009537E-3,
,,,-21.63999900E-3,1.6400001,,,,,-21.63999900E-3,492.000013590E-3,
,,,-21.61999792E-3,1.6400001,,,,,-21.61999792E-3,492.000013590E-3,
,,,-21.59999870E-3,1.6480001,,,,,-21.59999870E-3,494.000017643E-3,
,,,-21.57999948E-3,1.6480001,,,,,-21.57999948E-3,496.000021696E-3,
,,,-21.55999839E-3,1.6560001,,,,,-21.55999839E-3,496.000021696E-3,
,,,-21.53999917E-3,1.6560001,,,,,-21.53999917E-3,498.000025749E-3,
,,,-21.51999809E-3,1.6640000,,,,,-21.51999809E-3,498.000025749E-3,
,,,-21.49999887E-3,1.6640000,,,,,-21.49999887E-3,500.000000000E-3,
,,,-21.47999778E-3,1.6720001,,,,,-21.47999778E-3,502.000033855E-3,
,,,-21.45999856E-3,1.6720001,,,,,-21.45999856E-3,502.000033855E-3,
,,,-21.43999934E-3,1.6720001,,,,,-21.43999934E-3,504.000008106E-3,
,,,-21.41999826E-3,1.6800001,,,,,-21.41999826E-3,504.000008106E-3,
,,,-21.39999904E-3,1.6880001,,,,,-21.39999904E-3,506.000041962E-3,
,,,-21.37999795E-3,1.6880001,,,,,-21.37999795E-3,508.000016212E-3,
,,,-21.35999873E-3,1.6880001,,,,,-21.35999873E-3,508.000016212E-3,
,,,-21.33999951E-3,1.6960001,,,,,-21.33999951E-3,510.000050068E-3,
,,,-21.31999843E-3,1.7040001,,,,,-21.31999843E-3,510.000050068E-3,
,,,-21.29999921E-3,1.7040001,,,,,-21.29999921E-3,512.000024319E-3,
,,,-21.27999812E-3,1.7120001,,,,,-21.27999812E-3,512.000024319E-3,
,,,-21.25999890E-3,1.7120001,,,,,-21.25999890E-3,513.999998569E-3,
,,,-21.23999782E-3,1.7200000,,,,,-21.23999782E-3,513.999998569E-3,
,,,-21.21999860E-3,1.7200000,,,,,-21.21999860E-3,516.000032425E-3,
,,,-21.19999938E-3,1.7280000,,,,,-21.19999938E-3,516.000032425E-3,
,,,-21.17999829E-3,1.7280000,,,,,-21.17999829E-3,518.000006676E-3,
,,,-21.15999907E-3,1.7360001,,,,,-21.15999907E-3,520.000040531E-3,
,,,-21.13999799E-3,1.7360001,,,,,-21.13999799E-3,520.000040531E-3,
,,,-21.11999877E-3,1.7440001,,,,,-21.11999877E-3,520.000040531E-3,
,,,-21.09999768E-3,1.7440001,,,,,-21.09999768E-3,522.000014782E-3,
,,,-21.07999846E-3,1.7520001,,,,,-21.07999846E-3,524.000048637E-3,
,,,-21.05999924E-3,1.7520001,,,,,-21.05999924E-3,524.000048637E-3,
,,,-21.03999816E-3,1.7600001,,,,,-21.03999816E-3,526.000022888E-3,
,,,-21.01999894E-3,1.7600001,,,,,-21.01999894E-3,527.999997139E-3,
,,,-20.99999785E-3,1.7680001,,,,,-20.99999785E-3,527.999997139E-3,
,,,-20.97999863E-3,1.7680001,,,,,-20.97999863E-3,530.000030994E-3,
,,,-20.95999941E-3,1.7760001,,,,,-20.95999941E-3,530.000030994E-3,
,,,-20.93999833E-3,1.7760001,,,,,-20.93999833E-3,532.000005245E-3,
,,,-20.91999911E-3,1.7840000,,,,,-20.91999911E-3,532.000005245E-3,
,,,-20.89999802E-3,1.7840000,,,,,-20.89999802E-3,534.000039101E-3,
,,,-20.87999880E-3,1.7920001,,,,,-20.87999880E-3,534.000039101E-3,
,,,-20.85999772E-3,1.7920001,,,,,-20.85999772E-3,536.000013351E-3,
,,,-20.83999850E-3,1.7920001,,,,,-20.83999850E-3,538.000047207E-3,
,,,-20.81999928E-3,1.8000001,,,,,-20.81999928E-3,538.000047207E-3,
,,,-20.79999819E-3,1.8000001,,,,,-20.79999819E-3,540.000021458E-3,
,,,-20.77999897E-3,1.8080001,,,,,-20.77999897E-3,542.000055313E-3,
,,,-20.75999789E-3,1.8080001,,,,,-20.75999789E-3,542.000055313E-3,
,,,-20.73999867E-3,1.8160001,,,,,-20.73999867E-3,542.000055313E-3,
,,,-20.71999945E-3,1.8160001,,,,,-20.71999945E-3,544.000029564E-3,
,,,-20.69999836E-3,1.8240001,,,,,-20.69999836E-3,544.000029564E-3,
,,,-20.67999914E-3,1.8240001,,,,,-20.67999914E-3,546.000003815E-3,
,,,-20.65999806E-3,1.8320001,,,,,-20.65999806E-3,548.000037670E-3,
,,,-20.63999884E-3,1.8320001,,,,,-20.63999884E-3,548.000037670E-3,
,,,-20.61999775E-3,1.8400000,,,,,-20.61999775E-3,550.000011921E-3,
,,,-20.59999853E-3,1.8400000,,,,,-20.59999853E-3,550.000011921E-3,
,,,-20.57999931E-3,1.8480000,,,,,-20.57999931E-3,552.000045776E-3,
,,,-20.55999823E-3,1.8480000,,,,,-20.55999823E-3,554.000020027E-3,
,,,-20.53999901E-3,1.8560001,,,,,-20.53999901E-3,554.000020027E-3,
,,,-20.51999792E-3,1.8560001,,,,,-20.51999792E-3,554.000020027E-3,
,,,-20.49999870E-3,1.8640001,,,,,-20.49999870E-3,556.000053883E-3,
,,,-20.47999948E-3,1.8640001,,,,,-20.47999948E-3,558.000028133E-3,
,,,-20.45999840E-3,1.8720001,,,,,-20.45999840E-3,558.000028133E-3,
,,,-20.43999918E-3,1.8720001,,,,,-20.43999918E-3,560.000002384E-3,
,,,-20.41999809E-3,1.8720001,,,,,-20.41999809E-3,560.000002384E-3,
,,,-20.39999887E-3,1.8800001,,,,,-20.39999887E-3,562.000036240E-3,
,,,-20.37999779E-3,1.8800001,,,,,-20.37999779E-3,562.000036240E-3,
,,,-20.35999857E-3,1.8880001,,,,,-20.35999857E-3,564.000010490E-3,
,,,-20.33999935E-3,1.8880001,,,,,-20.33999935E-3,564.000010490E-3,
,,,-20.31999826E-3,1.8960001,,,,,-20.31999826E-3,566.000044346E-3,
,,,-20.29999904E-3,1.8960001,,,,,-20.29999904E-3,566.000044346E-3,
,,,-20.27999796E-3,1.9040000,,,,,-20.27999796E-3,568.000018597E-3,
,,,-20.25999874E-3,1.9040000,,,,,-20.25999874E-3,570.000052452E-3,
,,,-20.23999952E-3,1.9120001,,,,,-20.23999952E-3,570.000052452E-3,
,,,-20.21999843E-3,1.9120001,,,,,-20.21999843E-3,572.000026703E-3,
,,,-20.19999921E-3,1.9200001,,,,,-20.19999921E-3,572.000026703E-3,
,,,-20.17999813E-3,1.9200001,,,,,-20.17999813E-3,574.000000954E-3,
,,,-20.15999891E-3,1.9280001,,,,,-20.15999891E-3,576.000034809E-3,
,,,-20.13999783E-3,1.9280001,,,,,-20.13999783E-3,576.000034809E-3,
,,,-20.11999860E-3,1.9280001,,,,,-20.11999860E-3,576.000034809E-3,
,,,-20.09999938E-3,1.9360001,,,,,-20.09999938E-3,578.000009060E-3,
,,,-20.0799983E-3,1.9360001,,,,,-20.0799983E-3,578.000009060E-3,
,,,-20.0599991E-3,1.9440001,,,,,-20.0599991E-3,580.000042915E-3,
,,,-20.0399980E-3,1.9440001,,,,,-20.0399980E-3,582.000017166E-3,
,,,-20.0199988E-3,1.9520001,,,,,-20.0199988E-3,582.000017166E-3,
,,,-19.9999996E-3,1.9520001,,,,,-19.9999996E-3,582.000017166E-3,
,,,-19.9799985E-3,1.9600000,,,,,-19.9799985E-3,584.000051022E-3,
,,,-19.9599992E-3,1.9600000,,,,,-19.9599992E-3,586.000025272E-3,
,,,-19.9399982E-3,1.9600000,,,,,-19.9399982E-3,586.000025272E-3,
,,,-19.9199989E-3,1.9680001,,,,,-19.9199989E-3,587.999999523E-3,
,,,-19.8999979E-3,1.9680001,,,,,-19.8999979E-3,587.999999523E-3,
,,,-19.8799986E-3,1.9760001,,,,,-19.8799986E-3,590.000033379E-3,
,,,-19.8599994E-3,1.9760001,,,,,-19.8599994E-3,590.000033379E-3,
,,,-19.8399983E-3,1.9840001,,,,,-19.8399983E-3,592.000007629E-3,
,,,-19.8199991E-3,1.9840001,,,,,-19.8199991E-3,594.000041485E-3,
,,,-19.7999980E-3,1.9920001,,,,,-19.7999980E-3,594.000041485E-3,
,,,-19.7799988E-3,1.9920001,,,,,-19.7799988E-3,596.000015736E-3,
,,,-19.7599977E-3,2.0000000,,,,,-19.7599977E-3,596.000015736E-3,
,,,-19.7399985E-3,2.0000000,,,,,-19.7399985E-3,598.000049591E-3,
,,,-19.7199993E-3,2.0080001,,,,,-19.7199993E-3,598.000049591E-3,
,,,-19.6999982E-3,2.0080001,,,,,-19.6999982E-3,600.000023842E-3,
,,,-19.6799990E-3,2.0080001,,,,,-19.6799990E-3,600.000023842E-3,
,,,-19.6599979E-3,2.0160000,,,,,-19.6599979E-3,602.000057697E-3,
,,,-19.6399987E-3,2.0160000,,,,,-19.6399987E-3,602.000057697E-3,
,,,-19.6199995E-3,2.0240002,,,,,-19.6199995E-3,604.000031948E-3,
,,,-19.5999984E-3,2.0240002,,,,,-19.5999984E-3,604.000031948E-3,
,,,-19.5799991E-3,2.0320001,,,,,-19.5799991E-3,606.000006199E-3,
,,,-19.5599981E-3,2.0320001,,,,,-19.5599981E-3,606.000006199E-3,
,,,-19.5399988E-3,2.0320001,,,,,-19.5399988E-3,608.000040054E-3,
,,,-19.5199978E-3,2.0400002,,,,,-19.5199978E-3,608.000040054E-3,
,,,-19.4999985E-3,2.0400002,,,,,-19.4999985E-3,610.000014305E-3,
,,,-19.4799993E-3,2.0480001,,,,,-19.4799993E-3,610.000014305E-3,
,,,-19.4599982E-3,2.0480001,,,,,-19.4599982E-3,612.000048161E-3,
,,,-19.4399990E-3,2.0560000,,,,,-19.4399990E-3,612.000048161E-3,
,,,-19.4199979E-3,2.0560000,,,,,-19.4199979E-3,614.000022411E-3,
,,,-19.3999987E-3,2.0640001,,,,,-19.3999987E-3,614.000022411E-3,
,,,-19.3799995E-3,2.0640001,,,,,-19.3799995E-3,616.000056267E-3,
,,,-19.3599984E-3,2.0640001,,,,,-19.3599984E-3,616.000056267E-3,
,,,-19.3399992E-3,2.0720000,,,,,-19.3399992E-3,618.000030518E-3,
,,,-19.3199981E-3,2.0720000,,,,,-19.3199981E-3,618.000030518E-3,
,,,-19.2999989E-3,2.0800002,,,,,-19.2999989E-3,618.000030518E-3,
,,,-19.2799978E-3,2.0800002,,,,,-19.2799978E-3,620.000004768E-3,
,,,-19.2599986E-3,2.0800002,,,,,-19.2599986E-3,622.000038624E-3,
,,,-19.2399994E-3,2.0880001,,,,,-19.2399994E-3,622.000038624E-3,
,,,-19.2199983E-3,2.0880001,,,,,-19.2199983E-3,622.000038624E-3,
,,,-19.1999990E-3,2.0960002,,,,,-19.1999990E-3,624.000012875E-3,
,,,-19.1799980E-3,2.0960002,,,,,-19.1799980E-3,624.000012875E-3,
