impedance_data/s500.csv

Record Length,2500,Points,-2.5000002E-3,1.1680001,,Record Length,2500,Points,-2.5000002E-3,354.00000215E-3,
Sample Interval,2.0000000E-6,s,-2.4980002E-3,1.1760000,,Sample Interval,2.0000000E-6,s,-2.4980002E-3,354.00000215E-3,
Trigger Point,1.2500002E3,Samples,-2.4960001E-3,1.1760000,,Trigger Point,1.2500002E3,Samples,-2.4960001E-3,356.00000620E-3,
,,,-2.4940001E-3,1.1760000,,,,,-2.4940001E-3,356.00000620E-3,
,,,-2.4920001E-3,1.1760000,,,,,-2.4920001E-3,356.00000620E-3,
,,,-2.4900001E-3,1.1760000,,,,,-2.4900001E-3,356.00000620E-3,
Source,CH1,,-2.4880001E-3,1.1760000,,Source,CH2,,-2.4880001E-3,356.00000620E-3,
Vertical Units,Volts,,-2.4860001E-3,1.1840000,,Vertical Units,Volts,,-2.4860001E-3,358.00001025E-3,
Vertical Scale,200.00000950E-3,,-2.4840003E-3,1.1840000,,Vertical Scale,50.00000237E-3,,-2.4840003E-3,358.00001025E-3,
Vertical Offset,0,,-2.4820003E-3,1.1840000,,Vertical Offset,0,,-2.4820003E-3,358.00001025E-3,
Horizontal Units,s,,-2.4800003E-3,1.1840000,,Horizontal Units,s,,-2.4800003E-3,358.00001025E-3,
Horizontal Scale,499.999998738E-6,,-2.4780002E-3,1.1840000,,Horizontal Scale,499.999998738E-6,,-2.4780002E-3,358.00001025E-3,
Pt Fmt,Y,,-2.4760002E-3,1.1840000,,Pt Fmt,Y,,-2.4760002E-3,358.00001025E-3,
Yzero,-8.840000000,,-2.4740002E-3,1.1840000,,Yzero,-10.8000000,,-2.4740002E-3,360.00001431E-3,
Probe Atten,1.000000,,-2.4720002E-3,1.1920000,,Probe Atten,1.000000,,-2.4720002E-3,360.00001431E-3,
,,,-2.4700002E-3,1.1920000,,,,,-2.4700002E-3,360.00001431E-3,
Note,TBS 1022 - 18:41:09   25/7/2022,,-2.4680002E-3,1.1920000,,Note,TBS 1022 - 18:41:09   25/7/2022,,-2.4680002E-3,360.00001431E-3,
,,,-2.4660002E-3,1.1920000,,,,,-2.4660002E-3,362.00001836E-3,
,,,-2.4640001E-3,1.1920000,,,,,-2.4640001E-3,362.00001836E-3,
,,,-2.4620001E-3,1.1920000,,,,,-2.4620001E-3,362.00001836E-3,
,,,-2.4600001E-3,1.2000000,,,,,-2.4600001E-3,362.00001836E-3,
,,,-2.4580001E-3,1.2000000,,,,,-2.4580001E-3,362.00001836E-3,
,,,-2.4560001E-3,1.2000000,,,,,-2.4560001E-3,364.00002241E-3,
,,,-2.4540003E-3,1.2000000,,,,,-2.4540003E-3,364.00002241E-3,
,,,-2.4520003E-3,1.2000000,,,,,-2.4520003E-3,364.00002241E-3,
,,,-2.4500003E-3,1.2000000,,,,,-2.4500003E-3,364.00002241E-3,
,,,-2.4480002E-3,1.2080001,,,,,-2.4480002E-3,366.00002646E-3,
,,,-2.4460002E-3,1.2080001,,,,,-2.4460002E-3,366.00002646E-3,
,,,-2.4440002E-3,1.2080001,,,,,-2.4440002E-3,366.00002646E-3,
,,,-2.4420002E-3,1.2160001,,,,,-2.4420002E-3,366.00002646E-3,
,,,-2.4400002E-3,1.2160001,,,,,-2.4400002E-3,368.00003052E-3,
,,,-2.4380002E-3,1.2160001,,,,,-2.4380002E-3,368.00003052E-3,
,,,-2.4360002E-3,1.2160001,,,,,-2.4360002E-3,368.00003052E-3,
,,,-2.4340001E-3,1.2160001,,,,,-2.4340001E-3,370.00000477E-3,
,,,-2.4320001E-3,1.2240001,,,,,-2.4320001E-3,370.00000477E-3,
,,,-2.4300001E-3,1.2240001,,,,,-2.4300001E-3,370.00000477E-3,
,,,-2.4280001E-3,1.2240001,,,,,-2.4280001E-3,370.00000477E-3,
,,,-2.4260001E-3,1.2240001,,,,,-2.4260001E-3,370.00000477E-3,
,,,-2.4240001E-3,1.2320001,,,,,-2.4240001E-3,372.00000882E-3,
,,,-2.4220003E-3,1.2320001,,,,,-2.4220003E-3,372.00000882E-3,
,,,-2.4200003E-3,1.2320001,,,,,-2.4200003E-3,372.00000882E-3,
,,,-2.4180003E-3,1.2320001,,,,,-2.4180003E-3,372.00000882E-3,
,,,-2.4160002E-3,1.2320001,,,,,-2.4160002E-3,374.00001287E-3,
,,,-2.4140002E-3,1.2400000,,,,,-2.4140002E-3,374.00001287E-3,
,,,-2.4120002E-3,1.2400000,,,,,-2.4120002E-3,376.00001693E-3,
,,,-2.4100002E-3,1.2400000,,,,,-2.4100002E-3,376.00001693E-3,
,,,-2.4080002E-3,1.2480000,,,,,-2.4080002E-3,376.00001693E-3,
,,,-2.4060002E-3,1.2480000,,,,,-2.4060002E-3,376.00001693E-3,
,,,-2.4040001E-3,1.2480000,,,,,-2.4040001E-3,378.00002098E-3,
,,,-2.4020001E-3,1.2560000,,,,,-2.4020001E-3,378.00002098E-3,
,,,-2.4000001E-3,1.2560000,,,,,-2.4000001E-3,378.00002098E-3,
,,,-2.3980001E-3,1.2560000,,,,,-2.3980001E-3,380.00002503E-3,
,,,-2.3960001E-3,1.2560000,,,,,-2.3960001E-3,380.00002503E-3,
,,,-2.3940001E-3,1.2560000,,,,,-2.3940001E-3,382.00002909E-3,
,,,-2.3920003E-3,1.2640001,,,,,-2.3920003E-3,382.00002909E-3,
,,,-2.3900003E-3,1.2640001,,,,,-2.3900003E-3,382.00002909E-3,
,,,-2.3880003E-3,1.2640001,,,,,-2.3880003E-3,384.00000334E-3,
,,,-2.3860002E-3,1.2720001,,,,,-2.3860002E-3,384.00000334E-3,
,,,-2.3840002E-3,1.2720001,,,,,-2.3840002E-3,384.00000334E-3,
,,,-2.3820002E-3,1.2720001,,,,,-2.3820002E-3,386.00000739E-3,
,,,-2.3800002E-3,1.2720001,,,,,-2.3800002E-3,386.00000739E-3,
,,,-2.3780002E-3,1.2800001,,,,,-2.3780002E-3,386.00000739E-3,
,,,-2.3760002E-3,1.2800001,,,,,-2.3760002E-3,388.00001144E-3,
,,,-2.3740001E-3,1.2800001,,,,,-2.3740001E-3,388.00001144E-3,
,,,-2.3720001E-3,1.2880001,,,,,-2.3720001E-3,388.00001144E-3,
,,,-2.3700001E-3,1.2880001,,,,,-2.3700001E-3,390.00001550E-3,
,,,-2.3680001E-3,1.2880001,,,,,-2.3680001E-3,390.00001550E-3,
,,,-2.3660001E-3,1.2880001,,,,,-2.3660001E-3,390.00001550E-3,
,,,-2.3640001E-3,1.2960000,,,,,-2.3640001E-3,392.00001955E-3,
,,,-2.3620003E-3,1.2960000,,,,,-2.3620003E-3,392.00001955E-3,
,,,-2.3600003E-3,1.2960000,,,,,-2.3600003E-3,394.00002360E-3,
,,,-2.3580003E-3,1.3040000,,,,,-2.3580003E-3,394.00002360E-3,
,,,-2.3560002E-3,1.3040000,,,,,-2.3560002E-3,394.00002360E-3,
,,,-2.3540002E-3,1.3040000,,,,,-2.3540002E-3,396.00002766E-3,
,,,-2.3520002E-3,1.3120000,,,,,-2.3520002E-3,396.00002766E-3,
,,,-2.3500002E-3,1.3120000,,,,,-2.3500002E-3,398.00003171E-3,
,,,-2.3480002E-3,1.3200001,,,,,-2.3480002E-3,398.00003171E-3,
,,,-2.3460002E-3,1.3200001,,,,,-2.3460002E-3,398.00003171E-3,
,,,-2.3440002E-3,1.3200001,,,,,-2.3440002E-3,400.00000596E-3,
,,,-2.3420001E-3,1.3200001,,,,,-2.3420001E-3,400.00000596E-3,
,,,-2.3400001E-3,1.3280001,,,,,-2.3400001E-3,402.00001001E-3,
,,,-2.3380001E-3,1.3280001,,,,,-2.3380001E-3,402.00001001E-3,
,,,-2.3360001E-3,1.3360001,,,,,-2.3360001E-3,402.00001001E-3,
,,,-2.3340001E-3,1.3360001,,,,,-2.3340001E-3,404.000014067E-3,
,,,-2.3320001E-3,1.3360001,,,,,-2.3320001E-3,404.000014067E-3,
,,,-2.3300003E-3,1.3440001,,,,,-2.3300003E-3,404.000014067E-3,
,,,-2.3280003E-3,1.3440001,,,,,-2.3280003E-3,406.000018120E-3,
,,,-2.3260002E-3,1.3520001,,,,,-2.3260002E-3,406.000018120E-3,
,,,-2.3240002E-3,1.3520001,,,,,-2.3240002E-3,408.000022173E-3,
,,,-2.3220002E-3,1.3520001,,,,,-2.3220002E-3,408.000022173E-3,
,,,-2.3200002E-3,1.3600000,,,,,-2.3200002E-3,408.000022173E-3,
,,,-2.3180002E-3,1.3600000,,,,,-2.3180002E-3,410.000026226E-3,
,,,-2.3160002E-3,1.3600000,,,,,-2.3160002E-3,410.000026226E-3,
,,,-2.3140002E-3,1.3680000,,,,,-2.3140002E-3,412.000030279E-3,
,,,-2.3120001E-3,1.3680000,,,,,-2.3120001E-3,412.000030279E-3,
,,,-2.3100001E-3,1.3760000,,,,,-2.3100001E-3,414.000034332E-3,
,,,-2.3080001E-3,1.3760000,,,,,-2.3080001E-3,414.000034332E-3,
,,,-2.3060001E-3,1.3760000,,,,,-2.3060001E-3,416.000008583E-3,
,,,-2.3040001E-3,1.3840001,,,,,-2.3040001E-3,416.000008583E-3,
,,,-2.3020001E-3,1.3840001,,,,,-2.3020001E-3,418.000012636E-3,
,,,-2.3000003E-3,1.3920001,,,,,-2.3000003E-3,418.000012636E-3,
,,,-2.2980003E-3,1.3920001,,,,,-2.2980003E-3,420.000016689E-3,
,,,-2.2960003E-3,1.3920001,,,,,-2.2960003E-3,420.000016689E-3,
,,,-2.2940002E-3,1.3920001,,,,,-2.2940002E-3,422.000020742E-3,
,,,-2.2920002E-3,1.4000001,,,,,-2.2920002E-3,422.000020742E-3,
,,,-2.2900002E-3,1.4000001,,,,,-2.2900002E-3,422.000020742E-3,
,,,-2.2880002E-3,1.4080001,,,,,-2.2880002E-3,424.000024796E-3,
,,,-2.2860002E-3,1.4080001,,,,,-2.2860002E-3,426.000028849E-3,
,,,-2.2840002E-3,1.4080001,,,,,-2.2840002E-3,426.000028849E-3,
,,,-2.2820001E-3,1.4160000,,,,,-2.2820001E-3,428.000032902E-3,
,,,-2.2800001E-3,1.4160000,,,,,-2.2800001E-3,428.000032902E-3,
,,,-2.2780001E-3,1.4240000,,,,,-2.2780001E-3,428.000032902E-3,
,,,-2.2760001E-3,1.4240000,,,,,-2.2760001E-3,430.000007153E-3,
,,,-2.2740001E-3,1.4240000,,,,,-2.2740001E-3,432.000011206E-3,
,,,-2.2720001E-3,1.4320000,,,,,-2.2720001E-3,432.000011206E-3,
,,,-2.2700003E-3,1.4320000,,,,,-2.2700003E-3,432.000011206E-3,
,,,-2.2680003E-3,1.4400001,,,,,-2.2680003E-3,434.000015259E-3,
,,,-2.2660003E-3,1.4400001,,,,,-2.2660003E-3,434.000015259E-3,
,,,-2.2640002E-3,1.4400001,,,,,-2.2640002E-3,436.000019312E-3,
,,,-2.2620002E-3,1.4480001,,,,,-2.2620002E-3,436.000019312E-3,
,,,-2.2600002E-3,1.4480001,,,,,-2.2600002E-3,438.000023365E-3,
,,,-2.2580002E-3,1.4560001,,,,,-2.2580002E-3,438.000023365E-3,
,,,-2.2560002E-3,1.4640001,,,,,-2.2560002E-3,440.000027418E-3,
,,,-2.2540002E-3,1.4640001,,,,,-2.2540002E-3,440.000027418E-3,
,,,-2.2520002E-3,1.4640001,,,,,-2.2520002E-3,442.000031471E-3,
,,,-2.2500001E-3,1.4640001,,,,,-2.2500001E-3,442.000031471E-3,
,,,-2.2480001E-3,1.4720001,,,,,-2.2480001E-3,444.000035524E-3,
,,,-2.2460001E-3,1.4720001,,,,,-2.2460001E-3,444.000035524E-3,
,,,-2.2440001E-3,1.4800000,,,,,-2.2440001E-3,446.000009775E-3,
,,,-2.2420001E-3,1.4800000,,,,,-2.2420001E-3,446.000009775E-3,
,,,-2.2400003E-3,1.4880000,,,,,-2.2400003E-3,448.000013828E-3,
,,,-2.2380003E-3,1.4880000,,,,,-2.2380003E-3,448.000013828E-3,
,,,-2.2360003E-3,1.4960001,,,,,-2.2360003E-3,450.000017881E-3,
,,,-2.2340002E-3,1.4960001,,,,,-2.2340002E-3,450.000017881E-3,
,,,-2.2320002E-3,1.4960001,,,,,-2.2320002E-3,452.000021935E-3,
,,,-2.2300002E-3,1.5040001,,,,,-2.2300002E-3,452.000021935E-3,
,,,-2.2280002E-3,1.5040001,,,,,-2.2280002E-3,454.000025988E-3,
,,,-2.2260002E-3,1.5120001,,,,,-2.2260002E-3,454.000025988E-3,
,,,-2.2240002E-3,1.5120001,,,,,-2.2240002E-3,456.000030041E-3,
,,,-2.2220002E-3,1.5200001,,,,,-2.2220002E-3,456.000030041E-3,
,,,-2.2200001E-3,1.5200001,,,,,-2.2200001E-3,458.000034094E-3,
,,,-2.2180001E-3,1.5280001,,,,,-2.2180001E-3,458.000034094E-3,
,,,-2.2160001E-3,1.5280001,,,,,-2.2160001E-3,460.000008345E-3,
,,,-2.2140001E-3,1.5280001,,,,,-2.2140001E-3,460.000008345E-3,
,,,-2.2120001E-3,1.5360000,,,,,-2.2120001E-3,462.000012398E-3,
,,,-2.2100001E-3,1.5360000,,,,,-2.2100001E-3,464.000016451E-3,
,,,-2.2080003E-3,1.5440000,,,,,-2.2080003E-3,464.000016451E-3,
,,,-2.2060003E-3,1.5440000,,,,,-2.2060003E-3,466.000020504E-3,
,,,-2.2040003E-3,1.5440000,,,,,-2.2040003E-3,466.000020504E-3,
,,,-2.2020002E-3,1.5520000,,,,,-2.2020002E-3,468.000024557E-3,
,,,-2.2000002E-3,1.5600001,,,,,-2.2000002E-3,468.000024557E-3,
,,,-2.1980002E-3,1.5600001,,,,,-2.1980002E-3,470.000028610E-3,
,,,-2.1960002E-3,1.5600001,,,,,-2.1960002E-3,472.000032663E-3,
,,,-2.1940002E-3,1.5680001,,,,,-2.1940002E-3,472.000032663E-3,
,,,-2.1920002E-3,1.5680001,,,,,-2.1920002E-3,474.000036716E-3,
,,,-2.1900001E-3,1.5760001,,,,,-2.1900001E-3,474.000036716E-3,
,,,-2.1880001E-3,1.5840001,,,,,-2.1880001E-3,474.000036716E-3,
,,,-2.1860001E-3,1.5840001,,,,,-2.1860001E-3,476.000010967E-3,
,,,-2.1840001E-3,1.5840001,,,,,-2.1840001E-3,478.000015020E-3,
,,,-2.1820001E-3,1.5920001,,,,,-2.1820001E-3,478.000015020E-3,
,,,-2.1800001E-3,1.6000000,,,,,-2.1800001E-3,480.000019073E-3,
,,,-2.1780003E-3,1.6000000,,,,,-2.1780003E-3,480.000019073E-3,
,,,-2.1760003E-3,1.6000000,,,,,-2.1760003E-3,482.000023127E-3,
,,,-2.1740003E-3,1.6080000,,,,,-2.1740003E-3,482.000023127E-3,
,,,-2.1720002E-3,1.6080000,,,,,-2.1720002E-3,484.000027180E-3,
,,,-2.1700002E-3,1.6160001,,,,,-2.1700002E-3,486.000031233E-3,
,,,-2.1680002E-3,1.6160001,,,,,-2.1680002E-3,486.000031233E-3,
,,,-2.1660002E-3,1.6240001,,,,,-2.1660002E-3,488.000035286E-3,
,,,-2.1640002E-3,1.6240001,,,,,-2.1640002E-3,488.000035286E-3,
,,,-2.1620002E-3,1.6320001,,,,,-2.1620002E-3,490.000009537E-3,
,,,-2.1600001E-3,1.6320001,,,,,-2.1600001E-3,490.000009537E-3,
,,,-2.1580001E-3,1.6320001,,,,,-2.1580001E-3,492.000013590E-3,
,,,-2.1560001E-3,1.6400001,,,,,-2.1560001E-3,492.000013590E-3,
,,,-2.1540001E-3,1.6480001,,,,,-2.1540001E-3,494.000017643E-3,
,,,-2.1520001E-3,1.6480001,,,,,-2.1520001E-3,496.000021696E-3,
,,,-2.1500001E-3,1.6480001,,,,,-2.1500001E-3,496.000021696E-3,
,,,-2.1480003E-3,1.6560001,,,,,-2.1480003E-3,498.000025749E-3,
,,,-2.1460003E-3,1.6560001,,,,,-2.1460003E-3,498.000025749E-3,
,,,-2.1440003E-3,1.6640000,,,,,-2.1440003E-3,500.000000000E-3,
,,,-2.1420002E-3,1.6640000,,,,,-2.1420002E-3,502.000033855E-3,
,,,-2.1400002E-3,1.6720001,,,,,-2.1400002E-3,502.000033855E-3,
,,,-2.1380002E-3,1.6720001,,,,,-2.1380002E-3,504.000008106E-3,
,,,-2.1360002E-3,1.6800001,,,,,-2.1360002E-3,504.000008106E-3,
,,,-2.1340002E-3,1.6800001,,,,,-2.1340002E-3,506.000041962E-3,
,,,-2.1320002E-3,1.6880001,,,,,-2.1320002E-3,506.000041962E-3,
,,,-2.1300002E-3,1.6880001,,,,,-2.1300002E-3,508.000016212E-3,
,,,-2.1280001E-3,1.6960001,,,,,-2.1280001E-3,508.000016212E-3,
,,,-2.1260001E-3,1.6960001,,,,,-2.1260001E-3,510.000050068E-3,
,,,-2.1240001E-3,1.7040001,,,,,-2.1240001E-3,510.000050068E-3,
,,,-2.1220001E-3,1.7040001,,,,,-2.1220001E-3,512.000024319E-3,
,,,-2.1200001E-3,1.7120001,,,,,-2.1200001E-3,513.999998569E-3,
,,,-2.1180001E-3,1.7120001,,,,,-2.1180001E-3,513.999998569E-3,
,,,-2.1160003E-3,1.7200000,,,,,-2.1160003E-3,516.000032425E-3,
,,,-2.1140003E-3,1.7200000,,,,,-2.1140003E-3,518.000006676E-3,
,,,-2.1120002E-3,1.7280000,,,,,-2.1120002E-3,518.000006676E-3,
,,,-2.1100002E-3,1.7280000,,,,,-2.1100002E-3,520.000040531E-3,
,,,-2.1080002E-3,1.7360001,,,,,-2.1080002E-3,520.000040531E-3,
,,,-2.1060002E-3,1.7360001,,,,,-2.1060002E-3,522.000014782E-3,
,,,-2.1040002E-3,1.7440001,,,,,-2.1040002E-3,522.000014782E-3,
,,,-2.1020002E-3,1.7440001,,,,,-2.1020002E-3,524.000048637E-3,
,,,-2.1000002E-3,1.7520001,,,,,-2.1000002E-3,526.000022888E-3,
,,,-2.0980001E-3,1.7520001,,,,,-2.0980001E-3,526.000022888E-3,
,,,-2.0960001E-3,1.7600001,,,,,-2.0960001E-3,527.999997139E-3,
,,,-2.0940001E-3,1.7600001,,,,,-2.0940001E-3,527.999997139E-3,
,,,-2.0920001E-3,1.7680001,,,,,-2.0920001E-3,530.000030994E-3,
,,,-2.0900001E-3,1.7680001,,,,,-2.0900001E-3,530.000030994E-3,
,,,-2.0880001E-3,1.7760001,,,,,-2.0880001E-3,532.000005245E-3,
,,,-2.0860003E-3,1.7760001,,,,,-2.0860003E-3,534.000039101E-3,
,,,-2.0840003E-3,1.7840000,,,,,-2.0840003E-3,534.000039101E-3,
,,,-2.0820003E-3,1.7920001,,,,,-2.0820003E-3,536.000013351E-3,
,,,-2.0800002E-3,1.7920001,,,,,-2.0800002E-3,538.000047207E-3,
,,,-2.0780002E-3,1.7920001,,,,,-2.0780002E-3,538.000047207E-3,
,,,-2.0760002E-3,1.8000001,,,,,-2.0760002E-3,540.000021458E-3,
,,,-2.0740002E-3,1.8000001,,,,,-2.0740002E-3,540.000021458E-3,
,,,-2.0720002E-3,1.8080001,,,,,-2.0720002E-3,542.000055313E-3,
,,,-2.0700002E-3,1.8080001,,,,,-2.0700002E-3,542.000055313E-3,
,,,-2.0680001E-3,1.8160001,,,,,-2.0680001E-3,544.000029564E-3,
,,,-2.0660001E-3,1.8160001,,,,,-2.0660001E-3,544.000029564E-3,
,,,-2.0640001E-3,1.8240001,,,,,-2.0640001E-3,546.000003815E-3,
,,,-2.0620001E-3,1.8240001,,,,,-2.0620001E-3,546.000003815E-3,
,,,-2.0600001E-3,1.8320001,,,,,-2.0600001E-3,548.000037670E-3,
,,,-2.0580001E-3,1.8320001,,,,,-2.0580001E-3,550.000011921E-3,
,,,-2.0560003E-3,1.8400000,,,,,-2.0560003E-3,550.000011921E-3,
,,,-2.0540003E-3,1.8400000,,,,,-2.0540003E-3,552.000045776E-3,
,,,-2.0520003E-3,1.8480000,,,,,-2.0520003E-3,554.000020027E-3,
,,,-2.0500002E-3,1.8480000,,,,,-2.0500002E-3,554.000020027E-3,
,,,-2.0480002E-3,1.8560001,,,,,-2.0480002E-3,556.000053883E-3,
,,,-2.0460002E-3,1.8560001,,,,,-2.0460002E-3,556.000053883E-3,
,,,-2.0440002E-3,1.8640001,,,,,-2.0440002E-3,558.000028133E-3,
,,,-2.0420002E-3,1.8640001,,,,,-2.0420002E-3,560.000002384E-3,
,,,-2.0400002E-3,1.8720001,,,,,-2.0400002E-3,560.000002384E-3,
,,,-2.0380002E-3,1.8720001,,,,,-2.0380002E-3,560.000002384E-3,
,,,-2.0360001E-3,1.8720001,,,,,-2.0360001E-3,562.000036240E-3,
,,,-2.0340001E-3,1.8800001,,,,,-2.0340001E-3,564.000010490E-3,
,,,-2.0320001E-3,1.8800001,,,,,-2.0320001E-3,564.000010490E-3,
,,,-2.0300001E-3,1.8880001,,,,,-2.0300001E-3,566.000044346E-3,
,,,-2.0280001E-3,1.8960001,,,,,-2.0280001E-3,566.000044346E-3,
,,,-2.0260003E-3,1.8960001,,,,,-2.0260003E-3,568.000018597E-3,
,,,-2.0240003E-3,1.8960001,,,,,-2.0240003E-3,568.000018597E-3,
,,,-2.0220003E-3,1.9040000,,,,,-2.0220003E-3,570.000052452E-3,
,,,-2.0200002E-3,1.9120001,,,,,-2.0200002E-3,570.000052452E-3,
,,,-2.0180002E-3,1.9120001,,,,,-2.0180002E-3,572.000026703E-3,
,,,-2.0160002E-3,1.9120001,,,,,-2.0160002E-3,574.000000954E-3,
,,,-2.0140002E-3,1.9200001,,,,,-2.0140002E-3,574.000000954E-3,
,,,-2.0120002E-3,1.9200001,,,,,-2.0120002E-3,576.000034809E-3,
,,,-2.0100002E-3,1.9280001,,,,,-2.0100002E-3,576.000034809E-3,
,,,-2.0080002E-3,1.9280001,,,,,-2.0080002E-3,578.000009060E-3,
,,,-2.0060001E-3,1.9360001,,,,,-2.0060001E-3,578.000009060E-3,
,,,-2.0040001E-3,1.9360001,,,,,-2.0040001E-3,580.000042915E-3,
,,,-2.0020001E-3,1.9440001,,,,,-2.0020001E-3,580.000042915E-3,
,,,-2.0000001E-3,1.9440001,,,,,-2.0000001E-3,582.000017166E-3,
,,,-1.9980001E-3,1.9440001,,,,,-1.9980001E-3,582.000017166E-3,
,,,-1.9960001E-3,1.9520001,,,,,-1.9960001E-3,584.000051022E-3,
,,,-1.9940003E-3,1.9600000,,,,,-1.9940003E-3,586.000025272E-3,
,,,-1.9920003E-3,1.9600000,,,,,-1.9920003E-3,586.000025272E-3,
,,,-1.9900003E-3,1.9600000,,,,,-1.9900003E-3,587.999999523E-3,
,,,-1.9880002E-3,1.9680001,,,,,-1.9880002E-3,587.999999523E-3,
,,,-1.9860002E-3,1.9680001,,,,,-1.9860002E-3,590.000033379E-3,
,,,-1.9840002E-3,1.9760001,,,,,-1.9840002E-3,590.000033379E-3,
,,,-1.9820002E-3,1.9760001,,,,,-1.9820002E-3,592.000007629E-3,
,,,-1.9800002E-3,1.9840001,,,,,-1.9800002E-3,594.000041485E-3,
,,,-1.9780002E-3,1.9840001,,,,,-1.9780002E-3,594.000041485E-3,
,,,-1.9760001E-3,1.9920001,,,,,-1.9760001E-3,596.000015736E-3,
,,,-1.9740001E-3,1.9920001,,,,,-1.9740001E-3,596.000015736E-3,
,,,-1.9720001E-3,2.0000000,,,,,-1.9720001E-3,598.000049591E-3,
,,,-1.9700001E-3,2.0000000,,,,,-1.9700001E-3,598.000049591E-3,
,,,-1.9680001E-3,2.0080001,,,,,-1.9680001E-3,600.000023842E-3,
,,,-1.9660001E-3,2.0080001,,,,,-1.9660001E-3,600.000023842E-3,
,,,-1.9640003E-3,2.0160000,,,,,-1.9640003E-3,602.000057697E-3,
,,,-1.9620003E-3,2.0160000,,,,,-1.9620003E-3,602.000057697E-3,
,,,-1.9600003E-3,2.0160000,,,,,-1.9600003E-3,604.000031948E-3,
,,,-1.9580002E-3,2.0240002,,,,,-1.9580002E-3,604.000031948E-3,
,,,-1.9560002E-3,2.0240002,,,,,-1.9560002E-3,606.000006199E-3,
,,,-1.9540002E-3,2.0320001,,,,,-1.9540002E-3,606.000006199E-3,
,,,-1.9520002E-3,2.0320001,,,,,-1.9520002E-3,608.000040054E-3,
,,,-1.9500002E-3,2.0400002,,,,,-1.9500002E-3,610.000014305E-3,
,,,-1.9480002E-3,2.0400002,,,,,-1.9480002E-3,610.000014305E-3,
,,,-1.9460001E-3,2.0480001,,,,,-1.9460001E-3,612.000048161E-3,
,,,-1.9440001E-3,2.0480001,,,,,-1.9440001E-3,612.000048161E-3,
,,,-1.9420002E-3,2.0480001,,,,,-1.9420002E-3,612.000048161E-3,
,,,-1.9400002E-3,2.0560000,,,,,-1.9400002E-3,614.000022411E-3,
,,,-1.9380002E-3,2.0560000,,,,,-1.9380002E-3,614.000022411E-3,
,,,-1.9360002E-3,2.0640001,,,,,-1.9360002E-3,616.000056267E-3,
,,,-1.9340002E-3,2.0640001,,,,,-1.9340002E-3,616.000056267E-3,
,,,-1.9320002E-3,2.0720000,,,,,-1.9320002E-3,618.000030518E-3,
,,,-1.9300001E-3,2.0720000,,,,,-1.9300001E-3,618.000030518E-3,
,,,-1.9280001E-3,2.0800002,,,,,-1.9280001E-3,620.000004768E-3,
,,,-1.9260002E-3,2.0800002,,,,,-1.9260002E-3,620.000004768E-3,
,,,-1.9240002E-3,2.0800002,,,,,-1.9240002E-3,622.000038624E-3,
,,,-1.9220002E-3,2.0800002,,,,,-1.9220002E-3,622.000038624E-3,
,,,-1.9200002E-3,2.0880001,,,,,-1.9200002E-3,624.000012875E-3,
,,,-1.9180002E-3,2.0880001,,,,,-1.9180002E-3,624.000012875E-3,
,,,-1.9160002E-3,2.0960002,,,,,-1.9160002E-3,626.000046730E-3,
,,,-1.9140001E-3,2.0960002,,,,,-1.9140001E-3,626.000046730E-3,
,,,-1.9120001E-3,2.1040001,,,,,-1.9120001E-3,628.000020981E-3,
,,,-1.9100002E-3,2.1040001,,,,,-1.9100002E-3,628.000020981E-3,
,,,-1.9080002E-3,2.1120000,,,,,-1.9080002E-3,630.000054836E-3,
,,,-1.9060002E-3,2.1120000,,,,,-1.9060002E-3,630.000054836E-3,
,,,-1.9040002E-3,2.1200001,,,,,-1.9040002E-3,632.000029087E-3,
,,,-1.9020002E-3,2.1200001,,,,,-1.9020002E-3,634.000003338E-3,
,,,-1.9000001E-3,2.1200001,,,,,-1.9000001E-3,634.000003338E-3,
,,,-1.8980001E-3,2.1280000,,,,,-1.8980001E-3,634.000003338E-3,
,,,-1.8960002E-3,2.1280000,,,,,-1.8960002E-3,636.000037193E-3,
,,,-1.8940002E-3,2.1360002,,,,,-1.8940002E-3,636.000037193E-3,
,,,-1.8920002E-3,2.1360002,,,,,-1.8920002E-3,638.000011444E-3,
,,,-1.8900002E-3,2.1360002,,,,,-1.8900002E-3,638.000011444E-3,
,,,-1.8880002E-3,2.1440001,,,,,-1.8880002E-3,640.000045300E-3,
,,,-1.8860002E-3,2.1440001,,,,,-1.8860002E-3,640.000045300E-3,
,,,-1.8840001E-3,2.1520002,,,,,-1.8840001E-3,642.000019550E-3,
